%!PS-Adobe-3.0
%%Creator: PCBNEW
%%CreationDate: Sat Jun 22 18:17:51 2019
%%Title: /home/ulicesah/Documents/KiCAD/Boards/Display7segx4/Display7segx4-PTH-drl_map.ps
%%Pages: 1
%%PageOrder: Ascend
%%BoundingBox: 0 0 596 842
%%DocumentMedia: A4 595 842 0 () ()
%%Orientation: Landscape
%%EndComments
%%BeginProlog
/line { newpath moveto lineto stroke } bind def
/cir0 { newpath 0 360 arc stroke } bind def
/cir1 { newpath 0 360 arc gsave fill grestore stroke } bind def
/cir2 { newpath 0 360 arc gsave fill grestore stroke } bind def
/arc0 { newpath arc stroke } bind def
/arc1 { newpath 4 index 4 index moveto arc closepath gsave fill
    grestore stroke } bind def
/arc2 { newpath 4 index 4 index moveto arc closepath gsave fill
    grestore stroke } bind def
/poly0 { stroke } bind def
/poly1 { closepath gsave fill grestore stroke } bind def
/poly2 { closepath gsave fill grestore stroke } bind def
/rect0 { rectstroke } bind def
/rect1 { rectfill } bind def
/rect2 { rectfill } bind def
/linemode0 { 0 setlinecap 0 setlinejoin 0 setlinewidth } bind def
/linemode1 { 1 setlinecap 1 setlinejoin } bind def
/dashedline { [200] 100 setdash } bind def
/solidline { [] 0 setdash } bind def
/phantomshow { moveto
    /KicadFont findfont 0.000001 scalefont setfont
    show } bind def
/textshow { gsave
    findfont exch scalefont setfont concat 1 scale 0 0 moveto show
    } bind def
/reencodefont {
  findfont dup length dict begin
  { 1 index /FID ne
    { def }
    { pop pop } ifelse
  } forall
  /Encoding ISOLatin1Encoding def
  currentdict
  end } bind def
/KicadFont /Helvetica reencodefont definefont pop
/KicadFont-Bold /Helvetica-Bold reencodefont definefont pop
/KicadFont-Oblique /Helvetica-Oblique reencodefont definefont pop
/KicadFont-BoldOblique /Helvetica-BoldOblique reencodefont definefont pop
%%EndProlog
%%Page: 1 1
%%BeginPageSetup
gsave
0.0072 0.0072 scale
linemode1
82680 0 translate 90 rotate
150 setlinewidth
%%EndPageSetup
0 0 0 setrgbcolor
59.0551 setlinewidth
31465 42126 4500 180 270 arc0
0 0 0 setrgbcolor
85465 73626 4500 -0 90 arc0
0 0 0 setrgbcolor
85465 42126 4500 -90 -0 arc0
0 0 0 setrgbcolor
newpath
89965 73626 moveto
89965 42126 lineto
stroke
0 0 0 setrgbcolor
newpath
85465 78126 moveto
83965 78126 lineto
stroke
0 0 0 setrgbcolor
newpath
49465 78126 moveto
83965 78126 lineto
stroke
0 0 0 setrgbcolor
newpath
31465 37626 moveto
85465 37626 lineto
stroke
0 0 0 setrgbcolor
newpath
26965 69126 moveto
26965 42126 lineto
stroke
0 0 0 setrgbcolor
31465 73626 4500 90 180 arc0
0 0 0 setrgbcolor
newpath
26965 73626 moveto
26965 69126 lineto
stroke
0 0 0 setrgbcolor
newpath
31465 78126 moveto
49465 78126 lineto
stroke
78.7394 setlinewidth
newpath
85622.1 50068.9 moveto
86507.9 49183.1 lineto
stroke
newpath
86507.9 50068.9 moveto
85622.1 49183.1 lineto
stroke
newpath
70622.1 50068.9 moveto
71507.9 49183.1 lineto
stroke
newpath
71507.9 50068.9 moveto
70622.1 49183.1 lineto
stroke
newpath
72122.1 51568.9 moveto
73007.9 50683.1 lineto
stroke
newpath
73007.9 51568.9 moveto
72122.1 50683.1 lineto
stroke
newpath
72122.1 48568.9 moveto
73007.9 47683.1 lineto
stroke
newpath
73007.9 48568.9 moveto
72122.1 47683.1 lineto
stroke
newpath
63122.1 50068.9 moveto
64007.9 49183.1 lineto
stroke
newpath
64007.9 50068.9 moveto
63122.1 49183.1 lineto
stroke
newpath
64622.1 51568.9 moveto
65507.9 50683.1 lineto
stroke
newpath
65507.9 51568.9 moveto
64622.1 50683.1 lineto
stroke
newpath
64622.1 48568.9 moveto
65507.9 47683.1 lineto
stroke
newpath
65507.9 48568.9 moveto
64622.1 47683.1 lineto
stroke
newpath
78122.1 50068.9 moveto
79007.9 49183.1 lineto
stroke
newpath
79007.9 50068.9 moveto
78122.1 49183.1 lineto
stroke
newpath
79622.1 51568.9 moveto
80507.9 50683.1 lineto
stroke
newpath
80507.9 51568.9 moveto
79622.1 50683.1 lineto
stroke
newpath
79622.1 48568.9 moveto
80507.9 47683.1 lineto
stroke
newpath
80507.9 48568.9 moveto
79622.1 47683.1 lineto
stroke
newpath
87122.1 51568.9 moveto
88007.9 50683.1 lineto
stroke
newpath
88007.9 51568.9 moveto
87122.1 50683.1 lineto
stroke
newpath
87122.1 48568.9 moveto
88007.9 47683.1 lineto
stroke
newpath
88007.9 48568.9 moveto
87122.1 47683.1 lineto
stroke
41065 40476 590.551 cir0
44065 40476 590.551 cir0
47065 40476 590.551 cir0
50065 40476 590.551 cir0
53065 40476 590.551 cir0
56065 40476 590.551 cir0
59065 40476 590.551 cir0
62065 40476 590.551 cir0
65065 40476 590.551 cir0
68065 40476 590.551 cir0
71065 40476 590.551 cir0
74065 40476 590.551 cir0
77065 40476 590.551 cir0
50965 73626 590.551 cir0
50965 55626 590.551 cir0
53965 73626 590.551 cir0
53965 55626 590.551 cir0
56965 73626 590.551 cir0
56965 55626 590.551 cir0
59965 73626 590.551 cir0
59965 55626 590.551 cir0
62965 73626 590.551 cir0
62965 55626 590.551 cir0
65965 73626 590.551 cir0
65965 55626 590.551 cir0
118.11 setlinewidth
0 0 0 setrgbcolor
0 0 0 setrgbcolor
newpath
28063.1 35763 moveto
28063.1 36944.1 lineto
28344.4 36944.1 lineto
28513.1 36887.8 lineto
28625.6 36775.3 lineto
28681.8 36662.8 lineto
28738.1 36437.9 lineto
28738.1 36269.1 lineto
28681.8 36044.2 lineto
28625.6 35931.7 lineto
28513.1 35819.2 lineto
28344.4 35763 lineto
28063.1 35763 lineto
stroke
newpath
29244.2 35763 moveto
29244.2 36550.4 lineto
stroke
newpath
29244.2 36325.4 moveto
29300.5 36437.9 lineto
29356.7 36494.1 lineto
29469.2 36550.4 lineto
29581.7 36550.4 lineto
stroke
newpath
29975.4 35763 moveto
29975.4 36550.4 lineto
stroke
newpath
29975.4 36944.1 moveto
29919.2 36887.8 lineto
29975.4 36831.6 lineto
30031.6 36887.8 lineto
29975.4 36944.1 lineto
29975.4 36831.6 lineto
stroke
newpath
30706.6 35763 moveto
30594.1 35819.2 lineto
30537.8 35931.7 lineto
30537.8 36944.1 lineto
stroke
newpath
31325.2 35763 moveto
31212.7 35819.2 lineto
31156.5 35931.7 lineto
31156.5 36944.1 lineto
stroke
newpath
32675.1 35763 moveto
32675.1 36944.1 lineto
33068.8 36100.4 lineto
33462.5 36944.1 lineto
33462.5 35763 lineto
stroke
newpath
34531.1 35763 moveto
34531.1 36381.6 lineto
34474.8 36494.1 lineto
34362.4 36550.4 lineto
34137.4 36550.4 lineto
34024.9 36494.1 lineto
stroke
newpath
34531.1 35819.2 moveto
34418.6 35763 lineto
34137.4 35763 lineto
34024.9 35819.2 lineto
33968.7 35931.7 lineto
33968.7 36044.2 lineto
34024.9 36156.7 lineto
34137.4 36212.9 lineto
34418.6 36212.9 lineto
34531.1 36269.1 lineto
stroke
newpath
35093.5 36550.4 moveto
35093.5 35369.2 lineto
stroke
newpath
35093.5 36494.1 moveto
35206 36550.4 lineto
35431 36550.4 lineto
35543.5 36494.1 lineto
35599.7 36437.9 lineto
35655.9 36325.4 lineto
35655.9 35987.9 lineto
35599.7 35875.4 lineto
35543.5 35819.2 lineto
35431 35763 lineto
35206 35763 lineto
35093.5 35819.2 lineto
stroke
newpath
36162.1 35875.4 moveto
36218.4 35819.2 lineto
36162.1 35763 lineto
36105.9 35819.2 lineto
36162.1 35875.4 lineto
36162.1 35763 lineto
stroke
newpath
36162.1 36494.1 moveto
36218.4 36437.9 lineto
36162.1 36381.6 lineto
36105.9 36437.9 lineto
36162.1 36494.1 lineto
36162.1 36381.6 lineto
stroke
newpath
26049.6 34259.9 moveto
26935.5 33374 lineto
stroke
newpath
26935.5 34259.9 moveto
26049.6 33374 lineto
stroke
0 0 0 setrgbcolor
0 0 0 setrgbcolor
newpath
28288.1 34463.7 moveto
28400.6 34463.7 lineto
28513.1 34407.5 lineto
28569.3 34351.3 lineto
28625.6 34238.8 lineto
28681.8 34013.8 lineto
28681.8 33732.6 lineto
28625.6 33507.6 lineto
28569.3 33395.1 lineto
28513.1 33338.9 lineto
28400.6 33282.6 lineto
28288.1 33282.6 lineto
28175.6 33338.9 lineto
28119.4 33395.1 lineto
28063.1 33507.6 lineto
28006.9 33732.6 lineto
28006.9 34013.8 lineto
28063.1 34238.8 lineto
28119.4 34351.3 lineto
28175.6 34407.5 lineto
28288.1 34463.7 lineto
stroke
newpath
29188 33395.1 moveto
29244.2 33338.9 lineto
29188 33282.6 lineto
29131.8 33338.9 lineto
29188 33395.1 lineto
29188 33282.6 lineto
stroke
newpath
29637.9 34463.7 moveto
30425.3 34463.7 lineto
29919.2 33282.6 lineto
stroke
newpath
31437.7 34463.7 moveto
30875.3 34463.7 lineto
30819 33901.3 lineto
30875.3 33957.6 lineto
30987.8 34013.8 lineto
31269 34013.8 lineto
31381.5 33957.6 lineto
31437.7 33901.3 lineto
31494 33788.8 lineto
31494 33507.6 lineto
31437.7 33395.1 lineto
31381.5 33338.9 lineto
31269 33282.6 lineto
30987.8 33282.6 lineto
30875.3 33338.9 lineto
30819 33395.1 lineto
stroke
newpath
32000.2 33282.6 moveto
32000.2 34070 lineto
stroke
newpath
32000.2 33957.6 moveto
32056.4 34013.8 lineto
32168.9 34070 lineto
32337.6 34070 lineto
32450.1 34013.8 lineto
32506.3 33901.3 lineto
32506.3 33282.6 lineto
stroke
newpath
32506.3 33901.3 moveto
32562.6 34013.8 lineto
32675.1 34070 lineto
32843.8 34070 lineto
32956.3 34013.8 lineto
33012.5 33901.3 lineto
33012.5 33282.6 lineto
stroke
newpath
33575 33282.6 moveto
33575 34070 lineto
stroke
newpath
33575 33957.6 moveto
33631.2 34013.8 lineto
33743.7 34070 lineto
33912.4 34070 lineto
34024.9 34013.8 lineto
34081.1 33901.3 lineto
34081.1 33282.6 lineto
stroke
newpath
34081.1 33901.3 moveto
34137.4 34013.8 lineto
34249.9 34070 lineto
34418.6 34070 lineto
34531.1 34013.8 lineto
34587.3 33901.3 lineto
34587.3 33282.6 lineto
stroke
newpath
36893.3 34520 moveto
35880.9 33001.4 lineto
stroke
newpath
38411.8 34463.7 moveto
38524.3 34463.7 lineto
38636.8 34407.5 lineto
38693.1 34351.3 lineto
38749.3 34238.8 lineto
38805.6 34013.8 lineto
38805.6 33732.6 lineto
38749.3 33507.6 lineto
38693.1 33395.1 lineto
38636.8 33338.9 lineto
38524.3 33282.6 lineto
38411.8 33282.6 lineto
38299.4 33338.9 lineto
38243.1 33395.1 lineto
38186.9 33507.6 lineto
38130.6 33732.6 lineto
38130.6 34013.8 lineto
38186.9 34238.8 lineto
38243.1 34351.3 lineto
38299.4 34407.5 lineto
38411.8 34463.7 lineto
stroke
newpath
39311.7 33395.1 moveto
39368 33338.9 lineto
39311.7 33282.6 lineto
39255.5 33338.9 lineto
39311.7 33395.1 lineto
39311.7 33282.6 lineto
stroke
newpath
40099.1 34463.7 moveto
40211.6 34463.7 lineto
40324.1 34407.5 lineto
40380.4 34351.3 lineto
40436.6 34238.8 lineto
40492.8 34013.8 lineto
40492.8 33732.6 lineto
40436.6 33507.6 lineto
40380.4 33395.1 lineto
40324.1 33338.9 lineto
40211.6 33282.6 lineto
40099.1 33282.6 lineto
39986.7 33338.9 lineto
39930.4 33395.1 lineto
39874.2 33507.6 lineto
39817.9 33732.6 lineto
39817.9 34013.8 lineto
39874.2 34238.8 lineto
39930.4 34351.3 lineto
39986.7 34407.5 lineto
40099.1 34463.7 lineto
stroke
newpath
40886.5 34463.7 moveto
41617.7 34463.7 lineto
41224 34013.8 lineto
41392.7 34013.8 lineto
41505.2 33957.6 lineto
41561.5 33901.3 lineto
41617.7 33788.8 lineto
41617.7 33507.6 lineto
41561.5 33395.1 lineto
41505.2 33338.9 lineto
41392.7 33282.6 lineto
41055.3 33282.6 lineto
40942.8 33338.9 lineto
40886.5 33395.1 lineto
stroke
newpath
42348.9 34463.7 moveto
42461.3 34463.7 lineto
42573.8 34407.5 lineto
42630.1 34351.3 lineto
42686.3 34238.8 lineto
42742.6 34013.8 lineto
42742.6 33732.6 lineto
42686.3 33507.6 lineto
42630.1 33395.1 lineto
42573.8 33338.9 lineto
42461.3 33282.6 lineto
42348.9 33282.6 lineto
42236.4 33338.9 lineto
42180.1 33395.1 lineto
42123.9 33507.6 lineto
42067.6 33732.6 lineto
42067.6 34013.8 lineto
42123.9 34238.8 lineto
42180.1 34351.3 lineto
42236.4 34407.5 lineto
42348.9 34463.7 lineto
stroke
newpath
43192.5 34463.7 moveto
43192.5 34238.8 lineto
stroke
newpath
43642.4 34463.7 moveto
43642.4 34238.8 lineto
stroke
newpath
45386 32832.7 moveto
45329.7 32888.9 lineto
45217.2 33057.7 lineto
45161 33170.1 lineto
45104.8 33338.9 lineto
45048.5 33620.1 lineto
45048.5 33845.1 lineto
45104.8 34126.3 lineto
45161 34295 lineto
45217.2 34407.5 lineto
45329.7 34576.2 lineto
45386 34632.5 lineto
stroke
newpath
46454.6 33282.6 moveto
45779.7 33282.6 lineto
stroke
newpath
46117.1 33282.6 moveto
46117.1 34463.7 lineto
46004.7 34295 lineto
45892.2 34182.5 lineto
45779.7 34126.3 lineto
stroke
newpath
46904.5 34351.3 moveto
46960.8 34407.5 lineto
47073.3 34463.7 lineto
47354.5 34463.7 lineto
47467 34407.5 lineto
47523.2 34351.3 lineto
47579.5 34238.8 lineto
47579.5 34126.3 lineto
47523.2 33957.6 lineto
46848.3 33282.6 lineto
47579.5 33282.6 lineto
stroke
newpath
48985.5 33282.6 moveto
48985.5 34463.7 lineto
stroke
newpath
49491.7 33282.6 moveto
49491.7 33901.3 lineto
49435.5 34013.8 lineto
49323 34070 lineto
49154.3 34070 lineto
49041.8 34013.8 lineto
48985.5 33957.6 lineto
stroke
newpath
50222.9 33282.6 moveto
50110.4 33338.9 lineto
50054.1 33395.1 lineto
49997.9 33507.6 lineto
49997.9 33845.1 lineto
50054.1 33957.6 lineto
50110.4 34013.8 lineto
50222.9 34070 lineto
50391.6 34070 lineto
50504.1 34013.8 lineto
50560.3 33957.6 lineto
50616.6 33845.1 lineto
50616.6 33507.6 lineto
50560.3 33395.1 lineto
50504.1 33338.9 lineto
50391.6 33282.6 lineto
50222.9 33282.6 lineto
stroke
newpath
51291.5 33282.6 moveto
51179 33338.9 lineto
51122.8 33451.4 lineto
51122.8 34463.7 lineto
stroke
newpath
52191.4 33338.9 moveto
52078.9 33282.6 lineto
51853.9 33282.6 lineto
51741.4 33338.9 lineto
51685.2 33451.4 lineto
51685.2 33901.3 lineto
51741.4 34013.8 lineto
51853.9 34070 lineto
52078.9 34070 lineto
52191.4 34013.8 lineto
52247.6 33901.3 lineto
52247.6 33788.8 lineto
51685.2 33676.3 lineto
stroke
newpath
52697.6 33338.9 moveto
52810 33282.6 lineto
53035 33282.6 lineto
53147.5 33338.9 lineto
53203.8 33451.4 lineto
53203.8 33507.6 lineto
53147.5 33620.1 lineto
53035 33676.3 lineto
52866.3 33676.3 lineto
52753.8 33732.6 lineto
52697.6 33845.1 lineto
52697.6 33901.3 lineto
52753.8 34013.8 lineto
52866.3 34070 lineto
53035 34070 lineto
53147.5 34013.8 lineto
stroke
newpath
53597.5 32832.7 moveto
53653.7 32888.9 lineto
53766.2 33057.7 lineto
53822.4 33170.1 lineto
53878.7 33338.9 lineto
53934.9 33620.1 lineto
53934.9 33845.1 lineto
53878.7 34126.3 lineto
53822.4 34295 lineto
53766.2 34407.5 lineto
53653.7 34576.2 lineto
53597.5 34632.5 lineto
stroke
26344.9 32257.9 590.551 cir0
0 0 0 setrgbcolor
0 0 0 setrgbcolor
newpath
28681.8 31723.6 moveto
28006.9 31723.6 lineto
stroke
newpath
28344.4 31723.6 moveto
28344.4 32904.7 lineto
28231.9 32736 lineto
28119.4 32623.5 lineto
28006.9 32567.2 lineto
stroke
newpath
29188 31836.1 moveto
29244.2 31779.8 lineto
29188 31723.6 lineto
29131.8 31779.8 lineto
29188 31836.1 lineto
29188 31723.6 lineto
stroke
newpath
29975.4 32904.7 moveto
30087.9 32904.7 lineto
30200.4 32848.4 lineto
30256.6 32792.2 lineto
30312.9 32679.7 lineto
30369.1 32454.7 lineto
30369.1 32173.5 lineto
30312.9 31948.6 lineto
30256.6 31836.1 lineto
30200.4 31779.8 lineto
30087.9 31723.6 lineto
29975.4 31723.6 lineto
29862.9 31779.8 lineto
29806.7 31836.1 lineto
29750.4 31948.6 lineto
29694.2 32173.5 lineto
29694.2 32454.7 lineto
29750.4 32679.7 lineto
29806.7 32792.2 lineto
29862.9 32848.4 lineto
29975.4 32904.7 lineto
stroke
newpath
31100.3 32904.7 moveto
31212.7 32904.7 lineto
31325.2 32848.4 lineto
31381.5 32792.2 lineto
31437.7 32679.7 lineto
31494 32454.7 lineto
31494 32173.5 lineto
31437.7 31948.6 lineto
31381.5 31836.1 lineto
31325.2 31779.8 lineto
31212.7 31723.6 lineto
31100.3 31723.6 lineto
30987.8 31779.8 lineto
30931.5 31836.1 lineto
30875.3 31948.6 lineto
30819 32173.5 lineto
30819 32454.7 lineto
30875.3 32679.7 lineto
30931.5 32792.2 lineto
30987.8 32848.4 lineto
31100.3 32904.7 lineto
stroke
newpath
32000.2 31723.6 moveto
32000.2 32511 lineto
stroke
newpath
32000.2 32398.5 moveto
32056.4 32454.7 lineto
32168.9 32511 lineto
32337.6 32511 lineto
32450.1 32454.7 lineto
32506.3 32342.3 lineto
32506.3 31723.6 lineto
stroke
newpath
32506.3 32342.3 moveto
32562.6 32454.7 lineto
32675.1 32511 lineto
32843.8 32511 lineto
32956.3 32454.7 lineto
33012.5 32342.3 lineto
33012.5 31723.6 lineto
stroke
newpath
33575 31723.6 moveto
33575 32511 lineto
stroke
newpath
33575 32398.5 moveto
33631.2 32454.7 lineto
33743.7 32511 lineto
33912.4 32511 lineto
34024.9 32454.7 lineto
34081.1 32342.3 lineto
34081.1 31723.6 lineto
stroke
newpath
34081.1 32342.3 moveto
34137.4 32454.7 lineto
34249.9 32511 lineto
34418.6 32511 lineto
34531.1 32454.7 lineto
34587.3 32342.3 lineto
34587.3 31723.6 lineto
stroke
newpath
36893.3 32960.9 moveto
35880.9 31442.4 lineto
stroke
newpath
38411.8 32904.7 moveto
38524.3 32904.7 lineto
38636.8 32848.4 lineto
38693.1 32792.2 lineto
38749.3 32679.7 lineto
38805.6 32454.7 lineto
38805.6 32173.5 lineto
38749.3 31948.6 lineto
38693.1 31836.1 lineto
38636.8 31779.8 lineto
38524.3 31723.6 lineto
38411.8 31723.6 lineto
38299.4 31779.8 lineto
38243.1 31836.1 lineto
38186.9 31948.6 lineto
38130.6 32173.5 lineto
38130.6 32454.7 lineto
38186.9 32679.7 lineto
38243.1 32792.2 lineto
38299.4 32848.4 lineto
38411.8 32904.7 lineto
stroke
newpath
39311.7 31836.1 moveto
39368 31779.8 lineto
39311.7 31723.6 lineto
39255.5 31779.8 lineto
39311.7 31836.1 lineto
39311.7 31723.6 lineto
stroke
newpath
40099.1 32904.7 moveto
40211.6 32904.7 lineto
40324.1 32848.4 lineto
40380.4 32792.2 lineto
40436.6 32679.7 lineto
40492.8 32454.7 lineto
40492.8 32173.5 lineto
40436.6 31948.6 lineto
40380.4 31836.1 lineto
40324.1 31779.8 lineto
40211.6 31723.6 lineto
40099.1 31723.6 lineto
39986.7 31779.8 lineto
39930.4 31836.1 lineto
39874.2 31948.6 lineto
39817.9 32173.5 lineto
39817.9 32454.7 lineto
39874.2 32679.7 lineto
39930.4 32792.2 lineto
39986.7 32848.4 lineto
40099.1 32904.7 lineto
stroke
newpath
40886.5 32904.7 moveto
41617.7 32904.7 lineto
41224 32454.7 lineto
41392.7 32454.7 lineto
41505.2 32398.5 lineto
41561.5 32342.3 lineto
41617.7 32229.8 lineto
41617.7 31948.6 lineto
41561.5 31836.1 lineto
41505.2 31779.8 lineto
41392.7 31723.6 lineto
41055.3 31723.6 lineto
40942.8 31779.8 lineto
40886.5 31836.1 lineto
stroke
newpath
42180.1 31723.6 moveto
42405.1 31723.6 lineto
42517.6 31779.8 lineto
42573.8 31836.1 lineto
42686.3 32004.8 lineto
42742.6 32229.8 lineto
42742.6 32679.7 lineto
42686.3 32792.2 lineto
42630.1 32848.4 lineto
42517.6 32904.7 lineto
42292.6 32904.7 lineto
42180.1 32848.4 lineto
42123.9 32792.2 lineto
42067.6 32679.7 lineto
42067.6 32398.5 lineto
42123.9 32286 lineto
42180.1 32229.8 lineto
42292.6 32173.5 lineto
42517.6 32173.5 lineto
42630.1 32229.8 lineto
42686.3 32286 lineto
42742.6 32398.5 lineto
stroke
newpath
43192.5 32904.7 moveto
43192.5 32679.7 lineto
stroke
newpath
43642.4 32904.7 moveto
43642.4 32679.7 lineto
stroke
newpath
45386 31273.6 moveto
45329.7 31329.9 lineto
45217.2 31498.6 lineto
45161 31611.1 lineto
45104.8 31779.8 lineto
45048.5 32061 lineto
45048.5 32286 lineto
45104.8 32567.2 lineto
45161 32736 lineto
45217.2 32848.4 lineto
45329.7 33017.2 lineto
45386 33073.4 lineto
stroke
newpath
45779.7 32792.2 moveto
45835.9 32848.4 lineto
45948.4 32904.7 lineto
46229.6 32904.7 lineto
46342.1 32848.4 lineto
46398.4 32792.2 lineto
46454.6 32679.7 lineto
46454.6 32567.2 lineto
46398.4 32398.5 lineto
45723.4 31723.6 lineto
46454.6 31723.6 lineto
stroke
newpath
47523.2 32904.7 moveto
46960.8 32904.7 lineto
46904.5 32342.3 lineto
46960.8 32398.5 lineto
47073.3 32454.7 lineto
47354.5 32454.7 lineto
47467 32398.5 lineto
47523.2 32342.3 lineto
47579.5 32229.8 lineto
47579.5 31948.6 lineto
47523.2 31836.1 lineto
47467 31779.8 lineto
47354.5 31723.6 lineto
47073.3 31723.6 lineto
46960.8 31779.8 lineto
46904.5 31836.1 lineto
stroke
newpath
48985.5 31723.6 moveto
48985.5 32904.7 lineto
stroke
newpath
49491.7 31723.6 moveto
49491.7 32342.3 lineto
49435.5 32454.7 lineto
49323 32511 lineto
49154.3 32511 lineto
49041.8 32454.7 lineto
48985.5 32398.5 lineto
stroke
newpath
50222.9 31723.6 moveto
50110.4 31779.8 lineto
50054.1 31836.1 lineto
49997.9 31948.6 lineto
49997.9 32286 lineto
50054.1 32398.5 lineto
50110.4 32454.7 lineto
50222.9 32511 lineto
50391.6 32511 lineto
50504.1 32454.7 lineto
50560.3 32398.5 lineto
50616.6 32286 lineto
50616.6 31948.6 lineto
50560.3 31836.1 lineto
50504.1 31779.8 lineto
50391.6 31723.6 lineto
50222.9 31723.6 lineto
stroke
newpath
51291.5 31723.6 moveto
51179 31779.8 lineto
51122.8 31892.3 lineto
51122.8 32904.7 lineto
stroke
newpath
52191.4 31779.8 moveto
52078.9 31723.6 lineto
51853.9 31723.6 lineto
51741.4 31779.8 lineto
51685.2 31892.3 lineto
51685.2 32342.3 lineto
51741.4 32454.7 lineto
51853.9 32511 lineto
52078.9 32511 lineto
52191.4 32454.7 lineto
52247.6 32342.3 lineto
52247.6 32229.8 lineto
51685.2 32117.3 lineto
stroke
newpath
52697.6 31779.8 moveto
52810 31723.6 lineto
53035 31723.6 lineto
53147.5 31779.8 lineto
53203.8 31892.3 lineto
53203.8 31948.6 lineto
53147.5 32061 lineto
53035 32117.3 lineto
52866.3 32117.3 lineto
52753.8 32173.5 lineto
52697.6 32286 lineto
52697.6 32342.3 lineto
52753.8 32454.7 lineto
52866.3 32511 lineto
53035 32511 lineto
53147.5 32454.7 lineto
stroke
newpath
53597.5 31273.6 moveto
53653.7 31329.9 lineto
53766.2 31498.6 lineto
53822.4 31611.1 lineto
53878.7 31779.8 lineto
53934.9 32061 lineto
53934.9 32286 lineto
53878.7 32567.2 lineto
53822.4 32736 lineto
53766.2 32848.4 lineto
53653.7 33017.2 lineto
53597.5 33073.4 lineto
stroke
showpage
grestore
%%EOF
