%!PS-Adobe-3.0
%%Creator: PCBNEW
%%CreationDate: Sat Mar 13 23:18:10 2021
%%Title: /home/uli/Documents/KiCad/Boards/LED/LED_BAR/fab/LED_BAR-PTH-drl_map.ps
%%Pages: 1
%%PageOrder: Ascend
%%BoundingBox: 0 0 596 842
%%DocumentMedia: A4 595 842 0 () ()
%%Orientation: Landscape
%%EndComments
%%BeginProlog
/line { newpath moveto lineto stroke } bind def
/cir0 { newpath 0 360 arc stroke } bind def
/cir1 { newpath 0 360 arc gsave fill grestore stroke } bind def
/cir2 { newpath 0 360 arc gsave fill grestore stroke } bind def
/arc0 { newpath arc stroke } bind def
/arc1 { newpath 4 index 4 index moveto arc closepath gsave fill
    grestore stroke } bind def
/arc2 { newpath 4 index 4 index moveto arc closepath gsave fill
    grestore stroke } bind def
/poly0 { stroke } bind def
/poly1 { closepath gsave fill grestore stroke } bind def
/poly2 { closepath gsave fill grestore stroke } bind def
/rect0 { rectstroke } bind def
/rect1 { rectfill } bind def
/rect2 { rectfill } bind def
/linemode0 { 0 setlinecap 0 setlinejoin 0 setlinewidth } bind def
/linemode1 { 1 setlinecap 1 setlinejoin } bind def
/dashedline { [200] 100 setdash } bind def
/solidline { [] 0 setdash } bind def
/phantomshow { moveto
    /KicadFont findfont 0.000001 scalefont setfont
    show } bind def
/textshow { gsave
    findfont exch scalefont setfont concat 1 scale 0 0 moveto show
    } bind def
/reencodefont {
  findfont dup length dict begin
  { 1 index /FID ne
    { def }
    { pop pop } ifelse
  } forall
  /Encoding ISOLatin1Encoding def
  currentdict
  end } bind def
/KicadFont /Helvetica reencodefont definefont pop
/KicadFont-Bold /Helvetica-Bold reencodefont definefont pop
/KicadFont-Oblique /Helvetica-Oblique reencodefont definefont pop
/KicadFont-BoldOblique /Helvetica-BoldOblique reencodefont definefont pop
%%EndProlog
%%Page: 1 1
%%BeginPageSetup
gsave
0.0072 0.0072 scale
linemode1
82680 0 translate 90 rotate
150 setlinewidth
%%EndPageSetup
0 0 0 setrgbcolor
59.0551 setlinewidth
41215 73626 750 90 180 arc0
0 0 0 setrgbcolor
41215 42126 750 180 270 arc0
0 0 0 setrgbcolor
75715 42126 750 -90 -0 arc0
0 0 0 setrgbcolor
75715 73626 750 -0 90 arc0
0 0 0 setrgbcolor
newpath
75715 74376 moveto
41215 74376 lineto
stroke
0 0 0 setrgbcolor
newpath
76465 42126 moveto
76465 73626 lineto
stroke
0 0 0 setrgbcolor
newpath
41215 41376 moveto
75715 41376 lineto
stroke
0 0 0 setrgbcolor
newpath
40465 73626 moveto
40465 42126 lineto
stroke
78.7394 setlinewidth
newpath
66992.6 59848.4 moveto
67937.4 58903.6 lineto
stroke
newpath
67937.4 59848.4 moveto
66992.6 58903.6 lineto
stroke
newpath
63992.6 59848.4 moveto
64937.4 58903.6 lineto
stroke
newpath
64937.4 59848.4 moveto
63992.6 58903.6 lineto
stroke
newpath
63992.6 47848.4 moveto
64937.4 46903.6 lineto
stroke
newpath
64937.4 47848.4 moveto
63992.6 46903.6 lineto
stroke
newpath
60992.6 59848.4 moveto
61937.4 58903.6 lineto
stroke
newpath
61937.4 59848.4 moveto
60992.6 58903.6 lineto
stroke
newpath
60992.6 47848.4 moveto
61937.4 46903.6 lineto
stroke
newpath
61937.4 47848.4 moveto
60992.6 46903.6 lineto
stroke
newpath
54992.6 59848.4 moveto
55937.4 58903.6 lineto
stroke
newpath
55937.4 59848.4 moveto
54992.6 58903.6 lineto
stroke
newpath
54992.6 47848.4 moveto
55937.4 46903.6 lineto
stroke
newpath
55937.4 47848.4 moveto
54992.6 46903.6 lineto
stroke
newpath
45992.6 59848.4 moveto
46937.4 58903.6 lineto
stroke
newpath
46937.4 59848.4 moveto
45992.6 58903.6 lineto
stroke
newpath
45992.6 47848.4 moveto
46937.4 46903.6 lineto
stroke
newpath
46937.4 47848.4 moveto
45992.6 46903.6 lineto
stroke
newpath
57992.6 59848.4 moveto
58937.4 58903.6 lineto
stroke
newpath
58937.4 59848.4 moveto
57992.6 58903.6 lineto
stroke
newpath
57992.6 47848.4 moveto
58937.4 46903.6 lineto
stroke
newpath
58937.4 47848.4 moveto
57992.6 46903.6 lineto
stroke
newpath
42992.6 59848.4 moveto
43937.4 58903.6 lineto
stroke
newpath
43937.4 59848.4 moveto
42992.6 58903.6 lineto
stroke
newpath
42992.6 47848.4 moveto
43937.4 46903.6 lineto
stroke
newpath
43937.4 47848.4 moveto
42992.6 46903.6 lineto
stroke
newpath
66992.6 47848.4 moveto
67937.4 46903.6 lineto
stroke
newpath
67937.4 47848.4 moveto
66992.6 46903.6 lineto
stroke
newpath
69992.6 59848.4 moveto
70937.4 58903.6 lineto
stroke
newpath
70937.4 59848.4 moveto
69992.6 58903.6 lineto
stroke
newpath
69992.6 47848.4 moveto
70937.4 46903.6 lineto
stroke
newpath
70937.4 47848.4 moveto
69992.6 46903.6 lineto
stroke
newpath
48992.6 59848.4 moveto
49937.4 58903.6 lineto
stroke
newpath
49937.4 59848.4 moveto
48992.6 58903.6 lineto
stroke
newpath
48992.6 47848.4 moveto
49937.4 46903.6 lineto
stroke
newpath
49937.4 47848.4 moveto
48992.6 46903.6 lineto
stroke
newpath
51992.6 59848.4 moveto
52937.4 58903.6 lineto
stroke
newpath
52937.4 59848.4 moveto
51992.6 58903.6 lineto
stroke
newpath
51992.6 47848.4 moveto
52937.4 46903.6 lineto
stroke
newpath
52937.4 47848.4 moveto
51992.6 46903.6 lineto
stroke
43465 71676 540 cir0
43465 62676 540 cir0
46465 71676 540 cir0
46465 62676 540 cir0
49465 71676 540 cir0
49465 62676 540 cir0
52465 71676 540 cir0
52465 62676 540 cir0
55465 71676 540 cir0
55465 62676 540 cir0
58465 71676 540 cir0
58465 62676 540 cir0
61465 71676 540 cir0
61465 62676 540 cir0
64465 71676 540 cir0
64465 62676 540 cir0
67465 71676 540 cir0
67465 62676 540 cir0
70465 71676 540 cir0
70465 62676 540 cir0
newpath
43465 44366.6 moveto
43465 43185.4 lineto
stroke
newpath
42874.4 43776 moveto
44055.6 43776 lineto
stroke
newpath
46465 44366.6 moveto
46465 43185.4 lineto
stroke
newpath
45874.4 43776 moveto
47055.6 43776 lineto
stroke
newpath
49465 44366.6 moveto
49465 43185.4 lineto
stroke
newpath
48874.4 43776 moveto
50055.6 43776 lineto
stroke
newpath
52465 44366.6 moveto
52465 43185.4 lineto
stroke
newpath
51874.4 43776 moveto
53055.6 43776 lineto
stroke
newpath
55465 44366.6 moveto
55465 43185.4 lineto
stroke
newpath
54874.4 43776 moveto
56055.6 43776 lineto
stroke
newpath
58465 44366.6 moveto
58465 43185.4 lineto
stroke
newpath
57874.4 43776 moveto
59055.6 43776 lineto
stroke
newpath
61465 44366.6 moveto
61465 43185.4 lineto
stroke
newpath
60874.4 43776 moveto
62055.6 43776 lineto
stroke
newpath
64465 44366.6 moveto
64465 43185.4 lineto
stroke
newpath
63874.4 43776 moveto
65055.6 43776 lineto
stroke
newpath
67465 44366.6 moveto
67465 43185.4 lineto
stroke
newpath
66874.4 43776 moveto
68055.6 43776 lineto
stroke
newpath
70465 44366.6 moveto
70465 43185.4 lineto
stroke
newpath
69874.4 43776 moveto
71055.6 43776 lineto
stroke
newpath
73465 44366.6 moveto
73465 43185.4 lineto
stroke
newpath
72874.4 43776 moveto
74055.6 43776 lineto
stroke
118.11 setlinewidth
0 0 0 setrgbcolor
0 0 0 setrgbcolor
newpath
41563.1 39513 moveto
41563.1 40694.1 lineto
41844.4 40694.1 lineto
42013.1 40637.8 lineto
42125.6 40525.3 lineto
42181.8 40412.8 lineto
42238.1 40187.9 lineto
42238.1 40019.1 lineto
42181.8 39794.2 lineto
42125.6 39681.7 lineto
42013.1 39569.2 lineto
41844.4 39513 lineto
41563.1 39513 lineto
stroke
newpath
42744.2 39513 moveto
42744.2 40300.4 lineto
stroke
newpath
42744.2 40075.4 moveto
42800.5 40187.9 lineto
42856.7 40244.1 lineto
42969.2 40300.4 lineto
43081.7 40300.4 lineto
stroke
newpath
43475.4 39513 moveto
43475.4 40300.4 lineto
stroke
newpath
43475.4 40694.1 moveto
43419.2 40637.8 lineto
43475.4 40581.6 lineto
43531.6 40637.8 lineto
43475.4 40694.1 lineto
43475.4 40581.6 lineto
stroke
newpath
44206.6 39513 moveto
44094.1 39569.2 lineto
44037.8 39681.7 lineto
44037.8 40694.1 lineto
stroke
newpath
44825.2 39513 moveto
44712.7 39569.2 lineto
44656.5 39681.7 lineto
44656.5 40694.1 lineto
stroke
newpath
46175.1 39513 moveto
46175.1 40694.1 lineto
46568.8 39850.4 lineto
46962.5 40694.1 lineto
46962.5 39513 lineto
stroke
newpath
48031.1 39513 moveto
48031.1 40131.6 lineto
47974.8 40244.1 lineto
47862.4 40300.4 lineto
47637.4 40300.4 lineto
47524.9 40244.1 lineto
stroke
newpath
48031.1 39569.2 moveto
47918.6 39513 lineto
47637.4 39513 lineto
47524.9 39569.2 lineto
47468.7 39681.7 lineto
47468.7 39794.2 lineto
47524.9 39906.7 lineto
47637.4 39962.9 lineto
47918.6 39962.9 lineto
48031.1 40019.1 lineto
stroke
newpath
48593.5 40300.4 moveto
48593.5 39119.2 lineto
stroke
newpath
48593.5 40244.1 moveto
48706 40300.4 lineto
48931 40300.4 lineto
49043.5 40244.1 lineto
49099.7 40187.9 lineto
49155.9 40075.4 lineto
49155.9 39737.9 lineto
49099.7 39625.4 lineto
49043.5 39569.2 lineto
48931 39513 lineto
48706 39513 lineto
48593.5 39569.2 lineto
stroke
newpath
49662.1 39625.4 moveto
49718.4 39569.2 lineto
49662.1 39513 lineto
49605.9 39569.2 lineto
49662.1 39625.4 lineto
49662.1 39513 lineto
stroke
newpath
49662.1 40244.1 moveto
49718.4 40187.9 lineto
49662.1 40131.6 lineto
49605.9 40187.9 lineto
49662.1 40244.1 lineto
49662.1 40131.6 lineto
stroke
newpath
39490.6 38039.4 moveto
40435.5 37094.5 lineto
stroke
newpath
40435.5 38039.4 moveto
39490.6 37094.5 lineto
stroke
0 0 0 setrgbcolor
0 0 0 setrgbcolor
newpath
41788.1 38213.7 moveto
41900.6 38213.7 lineto
42013.1 38157.5 lineto
42069.3 38101.3 lineto
42125.6 37988.8 lineto
42181.8 37763.8 lineto
42181.8 37482.6 lineto
42125.6 37257.6 lineto
42069.3 37145.1 lineto
42013.1 37088.9 lineto
41900.6 37032.6 lineto
41788.1 37032.6 lineto
41675.6 37088.9 lineto
41619.4 37145.1 lineto
41563.1 37257.6 lineto
41506.9 37482.6 lineto
41506.9 37763.8 lineto
41563.1 37988.8 lineto
41619.4 38101.3 lineto
41675.6 38157.5 lineto
41788.1 38213.7 lineto
stroke
newpath
42688 37145.1 moveto
42744.2 37088.9 lineto
42688 37032.6 lineto
42631.8 37088.9 lineto
42688 37145.1 lineto
42688 37032.6 lineto
stroke
newpath
43419.2 37707.6 moveto
43306.7 37763.8 lineto
43250.4 37820 lineto
43194.2 37932.5 lineto
43194.2 37988.8 lineto
43250.4 38101.3 lineto
43306.7 38157.5 lineto
43419.2 38213.7 lineto
43644.1 38213.7 lineto
43756.6 38157.5 lineto
43812.9 38101.3 lineto
43869.1 37988.8 lineto
43869.1 37932.5 lineto
43812.9 37820 lineto
43756.6 37763.8 lineto
43644.1 37707.6 lineto
43419.2 37707.6 lineto
43306.7 37651.3 lineto
43250.4 37595.1 lineto
43194.2 37482.6 lineto
43194.2 37257.6 lineto
43250.4 37145.1 lineto
43306.7 37088.9 lineto
43419.2 37032.6 lineto
43644.1 37032.6 lineto
43756.6 37088.9 lineto
43812.9 37145.1 lineto
43869.1 37257.6 lineto
43869.1 37482.6 lineto
43812.9 37595.1 lineto
43756.6 37651.3 lineto
43644.1 37707.6 lineto
stroke
newpath
44600.3 38213.7 moveto
44712.7 38213.7 lineto
44825.2 38157.5 lineto
44881.5 38101.3 lineto
44937.7 37988.8 lineto
44994 37763.8 lineto
44994 37482.6 lineto
44937.7 37257.6 lineto
44881.5 37145.1 lineto
44825.2 37088.9 lineto
44712.7 37032.6 lineto
44600.3 37032.6 lineto
44487.8 37088.9 lineto
44431.5 37145.1 lineto
44375.3 37257.6 lineto
44319 37482.6 lineto
44319 37763.8 lineto
44375.3 37988.8 lineto
44431.5 38101.3 lineto
44487.8 38157.5 lineto
44600.3 38213.7 lineto
stroke
newpath
45500.2 37032.6 moveto
45500.2 37820 lineto
stroke
newpath
45500.2 37707.6 moveto
45556.4 37763.8 lineto
45668.9 37820 lineto
45837.6 37820 lineto
45950.1 37763.8 lineto
46006.3 37651.3 lineto
46006.3 37032.6 lineto
stroke
newpath
46006.3 37651.3 moveto
46062.6 37763.8 lineto
46175.1 37820 lineto
46343.8 37820 lineto
46456.3 37763.8 lineto
46512.5 37651.3 lineto
46512.5 37032.6 lineto
stroke
newpath
47075 37032.6 moveto
47075 37820 lineto
stroke
newpath
47075 37707.6 moveto
47131.2 37763.8 lineto
47243.7 37820 lineto
47412.4 37820 lineto
47524.9 37763.8 lineto
47581.1 37651.3 lineto
47581.1 37032.6 lineto
stroke
newpath
47581.1 37651.3 moveto
47637.4 37763.8 lineto
47749.9 37820 lineto
47918.6 37820 lineto
48031.1 37763.8 lineto
48087.3 37651.3 lineto
48087.3 37032.6 lineto
stroke
newpath
50393.3 38270 moveto
49380.9 36751.4 lineto
stroke
newpath
51911.8 38213.7 moveto
52024.3 38213.7 lineto
52136.8 38157.5 lineto
52193.1 38101.3 lineto
52249.3 37988.8 lineto
52305.6 37763.8 lineto
52305.6 37482.6 lineto
52249.3 37257.6 lineto
52193.1 37145.1 lineto
52136.8 37088.9 lineto
52024.3 37032.6 lineto
51911.8 37032.6 lineto
51799.4 37088.9 lineto
51743.1 37145.1 lineto
51686.9 37257.6 lineto
51630.6 37482.6 lineto
51630.6 37763.8 lineto
51686.9 37988.8 lineto
51743.1 38101.3 lineto
51799.4 38157.5 lineto
51911.8 38213.7 lineto
stroke
newpath
52811.7 37145.1 moveto
52868 37088.9 lineto
52811.7 37032.6 lineto
52755.5 37088.9 lineto
52811.7 37145.1 lineto
52811.7 37032.6 lineto
stroke
newpath
53599.1 38213.7 moveto
53711.6 38213.7 lineto
53824.1 38157.5 lineto
53880.4 38101.3 lineto
53936.6 37988.8 lineto
53992.8 37763.8 lineto
53992.8 37482.6 lineto
53936.6 37257.6 lineto
53880.4 37145.1 lineto
53824.1 37088.9 lineto
53711.6 37032.6 lineto
53599.1 37032.6 lineto
53486.7 37088.9 lineto
53430.4 37145.1 lineto
53374.2 37257.6 lineto
53317.9 37482.6 lineto
53317.9 37763.8 lineto
53374.2 37988.8 lineto
53430.4 38101.3 lineto
53486.7 38157.5 lineto
53599.1 38213.7 lineto
stroke
newpath
54386.5 38213.7 moveto
55117.7 38213.7 lineto
54724 37763.8 lineto
54892.7 37763.8 lineto
55005.2 37707.6 lineto
55061.5 37651.3 lineto
55117.7 37538.8 lineto
55117.7 37257.6 lineto
55061.5 37145.1 lineto
55005.2 37088.9 lineto
54892.7 37032.6 lineto
54555.3 37032.6 lineto
54442.8 37088.9 lineto
54386.5 37145.1 lineto
stroke
newpath
56242.6 37032.6 moveto
55567.6 37032.6 lineto
stroke
newpath
55905.1 37032.6 moveto
55905.1 38213.7 lineto
55792.6 38045 lineto
55680.1 37932.5 lineto
55567.6 37876.3 lineto
stroke
newpath
56692.5 38213.7 moveto
56692.5 37988.8 lineto
stroke
newpath
57142.4 38213.7 moveto
57142.4 37988.8 lineto
stroke
newpath
58886 36582.7 moveto
58829.7 36638.9 lineto
58717.2 36807.7 lineto
58661 36920.1 lineto
58604.8 37088.9 lineto
58548.5 37370.1 lineto
58548.5 37595.1 lineto
58604.8 37876.3 lineto
58661 38045 lineto
58717.2 38157.5 lineto
58829.7 38326.2 lineto
58886 38382.5 lineto
stroke
newpath
59279.7 38101.3 moveto
59335.9 38157.5 lineto
59448.4 38213.7 lineto
59729.6 38213.7 lineto
59842.1 38157.5 lineto
59898.4 38101.3 lineto
59954.6 37988.8 lineto
59954.6 37876.3 lineto
59898.4 37707.6 lineto
59223.4 37032.6 lineto
59954.6 37032.6 lineto
stroke
newpath
60685.8 38213.7 moveto
60798.2 38213.7 lineto
60910.7 38157.5 lineto
60967 38101.3 lineto
61023.2 37988.8 lineto
61079.5 37763.8 lineto
61079.5 37482.6 lineto
61023.2 37257.6 lineto
60967 37145.1 lineto
60910.7 37088.9 lineto
60798.2 37032.6 lineto
60685.8 37032.6 lineto
60573.3 37088.9 lineto
60517 37145.1 lineto
60460.8 37257.6 lineto
60404.5 37482.6 lineto
60404.5 37763.8 lineto
60460.8 37988.8 lineto
60517 38101.3 lineto
60573.3 38157.5 lineto
60685.8 38213.7 lineto
stroke
newpath
62485.5 37032.6 moveto
62485.5 38213.7 lineto
stroke
newpath
62991.7 37032.6 moveto
62991.7 37651.3 lineto
62935.5 37763.8 lineto
62823 37820 lineto
62654.3 37820 lineto
62541.8 37763.8 lineto
62485.5 37707.6 lineto
stroke
newpath
63722.9 37032.6 moveto
63610.4 37088.9 lineto
63554.1 37145.1 lineto
63497.9 37257.6 lineto
63497.9 37595.1 lineto
63554.1 37707.6 lineto
63610.4 37763.8 lineto
63722.9 37820 lineto
63891.6 37820 lineto
64004.1 37763.8 lineto
64060.3 37707.6 lineto
64116.6 37595.1 lineto
64116.6 37257.6 lineto
64060.3 37145.1 lineto
64004.1 37088.9 lineto
63891.6 37032.6 lineto
63722.9 37032.6 lineto
stroke
newpath
64791.5 37032.6 moveto
64679 37088.9 lineto
64622.8 37201.4 lineto
64622.8 38213.7 lineto
stroke
newpath
65691.4 37088.9 moveto
65578.9 37032.6 lineto
65353.9 37032.6 lineto
65241.4 37088.9 lineto
65185.2 37201.4 lineto
65185.2 37651.3 lineto
65241.4 37763.8 lineto
65353.9 37820 lineto
65578.9 37820 lineto
65691.4 37763.8 lineto
65747.6 37651.3 lineto
65747.6 37538.8 lineto
65185.2 37426.3 lineto
stroke
newpath
66197.6 37088.9 moveto
66310.1 37032.6 lineto
66535 37032.6 lineto
66647.5 37088.9 lineto
66703.8 37201.4 lineto
66703.8 37257.6 lineto
66647.5 37370.1 lineto
66535 37426.3 lineto
66366.3 37426.3 lineto
66253.8 37482.6 lineto
66197.6 37595.1 lineto
66197.6 37651.3 lineto
66253.8 37763.8 lineto
66366.3 37820 lineto
66535 37820 lineto
66647.5 37763.8 lineto
stroke
newpath
67097.5 36582.7 moveto
67153.7 36638.9 lineto
67266.2 36807.7 lineto
67322.4 36920.1 lineto
67378.7 37088.9 lineto
67434.9 37370.1 lineto
67434.9 37595.1 lineto
67378.7 37876.3 lineto
67322.4 38045 lineto
67266.2 38157.5 lineto
67153.7 38326.2 lineto
67097.5 38382.5 lineto
stroke
39895.5 36007.9 540 cir0
0 0 0 setrgbcolor
0 0 0 setrgbcolor
newpath
41788.1 36654.7 moveto
41900.6 36654.7 lineto
42013.1 36598.4 lineto
42069.3 36542.2 lineto
42125.6 36429.7 lineto
42181.8 36204.7 lineto
42181.8 35923.5 lineto
42125.6 35698.6 lineto
42069.3 35586.1 lineto
42013.1 35529.8 lineto
41900.6 35473.6 lineto
41788.1 35473.6 lineto
41675.6 35529.8 lineto
41619.4 35586.1 lineto
41563.1 35698.6 lineto
41506.9 35923.5 lineto
41506.9 36204.7 lineto
41563.1 36429.7 lineto
41619.4 36542.2 lineto
41675.6 36598.4 lineto
41788.1 36654.7 lineto
stroke
newpath
42688 35586.1 moveto
42744.2 35529.8 lineto
42688 35473.6 lineto
42631.8 35529.8 lineto
42688 35586.1 lineto
42688 35473.6 lineto
stroke
newpath
43306.7 35473.6 moveto
43531.6 35473.6 lineto
43644.1 35529.8 lineto
43700.4 35586.1 lineto
43812.9 35754.8 lineto
43869.1 35979.8 lineto
43869.1 36429.7 lineto
43812.9 36542.2 lineto
43756.6 36598.4 lineto
43644.1 36654.7 lineto
43419.2 36654.7 lineto
43306.7 36598.4 lineto
43250.4 36542.2 lineto
43194.2 36429.7 lineto
43194.2 36148.5 lineto
43250.4 36036 lineto
43306.7 35979.8 lineto
43419.2 35923.5 lineto
43644.1 35923.5 lineto
43756.6 35979.8 lineto
43812.9 36036 lineto
43869.1 36148.5 lineto
stroke
newpath
44994 35473.6 moveto
44319 35473.6 lineto
stroke
newpath
44656.5 35473.6 moveto
44656.5 36654.7 lineto
44544 36486 lineto
44431.5 36373.5 lineto
44319 36317.2 lineto
stroke
newpath
45500.2 35473.6 moveto
45500.2 36261 lineto
stroke
newpath
45500.2 36148.5 moveto
45556.4 36204.7 lineto
45668.9 36261 lineto
45837.6 36261 lineto
45950.1 36204.7 lineto
46006.3 36092.3 lineto
46006.3 35473.6 lineto
stroke
newpath
46006.3 36092.3 moveto
46062.6 36204.7 lineto
46175.1 36261 lineto
46343.8 36261 lineto
46456.3 36204.7 lineto
46512.5 36092.3 lineto
46512.5 35473.6 lineto
stroke
newpath
47075 35473.6 moveto
47075 36261 lineto
stroke
newpath
47075 36148.5 moveto
47131.2 36204.7 lineto
47243.7 36261 lineto
47412.4 36261 lineto
47524.9 36204.7 lineto
47581.1 36092.3 lineto
47581.1 35473.6 lineto
stroke
newpath
47581.1 36092.3 moveto
47637.4 36204.7 lineto
47749.9 36261 lineto
47918.6 36261 lineto
48031.1 36204.7 lineto
48087.3 36092.3 lineto
48087.3 35473.6 lineto
stroke
newpath
50393.3 36710.9 moveto
49380.9 35192.4 lineto
stroke
newpath
51911.8 36654.7 moveto
52024.3 36654.7 lineto
52136.8 36598.4 lineto
52193.1 36542.2 lineto
52249.3 36429.7 lineto
52305.6 36204.7 lineto
52305.6 35923.5 lineto
52249.3 35698.6 lineto
52193.1 35586.1 lineto
52136.8 35529.8 lineto
52024.3 35473.6 lineto
51911.8 35473.6 lineto
51799.4 35529.8 lineto
51743.1 35586.1 lineto
51686.9 35698.6 lineto
51630.6 35923.5 lineto
51630.6 36204.7 lineto
51686.9 36429.7 lineto
51743.1 36542.2 lineto
51799.4 36598.4 lineto
51911.8 36654.7 lineto
stroke
newpath
52811.7 35586.1 moveto
52868 35529.8 lineto
52811.7 35473.6 lineto
52755.5 35529.8 lineto
52811.7 35586.1 lineto
52811.7 35473.6 lineto
stroke
newpath
53599.1 36654.7 moveto
53711.6 36654.7 lineto
53824.1 36598.4 lineto
53880.4 36542.2 lineto
53936.6 36429.7 lineto
53992.8 36204.7 lineto
53992.8 35923.5 lineto
53936.6 35698.6 lineto
53880.4 35586.1 lineto
53824.1 35529.8 lineto
53711.6 35473.6 lineto
53599.1 35473.6 lineto
53486.7 35529.8 lineto
53430.4 35586.1 lineto
53374.2 35698.6 lineto
53317.9 35923.5 lineto
53317.9 36204.7 lineto
53374.2 36429.7 lineto
53430.4 36542.2 lineto
53486.7 36598.4 lineto
53599.1 36654.7 lineto
stroke
newpath
54386.5 36654.7 moveto
55117.7 36654.7 lineto
54724 36204.7 lineto
54892.7 36204.7 lineto
55005.2 36148.5 lineto
55061.5 36092.3 lineto
55117.7 35979.8 lineto
55117.7 35698.6 lineto
55061.5 35586.1 lineto
55005.2 35529.8 lineto
54892.7 35473.6 lineto
54555.3 35473.6 lineto
54442.8 35529.8 lineto
54386.5 35586.1 lineto
stroke
newpath
56130.1 36654.7 moveto
55905.1 36654.7 lineto
55792.6 36598.4 lineto
55736.4 36542.2 lineto
55623.9 36373.5 lineto
55567.6 36148.5 lineto
55567.6 35698.6 lineto
55623.9 35586.1 lineto
55680.1 35529.8 lineto
55792.6 35473.6 lineto
56017.6 35473.6 lineto
56130.1 35529.8 lineto
56186.3 35586.1 lineto
56242.6 35698.6 lineto
56242.6 35979.8 lineto
56186.3 36092.3 lineto
56130.1 36148.5 lineto
56017.6 36204.7 lineto
55792.6 36204.7 lineto
55680.1 36148.5 lineto
55623.9 36092.3 lineto
55567.6 35979.8 lineto
stroke
newpath
56692.5 36654.7 moveto
56692.5 36429.7 lineto
stroke
newpath
57142.4 36654.7 moveto
57142.4 36429.7 lineto
stroke
newpath
58886 35023.6 moveto
58829.7 35079.9 lineto
58717.2 35248.6 lineto
58661 35361.1 lineto
58604.8 35529.8 lineto
58548.5 35811 lineto
58548.5 36036 lineto
58604.8 36317.2 lineto
58661 36486 lineto
58717.2 36598.4 lineto
58829.7 36767.2 lineto
58886 36823.4 lineto
stroke
newpath
59279.7 36542.2 moveto
59335.9 36598.4 lineto
59448.4 36654.7 lineto
59729.6 36654.7 lineto
59842.1 36598.4 lineto
59898.4 36542.2 lineto
59954.6 36429.7 lineto
59954.6 36317.2 lineto
59898.4 36148.5 lineto
59223.4 35473.6 lineto
59954.6 35473.6 lineto
stroke
newpath
60685.8 36654.7 moveto
60798.2 36654.7 lineto
60910.7 36598.4 lineto
60967 36542.2 lineto
61023.2 36429.7 lineto
61079.5 36204.7 lineto
61079.5 35923.5 lineto
61023.2 35698.6 lineto
60967 35586.1 lineto
60910.7 35529.8 lineto
60798.2 35473.6 lineto
60685.8 35473.6 lineto
60573.3 35529.8 lineto
60517 35586.1 lineto
60460.8 35698.6 lineto
60404.5 35923.5 lineto
60404.5 36204.7 lineto
60460.8 36429.7 lineto
60517 36542.2 lineto
60573.3 36598.4 lineto
60685.8 36654.7 lineto
stroke
newpath
62485.5 35473.6 moveto
62485.5 36654.7 lineto
stroke
newpath
62991.7 35473.6 moveto
62991.7 36092.3 lineto
62935.5 36204.7 lineto
62823 36261 lineto
62654.3 36261 lineto
62541.8 36204.7 lineto
62485.5 36148.5 lineto
stroke
newpath
63722.9 35473.6 moveto
63610.4 35529.8 lineto
63554.1 35586.1 lineto
63497.9 35698.6 lineto
63497.9 36036 lineto
63554.1 36148.5 lineto
63610.4 36204.7 lineto
63722.9 36261 lineto
63891.6 36261 lineto
64004.1 36204.7 lineto
64060.3 36148.5 lineto
64116.6 36036 lineto
64116.6 35698.6 lineto
64060.3 35586.1 lineto
64004.1 35529.8 lineto
63891.6 35473.6 lineto
63722.9 35473.6 lineto
stroke
newpath
64791.5 35473.6 moveto
64679 35529.8 lineto
64622.8 35642.3 lineto
64622.8 36654.7 lineto
stroke
newpath
65691.4 35529.8 moveto
65578.9 35473.6 lineto
65353.9 35473.6 lineto
65241.4 35529.8 lineto
65185.2 35642.3 lineto
65185.2 36092.3 lineto
65241.4 36204.7 lineto
65353.9 36261 lineto
65578.9 36261 lineto
65691.4 36204.7 lineto
65747.6 36092.3 lineto
65747.6 35979.8 lineto
65185.2 35867.3 lineto
stroke
newpath
66197.6 35529.8 moveto
66310.1 35473.6 lineto
66535 35473.6 lineto
66647.5 35529.8 lineto
66703.8 35642.3 lineto
66703.8 35698.6 lineto
66647.5 35811 lineto
66535 35867.3 lineto
66366.3 35867.3 lineto
66253.8 35923.5 lineto
66197.6 36036 lineto
66197.6 36092.3 lineto
66253.8 36204.7 lineto
66366.3 36261 lineto
66535 36261 lineto
66647.5 36204.7 lineto
stroke
newpath
67097.5 35023.6 moveto
67153.7 35079.9 lineto
67266.2 35248.6 lineto
67322.4 35361.1 lineto
67378.7 35529.8 lineto
67434.9 35811 lineto
67434.9 36036 lineto
67378.7 36317.2 lineto
67322.4 36486 lineto
67266.2 36598.4 lineto
67153.7 36767.2 lineto
67097.5 36823.4 lineto
stroke
newpath
39844.9 35006.6 moveto
39844.9 33825.5 lineto
stroke
newpath
39254.4 34416.1 moveto
40435.5 34416.1 lineto
stroke
0 0 0 setrgbcolor
0 0 0 setrgbcolor
newpath
42181.8 33881.8 moveto
41506.9 33881.8 lineto
stroke
newpath
41844.4 33881.8 moveto
41844.4 35062.9 lineto
41731.9 34894.1 lineto
41619.4 34781.7 lineto
41506.9 34725.4 lineto
stroke
newpath
42688 33994.3 moveto
42744.2 33938 lineto
42688 33881.8 lineto
42631.8 33938 lineto
42688 33994.3 lineto
42688 33881.8 lineto
stroke
newpath
43475.4 35062.9 moveto
43587.9 35062.9 lineto
43700.4 35006.6 lineto
43756.6 34950.4 lineto
43812.9 34837.9 lineto
43869.1 34612.9 lineto
43869.1 34331.7 lineto
43812.9 34106.7 lineto
43756.6 33994.3 lineto
43700.4 33938 lineto
43587.9 33881.8 lineto
43475.4 33881.8 lineto
43362.9 33938 lineto
43306.7 33994.3 lineto
43250.4 34106.7 lineto
43194.2 34331.7 lineto
43194.2 34612.9 lineto
43250.4 34837.9 lineto
43306.7 34950.4 lineto
43362.9 35006.6 lineto
43475.4 35062.9 lineto
stroke
newpath
44600.3 35062.9 moveto
44712.7 35062.9 lineto
44825.2 35006.6 lineto
44881.5 34950.4 lineto
44937.7 34837.9 lineto
44994 34612.9 lineto
44994 34331.7 lineto
44937.7 34106.7 lineto
44881.5 33994.3 lineto
44825.2 33938 lineto
44712.7 33881.8 lineto
44600.3 33881.8 lineto
44487.8 33938 lineto
44431.5 33994.3 lineto
44375.3 34106.7 lineto
44319 34331.7 lineto
44319 34612.9 lineto
44375.3 34837.9 lineto
44431.5 34950.4 lineto
44487.8 35006.6 lineto
44600.3 35062.9 lineto
stroke
newpath
45500.2 33881.8 moveto
45500.2 34669.2 lineto
stroke
newpath
45500.2 34556.7 moveto
45556.4 34612.9 lineto
45668.9 34669.2 lineto
45837.6 34669.2 lineto
45950.1 34612.9 lineto
46006.3 34500.4 lineto
46006.3 33881.8 lineto
stroke
newpath
46006.3 34500.4 moveto
46062.6 34612.9 lineto
46175.1 34669.2 lineto
46343.8 34669.2 lineto
46456.3 34612.9 lineto
46512.5 34500.4 lineto
46512.5 33881.8 lineto
stroke
newpath
47075 33881.8 moveto
47075 34669.2 lineto
stroke
newpath
47075 34556.7 moveto
47131.2 34612.9 lineto
47243.7 34669.2 lineto
47412.4 34669.2 lineto
47524.9 34612.9 lineto
47581.1 34500.4 lineto
47581.1 33881.8 lineto
stroke
newpath
47581.1 34500.4 moveto
47637.4 34612.9 lineto
47749.9 34669.2 lineto
47918.6 34669.2 lineto
48031.1 34612.9 lineto
48087.3 34500.4 lineto
48087.3 33881.8 lineto
stroke
newpath
50393.3 35119.1 moveto
49380.9 33600.6 lineto
stroke
newpath
51911.8 35062.9 moveto
52024.3 35062.9 lineto
52136.8 35006.6 lineto
52193.1 34950.4 lineto
52249.3 34837.9 lineto
52305.6 34612.9 lineto
52305.6 34331.7 lineto
52249.3 34106.7 lineto
52193.1 33994.3 lineto
52136.8 33938 lineto
52024.3 33881.8 lineto
51911.8 33881.8 lineto
51799.4 33938 lineto
51743.1 33994.3 lineto
51686.9 34106.7 lineto
51630.6 34331.7 lineto
51630.6 34612.9 lineto
51686.9 34837.9 lineto
51743.1 34950.4 lineto
51799.4 35006.6 lineto
51911.8 35062.9 lineto
stroke
newpath
52811.7 33994.3 moveto
52868 33938 lineto
52811.7 33881.8 lineto
52755.5 33938 lineto
52811.7 33994.3 lineto
52811.7 33881.8 lineto
stroke
newpath
53599.1 35062.9 moveto
53711.6 35062.9 lineto
53824.1 35006.6 lineto
53880.4 34950.4 lineto
53936.6 34837.9 lineto
53992.8 34612.9 lineto
53992.8 34331.7 lineto
53936.6 34106.7 lineto
53880.4 33994.3 lineto
53824.1 33938 lineto
53711.6 33881.8 lineto
53599.1 33881.8 lineto
53486.7 33938 lineto
53430.4 33994.3 lineto
53374.2 34106.7 lineto
53317.9 34331.7 lineto
53317.9 34612.9 lineto
53374.2 34837.9 lineto
53430.4 34950.4 lineto
53486.7 35006.6 lineto
53599.1 35062.9 lineto
stroke
newpath
54386.5 35062.9 moveto
55117.7 35062.9 lineto
54724 34612.9 lineto
54892.7 34612.9 lineto
55005.2 34556.7 lineto
55061.5 34500.4 lineto
55117.7 34388 lineto
55117.7 34106.7 lineto
55061.5 33994.3 lineto
55005.2 33938 lineto
54892.7 33881.8 lineto
54555.3 33881.8 lineto
54442.8 33938 lineto
54386.5 33994.3 lineto
stroke
newpath
55680.1 33881.8 moveto
55905.1 33881.8 lineto
56017.6 33938 lineto
56073.8 33994.3 lineto
56186.3 34163 lineto
56242.6 34388 lineto
56242.6 34837.9 lineto
56186.3 34950.4 lineto
56130.1 35006.6 lineto
56017.6 35062.9 lineto
55792.6 35062.9 lineto
55680.1 35006.6 lineto
55623.9 34950.4 lineto
55567.6 34837.9 lineto
55567.6 34556.7 lineto
55623.9 34444.2 lineto
55680.1 34388 lineto
55792.6 34331.7 lineto
56017.6 34331.7 lineto
56130.1 34388 lineto
56186.3 34444.2 lineto
56242.6 34556.7 lineto
stroke
newpath
56692.5 35062.9 moveto
56692.5 34837.9 lineto
stroke
newpath
57142.4 35062.9 moveto
57142.4 34837.9 lineto
stroke
newpath
58886 33431.8 moveto
58829.7 33488.1 lineto
58717.2 33656.8 lineto
58661 33769.3 lineto
58604.8 33938 lineto
58548.5 34219.2 lineto
58548.5 34444.2 lineto
58604.8 34725.4 lineto
58661 34894.1 lineto
58717.2 35006.6 lineto
58829.7 35175.4 lineto
58886 35231.6 lineto
stroke
newpath
59954.6 33881.8 moveto
59279.7 33881.8 lineto
stroke
newpath
59617.1 33881.8 moveto
59617.1 35062.9 lineto
59504.7 34894.1 lineto
59392.2 34781.7 lineto
59279.7 34725.4 lineto
stroke
newpath
61079.5 33881.8 moveto
60404.5 33881.8 lineto
stroke
newpath
60742 33881.8 moveto
60742 35062.9 lineto
60629.5 34894.1 lineto
60517 34781.7 lineto
60404.5 34725.4 lineto
stroke
newpath
62485.5 33881.8 moveto
62485.5 35062.9 lineto
stroke
newpath
62991.7 33881.8 moveto
62991.7 34500.4 lineto
62935.5 34612.9 lineto
62823 34669.2 lineto
62654.3 34669.2 lineto
62541.8 34612.9 lineto
62485.5 34556.7 lineto
stroke
newpath
63722.9 33881.8 moveto
63610.4 33938 lineto
63554.1 33994.3 lineto
63497.9 34106.7 lineto
63497.9 34444.2 lineto
63554.1 34556.7 lineto
63610.4 34612.9 lineto
63722.9 34669.2 lineto
63891.6 34669.2 lineto
64004.1 34612.9 lineto
64060.3 34556.7 lineto
64116.6 34444.2 lineto
64116.6 34106.7 lineto
64060.3 33994.3 lineto
64004.1 33938 lineto
63891.6 33881.8 lineto
63722.9 33881.8 lineto
stroke
newpath
64791.5 33881.8 moveto
64679 33938 lineto
64622.8 34050.5 lineto
64622.8 35062.9 lineto
stroke
newpath
65691.4 33938 moveto
65578.9 33881.8 lineto
65353.9 33881.8 lineto
65241.4 33938 lineto
65185.2 34050.5 lineto
65185.2 34500.4 lineto
65241.4 34612.9 lineto
65353.9 34669.2 lineto
65578.9 34669.2 lineto
65691.4 34612.9 lineto
65747.6 34500.4 lineto
65747.6 34388 lineto
65185.2 34275.5 lineto
stroke
newpath
66197.6 33938 moveto
66310.1 33881.8 lineto
66535 33881.8 lineto
66647.5 33938 lineto
66703.8 34050.5 lineto
66703.8 34106.7 lineto
66647.5 34219.2 lineto
66535 34275.5 lineto
66366.3 34275.5 lineto
66253.8 34331.7 lineto
66197.6 34444.2 lineto
66197.6 34500.4 lineto
66253.8 34612.9 lineto
66366.3 34669.2 lineto
66535 34669.2 lineto
66647.5 34612.9 lineto
stroke
newpath
67097.5 33431.8 moveto
67153.7 33488.1 lineto
67266.2 33656.8 lineto
67322.4 33769.3 lineto
67378.7 33938 lineto
67434.9 34219.2 lineto
67434.9 34444.2 lineto
67378.7 34725.4 lineto
67322.4 34894.1 lineto
67266.2 35006.6 lineto
67153.7 35175.4 lineto
67097.5 35231.6 lineto
stroke
showpage
grestore
%%EOF
