%!PS-Adobe-3.0
%%Creator: PCBNEW
%%CreationDate: Sat Mar 13 23:18:10 2021
%%Title: /home/uli/Documents/KiCad/Boards/LED/LED_BAR/fab/LED_BAR-NPTH-drl_map.ps
%%Pages: 1
%%PageOrder: Ascend
%%BoundingBox: 0 0 596 842
%%DocumentMedia: A4 595 842 0 () ()
%%Orientation: Landscape
%%EndComments
%%BeginProlog
/line { newpath moveto lineto stroke } bind def
/cir0 { newpath 0 360 arc stroke } bind def
/cir1 { newpath 0 360 arc gsave fill grestore stroke } bind def
/cir2 { newpath 0 360 arc gsave fill grestore stroke } bind def
/arc0 { newpath arc stroke } bind def
/arc1 { newpath 4 index 4 index moveto arc closepath gsave fill
    grestore stroke } bind def
/arc2 { newpath 4 index 4 index moveto arc closepath gsave fill
    grestore stroke } bind def
/poly0 { stroke } bind def
/poly1 { closepath gsave fill grestore stroke } bind def
/poly2 { closepath gsave fill grestore stroke } bind def
/rect0 { rectstroke } bind def
/rect1 { rectfill } bind def
/rect2 { rectfill } bind def
/linemode0 { 0 setlinecap 0 setlinejoin 0 setlinewidth } bind def
/linemode1 { 1 setlinecap 1 setlinejoin } bind def
/dashedline { [200] 100 setdash } bind def
/solidline { [] 0 setdash } bind def
/phantomshow { moveto
    /KicadFont findfont 0.000001 scalefont setfont
    show } bind def
/textshow { gsave
    findfont exch scalefont setfont concat 1 scale 0 0 moveto show
    } bind def
/reencodefont {
  findfont dup length dict begin
  { 1 index /FID ne
    { def }
    { pop pop } ifelse
  } forall
  /Encoding ISOLatin1Encoding def
  currentdict
  end } bind def
/KicadFont /Helvetica reencodefont definefont pop
/KicadFont-Bold /Helvetica-Bold reencodefont definefont pop
/KicadFont-Oblique /Helvetica-Oblique reencodefont definefont pop
/KicadFont-BoldOblique /Helvetica-BoldOblique reencodefont definefont pop
%%EndProlog
%%Page: 1 1
%%BeginPageSetup
gsave
0.0072 0.0072 scale
linemode1
82680 0 translate 90 rotate
150 setlinewidth
%%EndPageSetup
0 0 0 setrgbcolor
59.0551 setlinewidth
41215 73626 750 90 180 arc0
0 0 0 setrgbcolor
41215 42126 750 180 270 arc0
0 0 0 setrgbcolor
75715 42126 750 -90 -0 arc0
0 0 0 setrgbcolor
75715 73626 750 -0 90 arc0
0 0 0 setrgbcolor
newpath
75715 74376 moveto
41215 74376 lineto
stroke
0 0 0 setrgbcolor
newpath
76465 42126 moveto
76465 73626 lineto
stroke
0 0 0 setrgbcolor
newpath
41215 41376 moveto
75715 41376 lineto
stroke
0 0 0 setrgbcolor
newpath
40465 73626 moveto
40465 42126 lineto
stroke
78.7394 setlinewidth
118.11 setlinewidth
0 0 0 setrgbcolor
0 0 0 setrgbcolor
newpath
41563.1 39513 moveto
41563.1 40694.1 lineto
41844.4 40694.1 lineto
42013.1 40637.8 lineto
42125.6 40525.3 lineto
42181.8 40412.8 lineto
42238.1 40187.9 lineto
42238.1 40019.1 lineto
42181.8 39794.2 lineto
42125.6 39681.7 lineto
42013.1 39569.2 lineto
41844.4 39513 lineto
41563.1 39513 lineto
stroke
newpath
42744.2 39513 moveto
42744.2 40300.4 lineto
stroke
newpath
42744.2 40075.4 moveto
42800.5 40187.9 lineto
42856.7 40244.1 lineto
42969.2 40300.4 lineto
43081.7 40300.4 lineto
stroke
newpath
43475.4 39513 moveto
43475.4 40300.4 lineto
stroke
newpath
43475.4 40694.1 moveto
43419.2 40637.8 lineto
43475.4 40581.6 lineto
43531.6 40637.8 lineto
43475.4 40694.1 lineto
43475.4 40581.6 lineto
stroke
newpath
44206.6 39513 moveto
44094.1 39569.2 lineto
44037.8 39681.7 lineto
44037.8 40694.1 lineto
stroke
newpath
44825.2 39513 moveto
44712.7 39569.2 lineto
44656.5 39681.7 lineto
44656.5 40694.1 lineto
stroke
newpath
46175.1 39513 moveto
46175.1 40694.1 lineto
46568.8 39850.4 lineto
46962.5 40694.1 lineto
46962.5 39513 lineto
stroke
newpath
48031.1 39513 moveto
48031.1 40131.6 lineto
47974.8 40244.1 lineto
47862.4 40300.4 lineto
47637.4 40300.4 lineto
47524.9 40244.1 lineto
stroke
newpath
48031.1 39569.2 moveto
47918.6 39513 lineto
47637.4 39513 lineto
47524.9 39569.2 lineto
47468.7 39681.7 lineto
47468.7 39794.2 lineto
47524.9 39906.7 lineto
47637.4 39962.9 lineto
47918.6 39962.9 lineto
48031.1 40019.1 lineto
stroke
newpath
48593.5 40300.4 moveto
48593.5 39119.2 lineto
stroke
newpath
48593.5 40244.1 moveto
48706 40300.4 lineto
48931 40300.4 lineto
49043.5 40244.1 lineto
49099.7 40187.9 lineto
49155.9 40075.4 lineto
49155.9 39737.9 lineto
49099.7 39625.4 lineto
49043.5 39569.2 lineto
48931 39513 lineto
48706 39513 lineto
48593.5 39569.2 lineto
stroke
newpath
49662.1 39625.4 moveto
49718.4 39569.2 lineto
49662.1 39513 lineto
49605.9 39569.2 lineto
49662.1 39625.4 lineto
49662.1 39513 lineto
stroke
newpath
49662.1 40244.1 moveto
49718.4 40187.9 lineto
49662.1 40131.6 lineto
49605.9 40187.9 lineto
49662.1 40244.1 lineto
49662.1 40131.6 lineto
stroke
showpage
grestore
%%EOF
