G04 #@! TF.GenerationSoftware,KiCad,Pcbnew,5.99.0-unknown-1e8b23402c~127~ubuntu20.04.1*
G04 #@! TF.CreationDate,2021-04-26T13:43:42-05:00*
G04 #@! TF.ProjectId,8x8MatrixOldSchool,3878384d-6174-4726-9978-4f6c64536368,1.0*
G04 #@! TF.SameCoordinates,Original*
G04 #@! TF.FileFunction,Paste,Top*
G04 #@! TF.FilePolarity,Positive*
%FSLAX46Y46*%
G04 Gerber Fmt 4.6, Leading zero omitted, Abs format (unit mm)*
G04 Created by KiCad (PCBNEW 5.99.0-unknown-1e8b23402c~127~ubuntu20.04.1) date 2021-04-26 13:43:42*
%MOMM*%
%LPD*%
G01*
G04 APERTURE LIST*
G04 APERTURE END LIST*
G36*
G01*
X157350000Y-76183500D02*
X157350000Y-75708500D01*
G75*
G02*
X157587500Y-75471000I237500J0D01*
G01*
X158162500Y-75471000D01*
G75*
G02*
X158400000Y-75708500I0J-237500D01*
G01*
X158400000Y-76183500D01*
G75*
G02*
X158162500Y-76421000I-237500J0D01*
G01*
X157587500Y-76421000D01*
G75*
G02*
X157350000Y-76183500I0J237500D01*
G01*
G37*
G36*
G01*
X159100000Y-76183500D02*
X159100000Y-75708500D01*
G75*
G02*
X159337500Y-75471000I237500J0D01*
G01*
X159912500Y-75471000D01*
G75*
G02*
X160150000Y-75708500I0J-237500D01*
G01*
X160150000Y-76183500D01*
G75*
G02*
X159912500Y-76421000I-237500J0D01*
G01*
X159337500Y-76421000D01*
G75*
G02*
X159100000Y-76183500I0J237500D01*
G01*
G37*
G36*
G01*
X157350000Y-88883500D02*
X157350000Y-88408500D01*
G75*
G02*
X157587500Y-88171000I237500J0D01*
G01*
X158162500Y-88171000D01*
G75*
G02*
X158400000Y-88408500I0J-237500D01*
G01*
X158400000Y-88883500D01*
G75*
G02*
X158162500Y-89121000I-237500J0D01*
G01*
X157587500Y-89121000D01*
G75*
G02*
X157350000Y-88883500I0J237500D01*
G01*
G37*
G36*
G01*
X159100000Y-88883500D02*
X159100000Y-88408500D01*
G75*
G02*
X159337500Y-88171000I237500J0D01*
G01*
X159912500Y-88171000D01*
G75*
G02*
X160150000Y-88408500I0J-237500D01*
G01*
X160150000Y-88883500D01*
G75*
G02*
X159912500Y-89121000I-237500J0D01*
G01*
X159337500Y-89121000D01*
G75*
G02*
X159100000Y-88883500I0J237500D01*
G01*
G37*
G36*
G01*
X157350000Y-73643500D02*
X157350000Y-73168500D01*
G75*
G02*
X157587500Y-72931000I237500J0D01*
G01*
X158162500Y-72931000D01*
G75*
G02*
X158400000Y-73168500I0J-237500D01*
G01*
X158400000Y-73643500D01*
G75*
G02*
X158162500Y-73881000I-237500J0D01*
G01*
X157587500Y-73881000D01*
G75*
G02*
X157350000Y-73643500I0J237500D01*
G01*
G37*
G36*
G01*
X159100000Y-73643500D02*
X159100000Y-73168500D01*
G75*
G02*
X159337500Y-72931000I237500J0D01*
G01*
X159912500Y-72931000D01*
G75*
G02*
X160150000Y-73168500I0J-237500D01*
G01*
X160150000Y-73643500D01*
G75*
G02*
X159912500Y-73881000I-237500J0D01*
G01*
X159337500Y-73881000D01*
G75*
G02*
X159100000Y-73643500I0J237500D01*
G01*
G37*
G36*
G01*
X157350000Y-86343500D02*
X157350000Y-85868500D01*
G75*
G02*
X157587500Y-85631000I237500J0D01*
G01*
X158162500Y-85631000D01*
G75*
G02*
X158400000Y-85868500I0J-237500D01*
G01*
X158400000Y-86343500D01*
G75*
G02*
X158162500Y-86581000I-237500J0D01*
G01*
X157587500Y-86581000D01*
G75*
G02*
X157350000Y-86343500I0J237500D01*
G01*
G37*
G36*
G01*
X159100000Y-86343500D02*
X159100000Y-85868500D01*
G75*
G02*
X159337500Y-85631000I237500J0D01*
G01*
X159912500Y-85631000D01*
G75*
G02*
X160150000Y-85868500I0J-237500D01*
G01*
X160150000Y-86343500D01*
G75*
G02*
X159912500Y-86581000I-237500J0D01*
G01*
X159337500Y-86581000D01*
G75*
G02*
X159100000Y-86343500I0J237500D01*
G01*
G37*
G36*
G01*
X157350000Y-91423500D02*
X157350000Y-90948500D01*
G75*
G02*
X157587500Y-90711000I237500J0D01*
G01*
X158162500Y-90711000D01*
G75*
G02*
X158400000Y-90948500I0J-237500D01*
G01*
X158400000Y-91423500D01*
G75*
G02*
X158162500Y-91661000I-237500J0D01*
G01*
X157587500Y-91661000D01*
G75*
G02*
X157350000Y-91423500I0J237500D01*
G01*
G37*
G36*
G01*
X159100000Y-91423500D02*
X159100000Y-90948500D01*
G75*
G02*
X159337500Y-90711000I237500J0D01*
G01*
X159912500Y-90711000D01*
G75*
G02*
X160150000Y-90948500I0J-237500D01*
G01*
X160150000Y-91423500D01*
G75*
G02*
X159912500Y-91661000I-237500J0D01*
G01*
X159337500Y-91661000D01*
G75*
G02*
X159100000Y-91423500I0J237500D01*
G01*
G37*
G36*
G01*
X139028400Y-78636000D02*
X139028400Y-78336000D01*
G75*
G02*
X139178400Y-78186000I150000J0D01*
G01*
X140628400Y-78186000D01*
G75*
G02*
X140778400Y-78336000I0J-150000D01*
G01*
X140778400Y-78636000D01*
G75*
G02*
X140628400Y-78786000I-150000J0D01*
G01*
X139178400Y-78786000D01*
G75*
G02*
X139028400Y-78636000I0J150000D01*
G01*
G37*
G36*
G01*
X139028400Y-79906000D02*
X139028400Y-79606000D01*
G75*
G02*
X139178400Y-79456000I150000J0D01*
G01*
X140628400Y-79456000D01*
G75*
G02*
X140778400Y-79606000I0J-150000D01*
G01*
X140778400Y-79906000D01*
G75*
G02*
X140628400Y-80056000I-150000J0D01*
G01*
X139178400Y-80056000D01*
G75*
G02*
X139028400Y-79906000I0J150000D01*
G01*
G37*
G36*
G01*
X139028400Y-81176000D02*
X139028400Y-80876000D01*
G75*
G02*
X139178400Y-80726000I150000J0D01*
G01*
X140628400Y-80726000D01*
G75*
G02*
X140778400Y-80876000I0J-150000D01*
G01*
X140778400Y-81176000D01*
G75*
G02*
X140628400Y-81326000I-150000J0D01*
G01*
X139178400Y-81326000D01*
G75*
G02*
X139028400Y-81176000I0J150000D01*
G01*
G37*
G36*
G01*
X139028400Y-82446000D02*
X139028400Y-82146000D01*
G75*
G02*
X139178400Y-81996000I150000J0D01*
G01*
X140628400Y-81996000D01*
G75*
G02*
X140778400Y-82146000I0J-150000D01*
G01*
X140778400Y-82446000D01*
G75*
G02*
X140628400Y-82596000I-150000J0D01*
G01*
X139178400Y-82596000D01*
G75*
G02*
X139028400Y-82446000I0J150000D01*
G01*
G37*
G36*
G01*
X139028400Y-83716000D02*
X139028400Y-83416000D01*
G75*
G02*
X139178400Y-83266000I150000J0D01*
G01*
X140628400Y-83266000D01*
G75*
G02*
X140778400Y-83416000I0J-150000D01*
G01*
X140778400Y-83716000D01*
G75*
G02*
X140628400Y-83866000I-150000J0D01*
G01*
X139178400Y-83866000D01*
G75*
G02*
X139028400Y-83716000I0J150000D01*
G01*
G37*
G36*
G01*
X139028400Y-84986000D02*
X139028400Y-84686000D01*
G75*
G02*
X139178400Y-84536000I150000J0D01*
G01*
X140628400Y-84536000D01*
G75*
G02*
X140778400Y-84686000I0J-150000D01*
G01*
X140778400Y-84986000D01*
G75*
G02*
X140628400Y-85136000I-150000J0D01*
G01*
X139178400Y-85136000D01*
G75*
G02*
X139028400Y-84986000I0J150000D01*
G01*
G37*
G36*
G01*
X139028400Y-86256000D02*
X139028400Y-85956000D01*
G75*
G02*
X139178400Y-85806000I150000J0D01*
G01*
X140628400Y-85806000D01*
G75*
G02*
X140778400Y-85956000I0J-150000D01*
G01*
X140778400Y-86256000D01*
G75*
G02*
X140628400Y-86406000I-150000J0D01*
G01*
X139178400Y-86406000D01*
G75*
G02*
X139028400Y-86256000I0J150000D01*
G01*
G37*
G36*
G01*
X139028400Y-87526000D02*
X139028400Y-87226000D01*
G75*
G02*
X139178400Y-87076000I150000J0D01*
G01*
X140628400Y-87076000D01*
G75*
G02*
X140778400Y-87226000I0J-150000D01*
G01*
X140778400Y-87526000D01*
G75*
G02*
X140628400Y-87676000I-150000J0D01*
G01*
X139178400Y-87676000D01*
G75*
G02*
X139028400Y-87526000I0J150000D01*
G01*
G37*
G36*
G01*
X139028400Y-88796000D02*
X139028400Y-88496000D01*
G75*
G02*
X139178400Y-88346000I150000J0D01*
G01*
X140628400Y-88346000D01*
G75*
G02*
X140778400Y-88496000I0J-150000D01*
G01*
X140778400Y-88796000D01*
G75*
G02*
X140628400Y-88946000I-150000J0D01*
G01*
X139178400Y-88946000D01*
G75*
G02*
X139028400Y-88796000I0J150000D01*
G01*
G37*
G36*
G01*
X148578400Y-88796000D02*
X148578400Y-88496000D01*
G75*
G02*
X148728400Y-88346000I150000J0D01*
G01*
X150178400Y-88346000D01*
G75*
G02*
X150328400Y-88496000I0J-150000D01*
G01*
X150328400Y-88796000D01*
G75*
G02*
X150178400Y-88946000I-150000J0D01*
G01*
X148728400Y-88946000D01*
G75*
G02*
X148578400Y-88796000I0J150000D01*
G01*
G37*
G36*
G01*
X148578400Y-87526000D02*
X148578400Y-87226000D01*
G75*
G02*
X148728400Y-87076000I150000J0D01*
G01*
X150178400Y-87076000D01*
G75*
G02*
X150328400Y-87226000I0J-150000D01*
G01*
X150328400Y-87526000D01*
G75*
G02*
X150178400Y-87676000I-150000J0D01*
G01*
X148728400Y-87676000D01*
G75*
G02*
X148578400Y-87526000I0J150000D01*
G01*
G37*
G36*
G01*
X148578400Y-86256000D02*
X148578400Y-85956000D01*
G75*
G02*
X148728400Y-85806000I150000J0D01*
G01*
X150178400Y-85806000D01*
G75*
G02*
X150328400Y-85956000I0J-150000D01*
G01*
X150328400Y-86256000D01*
G75*
G02*
X150178400Y-86406000I-150000J0D01*
G01*
X148728400Y-86406000D01*
G75*
G02*
X148578400Y-86256000I0J150000D01*
G01*
G37*
G36*
G01*
X148578400Y-84986000D02*
X148578400Y-84686000D01*
G75*
G02*
X148728400Y-84536000I150000J0D01*
G01*
X150178400Y-84536000D01*
G75*
G02*
X150328400Y-84686000I0J-150000D01*
G01*
X150328400Y-84986000D01*
G75*
G02*
X150178400Y-85136000I-150000J0D01*
G01*
X148728400Y-85136000D01*
G75*
G02*
X148578400Y-84986000I0J150000D01*
G01*
G37*
G36*
G01*
X148578400Y-83716000D02*
X148578400Y-83416000D01*
G75*
G02*
X148728400Y-83266000I150000J0D01*
G01*
X150178400Y-83266000D01*
G75*
G02*
X150328400Y-83416000I0J-150000D01*
G01*
X150328400Y-83716000D01*
G75*
G02*
X150178400Y-83866000I-150000J0D01*
G01*
X148728400Y-83866000D01*
G75*
G02*
X148578400Y-83716000I0J150000D01*
G01*
G37*
G36*
G01*
X148578400Y-82446000D02*
X148578400Y-82146000D01*
G75*
G02*
X148728400Y-81996000I150000J0D01*
G01*
X150178400Y-81996000D01*
G75*
G02*
X150328400Y-82146000I0J-150000D01*
G01*
X150328400Y-82446000D01*
G75*
G02*
X150178400Y-82596000I-150000J0D01*
G01*
X148728400Y-82596000D01*
G75*
G02*
X148578400Y-82446000I0J150000D01*
G01*
G37*
G36*
G01*
X148578400Y-81176000D02*
X148578400Y-80876000D01*
G75*
G02*
X148728400Y-80726000I150000J0D01*
G01*
X150178400Y-80726000D01*
G75*
G02*
X150328400Y-80876000I0J-150000D01*
G01*
X150328400Y-81176000D01*
G75*
G02*
X150178400Y-81326000I-150000J0D01*
G01*
X148728400Y-81326000D01*
G75*
G02*
X148578400Y-81176000I0J150000D01*
G01*
G37*
G36*
G01*
X148578400Y-79906000D02*
X148578400Y-79606000D01*
G75*
G02*
X148728400Y-79456000I150000J0D01*
G01*
X150178400Y-79456000D01*
G75*
G02*
X150328400Y-79606000I0J-150000D01*
G01*
X150328400Y-79906000D01*
G75*
G02*
X150178400Y-80056000I-150000J0D01*
G01*
X148728400Y-80056000D01*
G75*
G02*
X148578400Y-79906000I0J150000D01*
G01*
G37*
G36*
G01*
X148578400Y-78636000D02*
X148578400Y-78336000D01*
G75*
G02*
X148728400Y-78186000I150000J0D01*
G01*
X150178400Y-78186000D01*
G75*
G02*
X150328400Y-78336000I0J-150000D01*
G01*
X150328400Y-78636000D01*
G75*
G02*
X150178400Y-78786000I-150000J0D01*
G01*
X148728400Y-78786000D01*
G75*
G02*
X148578400Y-78636000I0J150000D01*
G01*
G37*
G36*
G01*
X157350000Y-83803500D02*
X157350000Y-83328500D01*
G75*
G02*
X157587500Y-83091000I237500J0D01*
G01*
X158162500Y-83091000D01*
G75*
G02*
X158400000Y-83328500I0J-237500D01*
G01*
X158400000Y-83803500D01*
G75*
G02*
X158162500Y-84041000I-237500J0D01*
G01*
X157587500Y-84041000D01*
G75*
G02*
X157350000Y-83803500I0J237500D01*
G01*
G37*
G36*
G01*
X159100000Y-83803500D02*
X159100000Y-83328500D01*
G75*
G02*
X159337500Y-83091000I237500J0D01*
G01*
X159912500Y-83091000D01*
G75*
G02*
X160150000Y-83328500I0J-237500D01*
G01*
X160150000Y-83803500D01*
G75*
G02*
X159912500Y-84041000I-237500J0D01*
G01*
X159337500Y-84041000D01*
G75*
G02*
X159100000Y-83803500I0J237500D01*
G01*
G37*
G36*
G01*
X157350000Y-78723500D02*
X157350000Y-78248500D01*
G75*
G02*
X157587500Y-78011000I237500J0D01*
G01*
X158162500Y-78011000D01*
G75*
G02*
X158400000Y-78248500I0J-237500D01*
G01*
X158400000Y-78723500D01*
G75*
G02*
X158162500Y-78961000I-237500J0D01*
G01*
X157587500Y-78961000D01*
G75*
G02*
X157350000Y-78723500I0J237500D01*
G01*
G37*
G36*
G01*
X159100000Y-78723500D02*
X159100000Y-78248500D01*
G75*
G02*
X159337500Y-78011000I237500J0D01*
G01*
X159912500Y-78011000D01*
G75*
G02*
X160150000Y-78248500I0J-237500D01*
G01*
X160150000Y-78723500D01*
G75*
G02*
X159912500Y-78961000I-237500J0D01*
G01*
X159337500Y-78961000D01*
G75*
G02*
X159100000Y-78723500I0J237500D01*
G01*
G37*
G36*
G01*
X157350000Y-81263500D02*
X157350000Y-80788500D01*
G75*
G02*
X157587500Y-80551000I237500J0D01*
G01*
X158162500Y-80551000D01*
G75*
G02*
X158400000Y-80788500I0J-237500D01*
G01*
X158400000Y-81263500D01*
G75*
G02*
X158162500Y-81501000I-237500J0D01*
G01*
X157587500Y-81501000D01*
G75*
G02*
X157350000Y-81263500I0J237500D01*
G01*
G37*
G36*
G01*
X159100000Y-81263500D02*
X159100000Y-80788500D01*
G75*
G02*
X159337500Y-80551000I237500J0D01*
G01*
X159912500Y-80551000D01*
G75*
G02*
X160150000Y-80788500I0J-237500D01*
G01*
X160150000Y-81263500D01*
G75*
G02*
X159912500Y-81501000I-237500J0D01*
G01*
X159337500Y-81501000D01*
G75*
G02*
X159100000Y-81263500I0J237500D01*
G01*
G37*
M02*
