G04 #@! TF.GenerationSoftware,KiCad,Pcbnew,5.1.7-a382d34a8~88~ubuntu20.04.1*
G04 #@! TF.CreationDate,2021-03-13T23:58:40-06:00*
G04 #@! TF.ProjectId,LED_SMD_x10_0805,4c45445f-534d-4445-9f78-31305f303830,rev?*
G04 #@! TF.SameCoordinates,Original*
G04 #@! TF.FileFunction,Copper,L2,Bot*
G04 #@! TF.FilePolarity,Positive*
%FSLAX46Y46*%
G04 Gerber Fmt 4.6, Leading zero omitted, Abs format (unit mm)*
G04 Created by KiCad (PCBNEW 5.1.7-a382d34a8~88~ubuntu20.04.1) date 2021-03-13 23:58:40*
%MOMM*%
%LPD*%
G01*
G04 APERTURE LIST*
G04 #@! TA.AperFunction,Profile*
%ADD10C,0.050000*%
G04 #@! TD*
G04 #@! TA.AperFunction,ComponentPad*
%ADD11O,1.700000X1.700000*%
G04 #@! TD*
G04 #@! TA.AperFunction,ComponentPad*
%ADD12R,1.700000X1.700000*%
G04 #@! TD*
G04 APERTURE END LIST*
D10*
X119380000Y-83820000D02*
G75*
G02*
X118110000Y-82550000I0J1270000D01*
G01*
X118110000Y-72390000D02*
G75*
G02*
X119380000Y-71120000I1270000J0D01*
G01*
X147320000Y-71120000D02*
G75*
G02*
X148590000Y-72390000I0J-1270000D01*
G01*
X148590000Y-82550000D02*
G75*
G02*
X147320000Y-83820000I-1270000J0D01*
G01*
X147320000Y-83820000D02*
X119380000Y-83820000D01*
X148590000Y-72390000D02*
X148590000Y-82550000D01*
X119380000Y-71120000D02*
X147320000Y-71120000D01*
X118110000Y-82550000D02*
X118110000Y-72390000D01*
D11*
X120650000Y-81534000D03*
X123190000Y-81534000D03*
X125730000Y-81534000D03*
X128270000Y-81534000D03*
X130810000Y-81534000D03*
X133350000Y-81534000D03*
X135890000Y-81534000D03*
X138430000Y-81534000D03*
X140970000Y-81534000D03*
X143510000Y-81534000D03*
D12*
X146050000Y-81534000D03*
M02*
