%!PS-Adobe-3.0
%%Creator: PCBNEW
%%CreationDate: Sat Mar 13 23:58:43 2021
%%Title: /home/uli/Documents/KiCad/Boards/LED/LED_SMD_x10_0805/fab/LED_SMD_x10_0805-PTH-drl_map.ps
%%Pages: 1
%%PageOrder: Ascend
%%BoundingBox: 0 0 596 842
%%DocumentMedia: A4 595 842 0 () ()
%%Orientation: Landscape
%%EndComments
%%BeginProlog
/line { newpath moveto lineto stroke } bind def
/cir0 { newpath 0 360 arc stroke } bind def
/cir1 { newpath 0 360 arc gsave fill grestore stroke } bind def
/cir2 { newpath 0 360 arc gsave fill grestore stroke } bind def
/arc0 { newpath arc stroke } bind def
/arc1 { newpath 4 index 4 index moveto arc closepath gsave fill
    grestore stroke } bind def
/arc2 { newpath 4 index 4 index moveto arc closepath gsave fill
    grestore stroke } bind def
/poly0 { stroke } bind def
/poly1 { closepath gsave fill grestore stroke } bind def
/poly2 { closepath gsave fill grestore stroke } bind def
/rect0 { rectstroke } bind def
/rect1 { rectfill } bind def
/rect2 { rectfill } bind def
/linemode0 { 0 setlinecap 0 setlinejoin 0 setlinewidth } bind def
/linemode1 { 1 setlinecap 1 setlinejoin } bind def
/dashedline { [200] 100 setdash } bind def
/solidline { [] 0 setdash } bind def
/phantomshow { moveto
    /KicadFont findfont 0.000001 scalefont setfont
    show } bind def
/textshow { gsave
    findfont exch scalefont setfont concat 1 scale 0 0 moveto show
    } bind def
/reencodefont {
  findfont dup length dict begin
  { 1 index /FID ne
    { def }
    { pop pop } ifelse
  } forall
  /Encoding ISOLatin1Encoding def
  currentdict
  end } bind def
/KicadFont /Helvetica reencodefont definefont pop
/KicadFont-Bold /Helvetica-Bold reencodefont definefont pop
/KicadFont-Oblique /Helvetica-Oblique reencodefont definefont pop
/KicadFont-BoldOblique /Helvetica-BoldOblique reencodefont definefont pop
%%EndProlog
%%Page: 1 1
%%BeginPageSetup
gsave
0.0072 0.0072 scale
linemode1
82680 0 translate 90 rotate
150 setlinewidth
%%EndPageSetup
0 0 0 setrgbcolor
59.0551 setlinewidth
41965 51876 1500 180 270 arc0
0 0 0 setrgbcolor
41965 63876 1500 90 180 arc0
0 0 0 setrgbcolor
74965 63876 1500 -0 90 arc0
0 0 0 setrgbcolor
74965 51876 1500 -90 -0 arc0
0 0 0 setrgbcolor
newpath
74965 50376 moveto
41965 50376 lineto
stroke
0 0 0 setrgbcolor
newpath
76465 63876 moveto
76465 51876 lineto
stroke
0 0 0 setrgbcolor
newpath
41965 65376 moveto
74965 65376 lineto
stroke
0 0 0 setrgbcolor
newpath
40465 51876 moveto
40465 63876 lineto
stroke
78.7394 setlinewidth
newpath
42874.4 53666.6 moveto
44055.6 52485.4 lineto
stroke
newpath
44055.6 53666.6 moveto
42874.4 52485.4 lineto
stroke
newpath
45874.4 53666.6 moveto
47055.6 52485.4 lineto
stroke
newpath
47055.6 53666.6 moveto
45874.4 52485.4 lineto
stroke
newpath
48874.4 53666.6 moveto
50055.6 52485.4 lineto
stroke
newpath
50055.6 53666.6 moveto
48874.4 52485.4 lineto
stroke
newpath
51874.4 53666.6 moveto
53055.6 52485.4 lineto
stroke
newpath
53055.6 53666.6 moveto
51874.4 52485.4 lineto
stroke
newpath
54874.4 53666.6 moveto
56055.6 52485.4 lineto
stroke
newpath
56055.6 53666.6 moveto
54874.4 52485.4 lineto
stroke
newpath
57874.4 53666.6 moveto
59055.6 52485.4 lineto
stroke
newpath
59055.6 53666.6 moveto
57874.4 52485.4 lineto
stroke
newpath
60874.4 53666.6 moveto
62055.6 52485.4 lineto
stroke
newpath
62055.6 53666.6 moveto
60874.4 52485.4 lineto
stroke
newpath
63874.4 53666.6 moveto
65055.6 52485.4 lineto
stroke
newpath
65055.6 53666.6 moveto
63874.4 52485.4 lineto
stroke
newpath
66874.4 53666.6 moveto
68055.6 52485.4 lineto
stroke
newpath
68055.6 53666.6 moveto
66874.4 52485.4 lineto
stroke
newpath
69874.4 53666.6 moveto
71055.6 52485.4 lineto
stroke
newpath
71055.6 53666.6 moveto
69874.4 52485.4 lineto
stroke
newpath
72874.4 53666.6 moveto
74055.6 52485.4 lineto
stroke
newpath
74055.6 53666.6 moveto
72874.4 52485.4 lineto
stroke
118.11 setlinewidth
0 0 0 setrgbcolor
0 0 0 setrgbcolor
newpath
41563.1 48513 moveto
41563.1 49694.1 lineto
41844.4 49694.1 lineto
42013.1 49637.8 lineto
42125.6 49525.3 lineto
42181.8 49412.8 lineto
42238.1 49187.9 lineto
42238.1 49019.1 lineto
42181.8 48794.2 lineto
42125.6 48681.7 lineto
42013.1 48569.2 lineto
41844.4 48513 lineto
41563.1 48513 lineto
stroke
newpath
42744.2 48513 moveto
42744.2 49300.4 lineto
stroke
newpath
42744.2 49075.4 moveto
42800.5 49187.9 lineto
42856.7 49244.1 lineto
42969.2 49300.4 lineto
43081.7 49300.4 lineto
stroke
newpath
43475.4 48513 moveto
43475.4 49300.4 lineto
stroke
newpath
43475.4 49694.1 moveto
43419.2 49637.8 lineto
43475.4 49581.6 lineto
43531.6 49637.8 lineto
43475.4 49694.1 lineto
43475.4 49581.6 lineto
stroke
newpath
44206.6 48513 moveto
44094.1 48569.2 lineto
44037.8 48681.7 lineto
44037.8 49694.1 lineto
stroke
newpath
44825.2 48513 moveto
44712.7 48569.2 lineto
44656.5 48681.7 lineto
44656.5 49694.1 lineto
stroke
newpath
46175.1 48513 moveto
46175.1 49694.1 lineto
46568.8 48850.4 lineto
46962.5 49694.1 lineto
46962.5 48513 lineto
stroke
newpath
48031.1 48513 moveto
48031.1 49131.6 lineto
47974.8 49244.1 lineto
47862.4 49300.4 lineto
47637.4 49300.4 lineto
47524.9 49244.1 lineto
stroke
newpath
48031.1 48569.2 moveto
47918.6 48513 lineto
47637.4 48513 lineto
47524.9 48569.2 lineto
47468.7 48681.7 lineto
47468.7 48794.2 lineto
47524.9 48906.7 lineto
47637.4 48962.9 lineto
47918.6 48962.9 lineto
48031.1 49019.1 lineto
stroke
newpath
48593.5 49300.4 moveto
48593.5 48119.2 lineto
stroke
newpath
48593.5 49244.1 moveto
48706 49300.4 lineto
48931 49300.4 lineto
49043.5 49244.1 lineto
49099.7 49187.9 lineto
49155.9 49075.4 lineto
49155.9 48737.9 lineto
49099.7 48625.4 lineto
49043.5 48569.2 lineto
48931 48513 lineto
48706 48513 lineto
48593.5 48569.2 lineto
stroke
newpath
49662.1 48625.4 moveto
49718.4 48569.2 lineto
49662.1 48513 lineto
49605.9 48569.2 lineto
49662.1 48625.4 lineto
49662.1 48513 lineto
stroke
newpath
49662.1 49244.1 moveto
49718.4 49187.9 lineto
49662.1 49131.6 lineto
49605.9 49187.9 lineto
49662.1 49244.1 lineto
49662.1 49131.6 lineto
stroke
newpath
39254.4 47157.5 moveto
40435.5 45976.4 lineto
stroke
newpath
40435.5 47157.5 moveto
39254.4 45976.4 lineto
stroke
0 0 0 setrgbcolor
0 0 0 setrgbcolor
newpath
42181.8 46032.6 moveto
41506.9 46032.6 lineto
stroke
newpath
41844.4 46032.6 moveto
41844.4 47213.7 lineto
41731.9 47045 lineto
41619.4 46932.5 lineto
41506.9 46876.3 lineto
stroke
newpath
42688 46145.1 moveto
42744.2 46088.9 lineto
42688 46032.6 lineto
42631.8 46088.9 lineto
42688 46145.1 lineto
42688 46032.6 lineto
stroke
newpath
43475.4 47213.7 moveto
43587.9 47213.7 lineto
43700.4 47157.5 lineto
43756.6 47101.3 lineto
43812.9 46988.8 lineto
43869.1 46763.8 lineto
43869.1 46482.6 lineto
43812.9 46257.6 lineto
43756.6 46145.1 lineto
43700.4 46088.9 lineto
43587.9 46032.6 lineto
43475.4 46032.6 lineto
43362.9 46088.9 lineto
43306.7 46145.1 lineto
43250.4 46257.6 lineto
43194.2 46482.6 lineto
43194.2 46763.8 lineto
43250.4 46988.8 lineto
43306.7 47101.3 lineto
43362.9 47157.5 lineto
43475.4 47213.7 lineto
stroke
newpath
44600.3 47213.7 moveto
44712.7 47213.7 lineto
44825.2 47157.5 lineto
44881.5 47101.3 lineto
44937.7 46988.8 lineto
44994 46763.8 lineto
44994 46482.6 lineto
44937.7 46257.6 lineto
44881.5 46145.1 lineto
44825.2 46088.9 lineto
44712.7 46032.6 lineto
44600.3 46032.6 lineto
44487.8 46088.9 lineto
44431.5 46145.1 lineto
44375.3 46257.6 lineto
44319 46482.6 lineto
44319 46763.8 lineto
44375.3 46988.8 lineto
44431.5 47101.3 lineto
44487.8 47157.5 lineto
44600.3 47213.7 lineto
stroke
newpath
45500.2 46032.6 moveto
45500.2 46820 lineto
stroke
newpath
45500.2 46707.6 moveto
45556.4 46763.8 lineto
45668.9 46820 lineto
45837.6 46820 lineto
45950.1 46763.8 lineto
46006.3 46651.3 lineto
46006.3 46032.6 lineto
stroke
newpath
46006.3 46651.3 moveto
46062.6 46763.8 lineto
46175.1 46820 lineto
46343.8 46820 lineto
46456.3 46763.8 lineto
46512.5 46651.3 lineto
46512.5 46032.6 lineto
stroke
newpath
47075 46032.6 moveto
47075 46820 lineto
stroke
newpath
47075 46707.6 moveto
47131.2 46763.8 lineto
47243.7 46820 lineto
47412.4 46820 lineto
47524.9 46763.8 lineto
47581.1 46651.3 lineto
47581.1 46032.6 lineto
stroke
newpath
47581.1 46651.3 moveto
47637.4 46763.8 lineto
47749.9 46820 lineto
47918.6 46820 lineto
48031.1 46763.8 lineto
48087.3 46651.3 lineto
48087.3 46032.6 lineto
stroke
newpath
50393.3 47270 moveto
49380.9 45751.4 lineto
stroke
newpath
51911.8 47213.7 moveto
52024.3 47213.7 lineto
52136.8 47157.5 lineto
52193.1 47101.3 lineto
52249.3 46988.8 lineto
52305.6 46763.8 lineto
52305.6 46482.6 lineto
52249.3 46257.6 lineto
52193.1 46145.1 lineto
52136.8 46088.9 lineto
52024.3 46032.6 lineto
51911.8 46032.6 lineto
51799.4 46088.9 lineto
51743.1 46145.1 lineto
51686.9 46257.6 lineto
51630.6 46482.6 lineto
51630.6 46763.8 lineto
51686.9 46988.8 lineto
51743.1 47101.3 lineto
51799.4 47157.5 lineto
51911.8 47213.7 lineto
stroke
newpath
52811.7 46145.1 moveto
52868 46088.9 lineto
52811.7 46032.6 lineto
52755.5 46088.9 lineto
52811.7 46145.1 lineto
52811.7 46032.6 lineto
stroke
newpath
53599.1 47213.7 moveto
53711.6 47213.7 lineto
53824.1 47157.5 lineto
53880.4 47101.3 lineto
53936.6 46988.8 lineto
53992.8 46763.8 lineto
53992.8 46482.6 lineto
53936.6 46257.6 lineto
53880.4 46145.1 lineto
53824.1 46088.9 lineto
53711.6 46032.6 lineto
53599.1 46032.6 lineto
53486.7 46088.9 lineto
53430.4 46145.1 lineto
53374.2 46257.6 lineto
53317.9 46482.6 lineto
53317.9 46763.8 lineto
53374.2 46988.8 lineto
53430.4 47101.3 lineto
53486.7 47157.5 lineto
53599.1 47213.7 lineto
stroke
newpath
54386.5 47213.7 moveto
55117.7 47213.7 lineto
54724 46763.8 lineto
54892.7 46763.8 lineto
55005.2 46707.6 lineto
55061.5 46651.3 lineto
55117.7 46538.8 lineto
55117.7 46257.6 lineto
55061.5 46145.1 lineto
55005.2 46088.9 lineto
54892.7 46032.6 lineto
54555.3 46032.6 lineto
54442.8 46088.9 lineto
54386.5 46145.1 lineto
stroke
newpath
55680.1 46032.6 moveto
55905.1 46032.6 lineto
56017.6 46088.9 lineto
56073.8 46145.1 lineto
56186.3 46313.9 lineto
56242.6 46538.8 lineto
56242.6 46988.8 lineto
56186.3 47101.3 lineto
56130.1 47157.5 lineto
56017.6 47213.7 lineto
55792.6 47213.7 lineto
55680.1 47157.5 lineto
55623.9 47101.3 lineto
55567.6 46988.8 lineto
55567.6 46707.6 lineto
55623.9 46595.1 lineto
55680.1 46538.8 lineto
55792.6 46482.6 lineto
56017.6 46482.6 lineto
56130.1 46538.8 lineto
56186.3 46595.1 lineto
56242.6 46707.6 lineto
stroke
newpath
56692.5 47213.7 moveto
56692.5 46988.8 lineto
stroke
newpath
57142.4 47213.7 moveto
57142.4 46988.8 lineto
stroke
newpath
58886 45582.7 moveto
58829.7 45638.9 lineto
58717.2 45807.7 lineto
58661 45920.1 lineto
58604.8 46088.9 lineto
58548.5 46370.1 lineto
58548.5 46595.1 lineto
58604.8 46876.3 lineto
58661 47045 lineto
58717.2 47157.5 lineto
58829.7 47326.2 lineto
58886 47382.5 lineto
stroke
newpath
59954.6 46032.6 moveto
59279.7 46032.6 lineto
stroke
newpath
59617.1 46032.6 moveto
59617.1 47213.7 lineto
59504.7 47045 lineto
59392.2 46932.5 lineto
59279.7 46876.3 lineto
stroke
newpath
61079.5 46032.6 moveto
60404.5 46032.6 lineto
stroke
newpath
60742 46032.6 moveto
60742 47213.7 lineto
60629.5 47045 lineto
60517 46932.5 lineto
60404.5 46876.3 lineto
stroke
newpath
62485.5 46032.6 moveto
62485.5 47213.7 lineto
stroke
newpath
62991.7 46032.6 moveto
62991.7 46651.3 lineto
62935.5 46763.8 lineto
62823 46820 lineto
62654.3 46820 lineto
62541.8 46763.8 lineto
62485.5 46707.6 lineto
stroke
newpath
63722.9 46032.6 moveto
63610.4 46088.9 lineto
63554.1 46145.1 lineto
63497.9 46257.6 lineto
63497.9 46595.1 lineto
63554.1 46707.6 lineto
63610.4 46763.8 lineto
63722.9 46820 lineto
63891.6 46820 lineto
64004.1 46763.8 lineto
64060.3 46707.6 lineto
64116.6 46595.1 lineto
64116.6 46257.6 lineto
64060.3 46145.1 lineto
64004.1 46088.9 lineto
63891.6 46032.6 lineto
63722.9 46032.6 lineto
stroke
newpath
64791.5 46032.6 moveto
64679 46088.9 lineto
64622.8 46201.4 lineto
64622.8 47213.7 lineto
stroke
newpath
65691.4 46088.9 moveto
65578.9 46032.6 lineto
65353.9 46032.6 lineto
65241.4 46088.9 lineto
65185.2 46201.4 lineto
65185.2 46651.3 lineto
65241.4 46763.8 lineto
65353.9 46820 lineto
65578.9 46820 lineto
65691.4 46763.8 lineto
65747.6 46651.3 lineto
65747.6 46538.8 lineto
65185.2 46426.3 lineto
stroke
newpath
66197.6 46088.9 moveto
66310.1 46032.6 lineto
66535 46032.6 lineto
66647.5 46088.9 lineto
66703.8 46201.4 lineto
66703.8 46257.6 lineto
66647.5 46370.1 lineto
66535 46426.3 lineto
66366.3 46426.3 lineto
66253.8 46482.6 lineto
66197.6 46595.1 lineto
66197.6 46651.3 lineto
66253.8 46763.8 lineto
66366.3 46820 lineto
66535 46820 lineto
66647.5 46763.8 lineto
stroke
newpath
67097.5 45582.7 moveto
67153.7 45638.9 lineto
67266.2 45807.7 lineto
67322.4 45920.1 lineto
67378.7 46088.9 lineto
67434.9 46370.1 lineto
67434.9 46595.1 lineto
67378.7 46876.3 lineto
67322.4 47045 lineto
67266.2 47157.5 lineto
67153.7 47326.2 lineto
67097.5 47382.5 lineto
stroke
showpage
grestore
%%EOF
