(footprint "1088AS" (version 20210228) (generator pcbnew) (layer "F.Cu")
  (tedit 6084747B)
  (fp_text reference "REF**" (at -14.5 0 90) (layer "F.SilkS")
    (effects (font (size 1 1) (thickness 0.15)))
    (tstamp 3c161175-dca4-49eb-8ae6-7e79c9bc9345)
  )
  (fp_text value "1088AS" (at 0 -10) (layer "F.Fab")
    (effects (font (size 1 1) (thickness 0.15)))
    (tstamp d088d868-affd-435b-a8a0-09e592a81763)
  )
  (fp_text user "1" (at -9 14 unlocked) (layer "F.SilkS")
    (effects (font (size 0.75 0.75) (thickness 0.15)))
    (tstamp 16fb49dd-2f38-4235-b106-c19851cbd666)
  )
  (fp_text user "9" (at 9 -14 unlocked) (layer "F.SilkS")
    (effects (font (size 0.75 0.75) (thickness 0.15)))
    (tstamp 404a7504-b448-4d46-8879-3c2fa9935f5c)
  )
  (fp_text user "16" (at -9 -14 unlocked) (layer "F.SilkS")
    (effects (font (size 0.75 0.75) (thickness 0.15)))
    (tstamp 67002808-6ecd-4683-97a0-8c0d196359c4)
  )
  (fp_text user "8" (at 9 14 unlocked) (layer "F.SilkS")
    (effects (font (size 0.75 0.75) (thickness 0.15)))
    (tstamp 6aa207bf-6ac0-4858-bd82-b2b594166370)
  )
  (fp_text user "1088AS" (at 0 14 unlocked) (layer "F.SilkS")
    (effects (font (size 0.75 0.75) (thickness 0.125)))
    (tstamp 97ebb293-7bb3-4370-a432-dbd6346d273d)
  )
  (fp_line (start 0 15) (end -1 16) (layer "F.SilkS") (width 0.12) (tstamp 34d4d3ac-ad5a-45da-a222-94cd2355a424))
  (fp_line (start 14 -16) (end 16 -14) (layer "F.SilkS") (width 0.12) (tstamp 3f94afde-eef4-4bf9-86db-73c3cd0640a6))
  (fp_line (start -16 -4.5) (end -16 -16) (layer "F.SilkS") (width 0.12) (tstamp 64895078-8d10-4cb5-ae0a-dd4e8b296005))
  (fp_line (start -15.5 4.5) (end -15.5 -4.5) (layer "F.SilkS") (width 0.12) (tstamp 64fb00fb-65ce-42b9-a94c-ce05d43644d0))
  (fp_line (start -16 -14) (end -14 -16) (layer "F.SilkS") (width 0.12) (tstamp 89c7d51d-811b-4196-9f10-6e429d897582))
  (fp_line (start -14 16) (end -16 14) (layer "F.SilkS") (width 0.12) (tstamp 9289bcf1-2bc0-4eac-998a-44667fd5c81e))
  (fp_line (start -16 4.5) (end -15.5 4.5) (layer "F.SilkS") (width 0.12) (tstamp 9b1003ab-76ff-4174-b0b4-bb7355781b2e))
  (fp_line (start 16 16) (end 16 -16) (layer "F.SilkS") (width 0.12) (tstamp a2be15f2-fa51-42a0-b8b9-96c552485843))
  (fp_line (start -16 4.5) (end -16 16) (layer "F.SilkS") (width 0.12) (tstamp a5ae5a9b-0caa-4318-bf3a-5132bb053827))
  (fp_line (start 1 16) (end 0 15) (layer "F.SilkS") (width 0.12) (tstamp af7feee1-c99d-4279-8ee1-69f5f50502e3))
  (fp_line (start 14 16) (end 16 14) (layer "F.SilkS") (width 0.12) (tstamp c0975989-82e2-4a98-a7f9-c043e7dca67a))
  (fp_line (start -16 16) (end 16 16) (layer "F.SilkS") (width 0.12) (tstamp d724b3f6-30f2-4483-8111-9e850bff678b))
  (fp_line (start -15.5 -4.5) (end -16 -4.5) (layer "F.SilkS") (width 0.12) (tstamp ef428493-46c5-4ec7-9afe-d87109dd36b1))
  (fp_line (start 16 -16) (end -16 -16) (layer "F.SilkS") (width 0.12) (tstamp fad3a839-6cf4-40ac-90b0-7ba79be1cbda))
  (fp_circle (center -8.9 12) (end -7.65 12) (layer "F.SilkS") (width 0.12) (fill none) (tstamp f2c9de60-f6e9-4f93-ab90-ad7b471ecb9d))
  (fp_line (start 16 -16) (end -16 -16) (layer "F.CrtYd") (width 0.12) (tstamp 3449a33c-32db-4dd4-9bdc-0e8cccbdeb33))
  (fp_line (start -16 16) (end 16 16) (layer "F.CrtYd") (width 0.12) (tstamp 6c07849d-2efb-4baa-a04f-c976b1e88765))
  (fp_line (start 16 16) (end 16 -16) (layer "F.CrtYd") (width 0.12) (tstamp ca9a9141-c878-40a2-b6cc-4bf93aa7812e))
  (fp_line (start -16 -16) (end -16 16) (layer "F.CrtYd") (width 0.12) (tstamp dbad968f-9dca-4367-bec2-564677cc5c50))
  (pad "1" thru_hole circle (at -8.89 12) (size 1.5 1.5) (drill 0.65) (layers *.Cu *.Mask) (tstamp 3e65769e-f5c1-4cf8-ae56-c496f3726741))
  (pad "2" thru_hole circle (at -6.35 12) (size 1.5 1.5) (drill 0.65) (layers *.Cu *.Mask) (tstamp 3e65769e-f5c1-4cf8-ae56-c496f3726741))
  (pad "3" thru_hole circle (at -3.81 12) (size 1.5 1.5) (drill 0.65) (layers *.Cu *.Mask) (tstamp 3e65769e-f5c1-4cf8-ae56-c496f3726741))
  (pad "4" thru_hole circle (at -1.27 12) (size 1.5 1.5) (drill 0.65) (layers *.Cu *.Mask) (tstamp 3e65769e-f5c1-4cf8-ae56-c496f3726741))
  (pad "5" thru_hole circle (at 1.27 12) (size 1.5 1.5) (drill 0.65) (layers *.Cu *.Mask) (tstamp 3e65769e-f5c1-4cf8-ae56-c496f3726741))
  (pad "6" thru_hole circle (at 3.81 12) (size 1.5 1.5) (drill 0.65) (layers *.Cu *.Mask) (tstamp 3e65769e-f5c1-4cf8-ae56-c496f3726741))
  (pad "7" thru_hole circle (at 6.35 12) (size 1.5 1.5) (drill 0.65) (layers *.Cu *.Mask) (tstamp 3e65769e-f5c1-4cf8-ae56-c496f3726741))
  (pad "8" thru_hole circle (at 8.89 12) (size 1.5 1.5) (drill 0.65) (layers *.Cu *.Mask) (tstamp 3e65769e-f5c1-4cf8-ae56-c496f3726741))
  (pad "9" thru_hole circle (at 8.89 -12) (size 1.5 1.5) (drill 0.65) (layers *.Cu *.Mask) (tstamp 3e65769e-f5c1-4cf8-ae56-c496f3726741))
  (pad "10" thru_hole circle (at 6.35 -12) (size 1.5 1.5) (drill 0.65) (layers *.Cu *.Mask) (tstamp 3e65769e-f5c1-4cf8-ae56-c496f3726741))
  (pad "11" thru_hole circle (at 3.81 -12) (size 1.5 1.5) (drill 0.65) (layers *.Cu *.Mask) (tstamp 3e65769e-f5c1-4cf8-ae56-c496f3726741))
  (pad "12" thru_hole circle (at 1.27 -12) (size 1.5 1.5) (drill 0.65) (layers *.Cu *.Mask) (tstamp 3e65769e-f5c1-4cf8-ae56-c496f3726741))
  (pad "13" thru_hole circle (at -1.27 -12) (size 1.5 1.5) (drill 0.65) (layers *.Cu *.Mask) (tstamp 3e65769e-f5c1-4cf8-ae56-c496f3726741))
  (pad "14" thru_hole circle (at -3.81 -12) (size 1.5 1.5) (drill 0.65) (layers *.Cu *.Mask) (tstamp 3e65769e-f5c1-4cf8-ae56-c496f3726741))
  (pad "15" thru_hole circle (at -6.35 -12) (size 1.5 1.5) (drill 0.65) (layers *.Cu *.Mask) (tstamp 3e65769e-f5c1-4cf8-ae56-c496f3726741))
  (pad "16" thru_hole circle (at -8.89 -12) (size 1.5 1.5) (drill 0.65) (layers *.Cu *.Mask) (tstamp 3e65769e-f5c1-4cf8-ae56-c496f3726741))
)
