(kicad_sch (version 20211123) (generator eeschema)

  (uuid 69f0e639-850f-44bc-bd06-c0ec3c206488)

  (paper "A4")

  (title_block
    (title "Quadrature encoder")
    (date "2021-07-15")
    (rev "1.1")
    (company "@hasecilu")
    (comment 1 "The outputs are conditioned using a Schmitt-Trigger Buffer")
    (comment 2 "Small PCB, art included")
    (comment 3 "10kohm NTC thermystor supported")
    (comment 4 "Connectors for the motor power supply")
  )

  (lib_symbols
    (symbol "2021-04-25_18-55-55:EE-SX1105" (pin_names (offset 0) hide) (in_bom yes) (on_board yes)
      (property "Reference" "Q" (id 0) (at 22.86 15.24 0)
        (effects (font (size 1.524 1.524)))
      )
      (property "Value" "EE-SX1105" (id 1) (at 22.86 10.16 0)
        (effects (font (size 1.524 1.524)))
      )
      (property "Footprint" "EE-SX1105_OMR" (id 2) (at 22.86 8.636 0)
        (effects (font (size 1.524 1.524)) hide)
      )
      (property "Datasheet" "" (id 3) (at 0 0 0)
        (effects (font (size 1.524 1.524)))
      )
      (property "ki_locked" "" (id 4) (at 0 0 0)
        (effects (font (size 1.27 1.27)))
      )
      (property "ki_fp_filters" "EE-SX1105_OMR" (id 5) (at 0 0 0)
        (effects (font (size 1.27 1.27)) hide)
      )
      (symbol "EE-SX1105_1_1"
        (polyline
          (pts
            (xy 7.62 -20.32)
            (xy 35.56 -20.32)
          )
          (stroke (width 0.127) (type default) (color 0 0 0 0))
          (fill (type none))
        )
        (polyline
          (pts
            (xy 7.62 -15.24)
            (xy 12.7 -15.24)
          )
          (stroke (width 0.127) (type default) (color 0 0 0 0))
          (fill (type none))
        )
        (polyline
          (pts
            (xy 7.62 5.08)
            (xy 7.62 -20.32)
          )
          (stroke (width 0.127) (type default) (color 0 0 0 0))
          (fill (type none))
        )
        (polyline
          (pts
            (xy 12.7 -12.7)
            (xy 12.7 -15.24)
          )
          (stroke (width 0.127) (type default) (color 0 0 0 0))
          (fill (type none))
        )
        (polyline
          (pts
            (xy 12.7 -2.54)
            (xy 12.7 0)
          )
          (stroke (width 0.127) (type default) (color 0 0 0 0))
          (fill (type none))
        )
        (polyline
          (pts
            (xy 12.7 -2.54)
            (xy 15.24 -5.08)
          )
          (stroke (width 0.127) (type default) (color 0 0 0 0))
          (fill (type none))
        )
        (polyline
          (pts
            (xy 12.7 0)
            (xy 7.62 0)
          )
          (stroke (width 0.127) (type default) (color 0 0 0 0))
          (fill (type none))
        )
        (polyline
          (pts
            (xy 15.24 -12.7)
            (xy 15.24 -2.54)
          )
          (stroke (width 0.127) (type default) (color 0 0 0 0))
          (fill (type none))
        )
        (polyline
          (pts
            (xy 15.24 -10.16)
            (xy 12.7 -12.7)
          )
          (stroke (width 0.127) (type default) (color 0 0 0 0))
          (fill (type none))
        )
        (polyline
          (pts
            (xy 25.4 -7.62)
            (xy 20.32 -7.62)
          )
          (stroke (width 0.127) (type default) (color 0 0 0 0))
          (fill (type none))
        )
        (polyline
          (pts
            (xy 25.4 -5.08)
            (xy 20.32 -5.08)
          )
          (stroke (width 0.127) (type default) (color 0 0 0 0))
          (fill (type none))
        )
        (polyline
          (pts
            (xy 30.48 -10.16)
            (xy 35.56 -10.16)
          )
          (stroke (width 0.127) (type default) (color 0 0 0 0))
          (fill (type none))
        )
        (polyline
          (pts
            (xy 30.48 -2.54)
            (xy 30.48 -10.16)
          )
          (stroke (width 0.127) (type default) (color 0 0 0 0))
          (fill (type none))
        )
        (polyline
          (pts
            (xy 30.48 -2.54)
            (xy 35.56 -2.54)
          )
          (stroke (width 0.127) (type default) (color 0 0 0 0))
          (fill (type none))
        )
        (polyline
          (pts
            (xy 32.385 -6.985)
            (xy 28.575 -6.985)
          )
          (stroke (width 0.127) (type default) (color 0 0 0 0))
          (fill (type none))
        )
        (polyline
          (pts
            (xy 35.56 -20.32)
            (xy 35.56 5.08)
          )
          (stroke (width 0.127) (type default) (color 0 0 0 0))
          (fill (type none))
        )
        (polyline
          (pts
            (xy 35.56 5.08)
            (xy 7.62 5.08)
          )
          (stroke (width 0.127) (type default) (color 0 0 0 0))
          (fill (type none))
        )
        (polyline
          (pts
            (xy 19.0246 -5.0292)
            (xy 20.2946 -5.6642)
            (xy 20.2946 -4.3942)
            (xy 19.0246 -5.0292)
          )
          (stroke (width 0) (type default) (color 0 0 0 0))
          (fill (type outline))
        )
        (polyline
          (pts
            (xy 19.0754 -7.62)
            (xy 20.3454 -8.255)
            (xy 20.3454 -6.985)
            (xy 19.0754 -7.62)
          )
          (stroke (width 0) (type default) (color 0 0 0 0))
          (fill (type outline))
        )
        (polyline
          (pts
            (xy 12.7508 -12.7)
            (xy 13.6144 -12.4206)
            (xy 12.954 -11.811)
            (xy 12.6492 -12.7)
            (xy 12.7508 -12.7)
          )
          (stroke (width 0) (type default) (color 0 0 0 0))
          (fill (type outline))
        )
        (polyline
          (pts
            (xy 28.575 -5.08)
            (xy 32.385 -5.08)
            (xy 30.48 -6.985)
            (xy 28.575 -5.08)
            (xy 28.575 -5.08)
          )
          (stroke (width 0) (type default) (color 0 0 0 0))
          (fill (type outline))
        )
        (pin unspecified line (at 0 0 0) (length 7.62)
          (name "1" (effects (font (size 1.4986 1.4986))))
          (number "1" (effects (font (size 1.4986 1.4986))))
        )
        (pin unspecified line (at 0 -15.24 0) (length 7.62)
          (name "2" (effects (font (size 1.4986 1.4986))))
          (number "2" (effects (font (size 1.4986 1.4986))))
        )
        (pin unspecified line (at 43.18 -10.16 180) (length 7.62)
          (name "3" (effects (font (size 1.4986 1.4986))))
          (number "3" (effects (font (size 1.4986 1.4986))))
        )
        (pin unspecified line (at 43.18 -2.54 180) (length 7.62)
          (name "4" (effects (font (size 1.4986 1.4986))))
          (number "4" (effects (font (size 1.4986 1.4986))))
        )
      )
    )
    (symbol "Connector_Generic:Conn_01x02" (pin_names (offset 1.016) hide) (in_bom yes) (on_board yes)
      (property "Reference" "J" (id 0) (at 0 2.54 0)
        (effects (font (size 1.27 1.27)))
      )
      (property "Value" "Conn_01x02" (id 1) (at 0 -5.08 0)
        (effects (font (size 1.27 1.27)))
      )
      (property "Footprint" "" (id 2) (at 0 0 0)
        (effects (font (size 1.27 1.27)) hide)
      )
      (property "Datasheet" "~" (id 3) (at 0 0 0)
        (effects (font (size 1.27 1.27)) hide)
      )
      (property "ki_keywords" "connector" (id 4) (at 0 0 0)
        (effects (font (size 1.27 1.27)) hide)
      )
      (property "ki_description" "Generic connector, single row, 01x02, script generated (kicad-library-utils/schlib/autogen/connector/)" (id 5) (at 0 0 0)
        (effects (font (size 1.27 1.27)) hide)
      )
      (property "ki_fp_filters" "Connector*:*_1x??_*" (id 6) (at 0 0 0)
        (effects (font (size 1.27 1.27)) hide)
      )
      (symbol "Conn_01x02_1_1"
        (rectangle (start -1.27 -2.413) (end 0 -2.667)
          (stroke (width 0.1524) (type default) (color 0 0 0 0))
          (fill (type none))
        )
        (rectangle (start -1.27 0.127) (end 0 -0.127)
          (stroke (width 0.1524) (type default) (color 0 0 0 0))
          (fill (type none))
        )
        (rectangle (start -1.27 1.27) (end 1.27 -3.81)
          (stroke (width 0.254) (type default) (color 0 0 0 0))
          (fill (type background))
        )
        (pin passive line (at -5.08 0 0) (length 3.81)
          (name "Pin_1" (effects (font (size 1.27 1.27))))
          (number "1" (effects (font (size 1.27 1.27))))
        )
        (pin passive line (at -5.08 -2.54 0) (length 3.81)
          (name "Pin_2" (effects (font (size 1.27 1.27))))
          (number "2" (effects (font (size 1.27 1.27))))
        )
      )
    )
    (symbol "Connector_Generic:Conn_02x03_Odd_Even" (pin_names (offset 1.016) hide) (in_bom yes) (on_board yes)
      (property "Reference" "J" (id 0) (at 1.27 5.08 0)
        (effects (font (size 1.27 1.27)))
      )
      (property "Value" "Conn_02x03_Odd_Even" (id 1) (at 1.27 -5.08 0)
        (effects (font (size 1.27 1.27)))
      )
      (property "Footprint" "" (id 2) (at 0 0 0)
        (effects (font (size 1.27 1.27)) hide)
      )
      (property "Datasheet" "~" (id 3) (at 0 0 0)
        (effects (font (size 1.27 1.27)) hide)
      )
      (property "ki_keywords" "connector" (id 4) (at 0 0 0)
        (effects (font (size 1.27 1.27)) hide)
      )
      (property "ki_description" "Generic connector, double row, 02x03, odd/even pin numbering scheme (row 1 odd numbers, row 2 even numbers), script generated (kicad-library-utils/schlib/autogen/connector/)" (id 5) (at 0 0 0)
        (effects (font (size 1.27 1.27)) hide)
      )
      (property "ki_fp_filters" "Connector*:*_2x??_*" (id 6) (at 0 0 0)
        (effects (font (size 1.27 1.27)) hide)
      )
      (symbol "Conn_02x03_Odd_Even_1_1"
        (rectangle (start -1.27 -2.413) (end 0 -2.667)
          (stroke (width 0.1524) (type default) (color 0 0 0 0))
          (fill (type none))
        )
        (rectangle (start -1.27 0.127) (end 0 -0.127)
          (stroke (width 0.1524) (type default) (color 0 0 0 0))
          (fill (type none))
        )
        (rectangle (start -1.27 2.667) (end 0 2.413)
          (stroke (width 0.1524) (type default) (color 0 0 0 0))
          (fill (type none))
        )
        (rectangle (start -1.27 3.81) (end 3.81 -3.81)
          (stroke (width 0.254) (type default) (color 0 0 0 0))
          (fill (type background))
        )
        (rectangle (start 3.81 -2.413) (end 2.54 -2.667)
          (stroke (width 0.1524) (type default) (color 0 0 0 0))
          (fill (type none))
        )
        (rectangle (start 3.81 0.127) (end 2.54 -0.127)
          (stroke (width 0.1524) (type default) (color 0 0 0 0))
          (fill (type none))
        )
        (rectangle (start 3.81 2.667) (end 2.54 2.413)
          (stroke (width 0.1524) (type default) (color 0 0 0 0))
          (fill (type none))
        )
        (pin passive line (at -5.08 2.54 0) (length 3.81)
          (name "Pin_1" (effects (font (size 1.27 1.27))))
          (number "1" (effects (font (size 1.27 1.27))))
        )
        (pin passive line (at 7.62 2.54 180) (length 3.81)
          (name "Pin_2" (effects (font (size 1.27 1.27))))
          (number "2" (effects (font (size 1.27 1.27))))
        )
        (pin passive line (at -5.08 0 0) (length 3.81)
          (name "Pin_3" (effects (font (size 1.27 1.27))))
          (number "3" (effects (font (size 1.27 1.27))))
        )
        (pin passive line (at 7.62 0 180) (length 3.81)
          (name "Pin_4" (effects (font (size 1.27 1.27))))
          (number "4" (effects (font (size 1.27 1.27))))
        )
        (pin passive line (at -5.08 -2.54 0) (length 3.81)
          (name "Pin_5" (effects (font (size 1.27 1.27))))
          (number "5" (effects (font (size 1.27 1.27))))
        )
        (pin passive line (at 7.62 -2.54 180) (length 3.81)
          (name "Pin_6" (effects (font (size 1.27 1.27))))
          (number "6" (effects (font (size 1.27 1.27))))
        )
      )
    )
    (symbol "Device:R" (pin_numbers hide) (pin_names (offset 0)) (in_bom yes) (on_board yes)
      (property "Reference" "R" (id 0) (at 2.032 0 90)
        (effects (font (size 1.27 1.27)))
      )
      (property "Value" "R" (id 1) (at 0 0 90)
        (effects (font (size 1.27 1.27)))
      )
      (property "Footprint" "" (id 2) (at -1.778 0 90)
        (effects (font (size 1.27 1.27)) hide)
      )
      (property "Datasheet" "~" (id 3) (at 0 0 0)
        (effects (font (size 1.27 1.27)) hide)
      )
      (property "ki_keywords" "R res resistor" (id 4) (at 0 0 0)
        (effects (font (size 1.27 1.27)) hide)
      )
      (property "ki_description" "Resistor" (id 5) (at 0 0 0)
        (effects (font (size 1.27 1.27)) hide)
      )
      (property "ki_fp_filters" "R_*" (id 6) (at 0 0 0)
        (effects (font (size 1.27 1.27)) hide)
      )
      (symbol "R_0_1"
        (rectangle (start -1.016 -2.54) (end 1.016 2.54)
          (stroke (width 0.254) (type default) (color 0 0 0 0))
          (fill (type none))
        )
      )
      (symbol "R_1_1"
        (pin passive line (at 0 3.81 270) (length 1.27)
          (name "~" (effects (font (size 1.27 1.27))))
          (number "1" (effects (font (size 1.27 1.27))))
        )
        (pin passive line (at 0 -3.81 90) (length 1.27)
          (name "~" (effects (font (size 1.27 1.27))))
          (number "2" (effects (font (size 1.27 1.27))))
        )
      )
    )
    (symbol "Device:Thermistor_NTC" (pin_numbers hide) (pin_names (offset 0)) (in_bom yes) (on_board yes)
      (property "Reference" "TH" (id 0) (at -4.445 0 90)
        (effects (font (size 1.27 1.27)))
      )
      (property "Value" "Thermistor_NTC" (id 1) (at 3.175 0 90)
        (effects (font (size 1.27 1.27)))
      )
      (property "Footprint" "" (id 2) (at 0 1.27 0)
        (effects (font (size 1.27 1.27)) hide)
      )
      (property "Datasheet" "~" (id 3) (at 0 1.27 0)
        (effects (font (size 1.27 1.27)) hide)
      )
      (property "ki_keywords" "thermistor NTC resistor sensor RTD" (id 4) (at 0 0 0)
        (effects (font (size 1.27 1.27)) hide)
      )
      (property "ki_description" "Temperature dependent resistor, negative temperature coefficient" (id 5) (at 0 0 0)
        (effects (font (size 1.27 1.27)) hide)
      )
      (property "ki_fp_filters" "*NTC* *Thermistor* PIN?ARRAY* bornier* *Terminal?Block* R_*" (id 6) (at 0 0 0)
        (effects (font (size 1.27 1.27)) hide)
      )
      (symbol "Thermistor_NTC_0_1"
        (arc (start -3.048 2.159) (mid -3.0505 2.3165) (end -3.175 2.413)
          (stroke (width 0) (type default) (color 0 0 0 0))
          (fill (type none))
        )
        (arc (start -3.048 2.159) (mid -2.9736 1.9794) (end -2.794 1.905)
          (stroke (width 0) (type default) (color 0 0 0 0))
          (fill (type none))
        )
        (arc (start -3.048 2.794) (mid -2.9736 2.6144) (end -2.794 2.54)
          (stroke (width 0) (type default) (color 0 0 0 0))
          (fill (type none))
        )
        (arc (start -2.794 1.905) (mid -2.6144 1.9794) (end -2.54 2.159)
          (stroke (width 0) (type default) (color 0 0 0 0))
          (fill (type none))
        )
        (arc (start -2.794 2.54) (mid -2.434 2.5608) (end -2.159 2.794)
          (stroke (width 0) (type default) (color 0 0 0 0))
          (fill (type none))
        )
        (arc (start -2.794 3.048) (mid -2.9736 2.9736) (end -3.048 2.794)
          (stroke (width 0) (type default) (color 0 0 0 0))
          (fill (type none))
        )
        (arc (start -2.54 2.794) (mid -2.6144 2.9736) (end -2.794 3.048)
          (stroke (width 0) (type default) (color 0 0 0 0))
          (fill (type none))
        )
        (rectangle (start -1.016 2.54) (end 1.016 -2.54)
          (stroke (width 0.254) (type default) (color 0 0 0 0))
          (fill (type none))
        )
        (polyline
          (pts
            (xy -2.54 2.159)
            (xy -2.54 2.794)
          )
          (stroke (width 0) (type default) (color 0 0 0 0))
          (fill (type none))
        )
        (polyline
          (pts
            (xy -1.778 2.54)
            (xy -1.778 1.524)
            (xy 1.778 -1.524)
            (xy 1.778 -2.54)
          )
          (stroke (width 0) (type default) (color 0 0 0 0))
          (fill (type none))
        )
        (polyline
          (pts
            (xy -2.54 -3.683)
            (xy -2.54 -1.397)
            (xy -2.794 -2.159)
            (xy -2.286 -2.159)
            (xy -2.54 -1.397)
            (xy -2.54 -1.651)
          )
          (stroke (width 0) (type default) (color 0 0 0 0))
          (fill (type outline))
        )
        (polyline
          (pts
            (xy -1.778 -1.397)
            (xy -1.778 -3.683)
            (xy -2.032 -2.921)
            (xy -1.524 -2.921)
            (xy -1.778 -3.683)
            (xy -1.778 -3.429)
          )
          (stroke (width 0) (type default) (color 0 0 0 0))
          (fill (type outline))
        )
      )
      (symbol "Thermistor_NTC_1_1"
        (pin passive line (at 0 3.81 270) (length 1.27)
          (name "~" (effects (font (size 1.27 1.27))))
          (number "1" (effects (font (size 1.27 1.27))))
        )
        (pin passive line (at 0 -3.81 90) (length 1.27)
          (name "~" (effects (font (size 1.27 1.27))))
          (number "2" (effects (font (size 1.27 1.27))))
        )
      )
    )
    (symbol "Mechanical:MountingHole" (pin_names (offset 1.016)) (in_bom yes) (on_board yes)
      (property "Reference" "H" (id 0) (at 0 5.08 0)
        (effects (font (size 1.27 1.27)))
      )
      (property "Value" "MountingHole" (id 1) (at 0 3.175 0)
        (effects (font (size 1.27 1.27)))
      )
      (property "Footprint" "" (id 2) (at 0 0 0)
        (effects (font (size 1.27 1.27)) hide)
      )
      (property "Datasheet" "~" (id 3) (at 0 0 0)
        (effects (font (size 1.27 1.27)) hide)
      )
      (property "ki_keywords" "mounting hole" (id 4) (at 0 0 0)
        (effects (font (size 1.27 1.27)) hide)
      )
      (property "ki_description" "Mounting Hole without connection" (id 5) (at 0 0 0)
        (effects (font (size 1.27 1.27)) hide)
      )
      (property "ki_fp_filters" "MountingHole*" (id 6) (at 0 0 0)
        (effects (font (size 1.27 1.27)) hide)
      )
      (symbol "MountingHole_0_1"
        (circle (center 0 0) (radius 1.27)
          (stroke (width 1.27) (type default) (color 0 0 0 0))
          (fill (type none))
        )
      )
    )
    (symbol "SN74LVC2G17DCKT:SN74LVC2G17DCKT" (pin_names (offset 1.016)) (in_bom yes) (on_board yes)
      (property "Reference" "U" (id 0) (at -12.7 11.1506 0)
        (effects (font (size 1.27 1.27)) (justify left bottom))
      )
      (property "Value" "SN74LVC2G17DCKT" (id 1) (at -12.7 -14.1478 0)
        (effects (font (size 1.27 1.27)) (justify left bottom))
      )
      (property "Footprint" "SOT65P210X110-6N" (id 2) (at 0 0 0)
        (effects (font (size 1.27 1.27)) (justify left bottom) hide)
      )
      (property "Datasheet" "" (id 3) (at 0 0 0)
        (effects (font (size 1.27 1.27)) (justify left bottom) hide)
      )
      (property "ki_locked" "" (id 4) (at 0 0 0)
        (effects (font (size 1.27 1.27)))
      )
      (symbol "SN74LVC2G17DCKT_0_0"
        (rectangle (start -12.7 -10.16) (end 12.7 10.16)
          (stroke (width 0.4064) (type default) (color 0 0 0 0))
          (fill (type background))
        )
        (pin input line (at -17.78 2.54 0) (length 5.08)
          (name "1A" (effects (font (size 1.016 1.016))))
          (number "1" (effects (font (size 1.016 1.016))))
        )
        (pin power_in line (at 17.78 -5.08 180) (length 5.08)
          (name "GND" (effects (font (size 1.016 1.016))))
          (number "2" (effects (font (size 1.016 1.016))))
        )
        (pin input line (at -17.78 0 0) (length 5.08)
          (name "2A" (effects (font (size 1.016 1.016))))
          (number "3" (effects (font (size 1.016 1.016))))
        )
        (pin output line (at 17.78 0 180) (length 5.08)
          (name "2Y" (effects (font (size 1.016 1.016))))
          (number "4" (effects (font (size 1.016 1.016))))
        )
        (pin power_in line (at 17.78 7.62 180) (length 5.08)
          (name "VCC" (effects (font (size 1.016 1.016))))
          (number "5" (effects (font (size 1.016 1.016))))
        )
        (pin output line (at 17.78 2.54 180) (length 5.08)
          (name "1Y" (effects (font (size 1.016 1.016))))
          (number "6" (effects (font (size 1.016 1.016))))
        )
      )
    )
    (symbol "power:+12V" (power) (pin_names (offset 0)) (in_bom yes) (on_board yes)
      (property "Reference" "#PWR" (id 0) (at 0 -3.81 0)
        (effects (font (size 1.27 1.27)) hide)
      )
      (property "Value" "+12V" (id 1) (at 0 3.556 0)
        (effects (font (size 1.27 1.27)))
      )
      (property "Footprint" "" (id 2) (at 0 0 0)
        (effects (font (size 1.27 1.27)) hide)
      )
      (property "Datasheet" "" (id 3) (at 0 0 0)
        (effects (font (size 1.27 1.27)) hide)
      )
      (property "ki_keywords" "power-flag" (id 4) (at 0 0 0)
        (effects (font (size 1.27 1.27)) hide)
      )
      (property "ki_description" "Power symbol creates a global label with name \"+12V\"" (id 5) (at 0 0 0)
        (effects (font (size 1.27 1.27)) hide)
      )
      (symbol "+12V_0_1"
        (polyline
          (pts
            (xy -0.762 1.27)
            (xy 0 2.54)
          )
          (stroke (width 0) (type default) (color 0 0 0 0))
          (fill (type none))
        )
        (polyline
          (pts
            (xy 0 0)
            (xy 0 2.54)
          )
          (stroke (width 0) (type default) (color 0 0 0 0))
          (fill (type none))
        )
        (polyline
          (pts
            (xy 0 2.54)
            (xy 0.762 1.27)
          )
          (stroke (width 0) (type default) (color 0 0 0 0))
          (fill (type none))
        )
      )
      (symbol "+12V_1_1"
        (pin power_in line (at 0 0 90) (length 0) hide
          (name "+12V" (effects (font (size 1.27 1.27))))
          (number "1" (effects (font (size 1.27 1.27))))
        )
      )
    )
    (symbol "power:+5V" (power) (pin_names (offset 0)) (in_bom yes) (on_board yes)
      (property "Reference" "#PWR" (id 0) (at 0 -3.81 0)
        (effects (font (size 1.27 1.27)) hide)
      )
      (property "Value" "+5V" (id 1) (at 0 3.556 0)
        (effects (font (size 1.27 1.27)))
      )
      (property "Footprint" "" (id 2) (at 0 0 0)
        (effects (font (size 1.27 1.27)) hide)
      )
      (property "Datasheet" "" (id 3) (at 0 0 0)
        (effects (font (size 1.27 1.27)) hide)
      )
      (property "ki_keywords" "power-flag" (id 4) (at 0 0 0)
        (effects (font (size 1.27 1.27)) hide)
      )
      (property "ki_description" "Power symbol creates a global label with name \"+5V\"" (id 5) (at 0 0 0)
        (effects (font (size 1.27 1.27)) hide)
      )
      (symbol "+5V_0_1"
        (polyline
          (pts
            (xy -0.762 1.27)
            (xy 0 2.54)
          )
          (stroke (width 0) (type default) (color 0 0 0 0))
          (fill (type none))
        )
        (polyline
          (pts
            (xy 0 0)
            (xy 0 2.54)
          )
          (stroke (width 0) (type default) (color 0 0 0 0))
          (fill (type none))
        )
        (polyline
          (pts
            (xy 0 2.54)
            (xy 0.762 1.27)
          )
          (stroke (width 0) (type default) (color 0 0 0 0))
          (fill (type none))
        )
      )
      (symbol "+5V_1_1"
        (pin power_in line (at 0 0 90) (length 0) hide
          (name "+5V" (effects (font (size 1.27 1.27))))
          (number "1" (effects (font (size 1.27 1.27))))
        )
      )
    )
    (symbol "power:GND" (power) (pin_names (offset 0)) (in_bom yes) (on_board yes)
      (property "Reference" "#PWR" (id 0) (at 0 -6.35 0)
        (effects (font (size 1.27 1.27)) hide)
      )
      (property "Value" "GND" (id 1) (at 0 -3.81 0)
        (effects (font (size 1.27 1.27)))
      )
      (property "Footprint" "" (id 2) (at 0 0 0)
        (effects (font (size 1.27 1.27)) hide)
      )
      (property "Datasheet" "" (id 3) (at 0 0 0)
        (effects (font (size 1.27 1.27)) hide)
      )
      (property "ki_keywords" "power-flag" (id 4) (at 0 0 0)
        (effects (font (size 1.27 1.27)) hide)
      )
      (property "ki_description" "Power symbol creates a global label with name \"GND\" , ground" (id 5) (at 0 0 0)
        (effects (font (size 1.27 1.27)) hide)
      )
      (symbol "GND_0_1"
        (polyline
          (pts
            (xy 0 0)
            (xy 0 -1.27)
            (xy 1.27 -1.27)
            (xy 0 -2.54)
            (xy -1.27 -1.27)
            (xy 0 -1.27)
          )
          (stroke (width 0) (type default) (color 0 0 0 0))
          (fill (type none))
        )
      )
      (symbol "GND_1_1"
        (pin power_in line (at 0 0 270) (length 0) hide
          (name "GND" (effects (font (size 1.27 1.27))))
          (number "1" (effects (font (size 1.27 1.27))))
        )
      )
    )
    (symbol "power:GNDA" (power) (pin_names (offset 0)) (in_bom yes) (on_board yes)
      (property "Reference" "#PWR" (id 0) (at 0 -6.35 0)
        (effects (font (size 1.27 1.27)) hide)
      )
      (property "Value" "GNDA" (id 1) (at 0 -3.81 0)
        (effects (font (size 1.27 1.27)))
      )
      (property "Footprint" "" (id 2) (at 0 0 0)
        (effects (font (size 1.27 1.27)) hide)
      )
      (property "Datasheet" "" (id 3) (at 0 0 0)
        (effects (font (size 1.27 1.27)) hide)
      )
      (property "ki_keywords" "power-flag" (id 4) (at 0 0 0)
        (effects (font (size 1.27 1.27)) hide)
      )
      (property "ki_description" "Power symbol creates a global label with name \"GNDA\" , analog ground" (id 5) (at 0 0 0)
        (effects (font (size 1.27 1.27)) hide)
      )
      (symbol "GNDA_0_1"
        (polyline
          (pts
            (xy 0 0)
            (xy 0 -1.27)
            (xy 1.27 -1.27)
            (xy 0 -2.54)
            (xy -1.27 -1.27)
            (xy 0 -1.27)
          )
          (stroke (width 0) (type default) (color 0 0 0 0))
          (fill (type none))
        )
      )
      (symbol "GNDA_1_1"
        (pin power_in line (at 0 0 270) (length 0) hide
          (name "GNDA" (effects (font (size 1.27 1.27))))
          (number "1" (effects (font (size 1.27 1.27))))
        )
      )
    )
    (symbol "power:PWR_FLAG" (power) (pin_numbers hide) (pin_names (offset 0) hide) (in_bom yes) (on_board yes)
      (property "Reference" "#FLG" (id 0) (at 0 1.905 0)
        (effects (font (size 1.27 1.27)) hide)
      )
      (property "Value" "PWR_FLAG" (id 1) (at 0 3.81 0)
        (effects (font (size 1.27 1.27)))
      )
      (property "Footprint" "" (id 2) (at 0 0 0)
        (effects (font (size 1.27 1.27)) hide)
      )
      (property "Datasheet" "~" (id 3) (at 0 0 0)
        (effects (font (size 1.27 1.27)) hide)
      )
      (property "ki_keywords" "power-flag" (id 4) (at 0 0 0)
        (effects (font (size 1.27 1.27)) hide)
      )
      (property "ki_description" "Special symbol for telling ERC where power comes from" (id 5) (at 0 0 0)
        (effects (font (size 1.27 1.27)) hide)
      )
      (symbol "PWR_FLAG_0_0"
        (pin power_out line (at 0 0 90) (length 0)
          (name "pwr" (effects (font (size 1.27 1.27))))
          (number "1" (effects (font (size 1.27 1.27))))
        )
      )
      (symbol "PWR_FLAG_0_1"
        (polyline
          (pts
            (xy 0 0)
            (xy 0 1.27)
            (xy -1.016 1.905)
            (xy 0 2.54)
            (xy 1.016 1.905)
            (xy 0 1.27)
          )
          (stroke (width 0) (type default) (color 0 0 0 0))
          (fill (type none))
        )
      )
    )
  )

  (junction (at 196.85 83.82) (diameter 0.9144) (color 0 0 0 0)
    (uuid 03c52831-5dc5-43c5-a442-8d23643b46fb)
  )
  (junction (at 114.3 114.3) (diameter 0.9144) (color 0 0 0 0)
    (uuid 0b21a65d-d20b-411e-920a-75c343ac5136)
  )
  (junction (at 114.3 160.02) (diameter 0.9144) (color 0 0 0 0)
    (uuid 3cd1bda0-18db-417d-b581-a0c50623df68)
  )
  (junction (at 226.06 86.36) (diameter 0.9144) (color 0 0 0 0)
    (uuid a1823eb2-fb0d-4ed8-8b96-04184ac3a9d5)
  )
  (junction (at 119.507 44.831) (diameter 0.9144) (color 0 0 0 0)
    (uuid d57dcfee-5058-4fc2-a68b-05f9a48f685b)
  )
  (junction (at 87.757 42.291) (diameter 0.9144) (color 0 0 0 0)
    (uuid fe8d9267-7834-48d6-a191-c8724b2ee78d)
  )

  (wire (pts (xy 68.58 154.94) (xy 66.04 154.94))
    (stroke (width 0) (type solid) (color 0 0 0 0))
    (uuid 060a25d6-e521-4f0c-93cf-c79832cc8ce0)
  )
  (wire (pts (xy 119.507 44.831) (xy 120.777 44.831))
    (stroke (width 0) (type solid) (color 0 0 0 0))
    (uuid 1ae19137-2ee2-43a2-ab2f-fa8391e59086)
  )
  (wire (pts (xy 66.04 154.94) (xy 66.04 157.48))
    (stroke (width 0) (type solid) (color 0 0 0 0))
    (uuid 1c90bbdd-e555-492c-a86e-db6f7f62196d)
  )
  (wire (pts (xy 203.835 69.85) (xy 203.835 81.28))
    (stroke (width 0) (type solid) (color 0 0 0 0))
    (uuid 1f24cfe7-4e2a-425c-baf3-05cdca4c8f7d)
  )
  (wire (pts (xy 203.835 69.85) (xy 213.36 69.85))
    (stroke (width 0) (type solid) (color 0 0 0 0))
    (uuid 1f24cfe7-4e2a-425c-baf3-05cdca4c8f7e)
  )
  (wire (pts (xy 203.835 81.28) (xy 210.185 81.28))
    (stroke (width 0) (type solid) (color 0 0 0 0))
    (uuid 1f24cfe7-4e2a-425c-baf3-05cdca4c8f7f)
  )
  (wire (pts (xy 119.507 42.291) (xy 119.507 44.831))
    (stroke (width 0) (type solid) (color 0 0 0 0))
    (uuid 206361e7-312e-4a8b-b571-15476ec2c491)
  )
  (wire (pts (xy 66.04 106.68) (xy 66.04 147.32))
    (stroke (width 0) (type solid) (color 0 0 0 0))
    (uuid 26b640d3-6307-4a71-a6ef-79f85929c63d)
  )
  (wire (pts (xy 68.58 106.68) (xy 66.04 106.68))
    (stroke (width 0) (type solid) (color 0 0 0 0))
    (uuid 2918116f-d038-461c-9c2f-32c6a9bc1ffd)
  )
  (wire (pts (xy 220.98 69.85) (xy 229.87 69.85))
    (stroke (width 0) (type solid) (color 0 0 0 0))
    (uuid 300bb728-1f8e-4a14-8175-bcf9d6d3de04)
  )
  (wire (pts (xy 222.885 81.28) (xy 229.87 81.28))
    (stroke (width 0) (type solid) (color 0 0 0 0))
    (uuid 300bb728-1f8e-4a14-8175-bcf9d6d3de05)
  )
  (wire (pts (xy 229.87 81.28) (xy 229.87 69.85))
    (stroke (width 0) (type solid) (color 0 0 0 0))
    (uuid 300bb728-1f8e-4a14-8175-bcf9d6d3de06)
  )
  (wire (pts (xy 196.85 111.76) (xy 205.105 111.76))
    (stroke (width 0) (type solid) (color 0 0 0 0))
    (uuid 31a2f9fd-b078-4ffe-b515-401cfaccc830)
  )
  (wire (pts (xy 205.105 86.36) (xy 210.185 86.36))
    (stroke (width 0) (type solid) (color 0 0 0 0))
    (uuid 31a2f9fd-b078-4ffe-b515-401cfaccc831)
  )
  (wire (pts (xy 205.105 111.76) (xy 205.105 86.36))
    (stroke (width 0) (type solid) (color 0 0 0 0))
    (uuid 31a2f9fd-b078-4ffe-b515-401cfaccc832)
  )
  (wire (pts (xy 114.3 111.76) (xy 114.3 114.3))
    (stroke (width 0) (type solid) (color 0 0 0 0))
    (uuid 38d7e844-d971-454a-9076-5127b3dbb328)
  )
  (wire (pts (xy 114.3 114.3) (xy 114.3 115.57))
    (stroke (width 0) (type solid) (color 0 0 0 0))
    (uuid 38d7e844-d971-454a-9076-5127b3dbb329)
  )
  (wire (pts (xy 114.3 140.97) (xy 114.3 144.78))
    (stroke (width 0) (type solid) (color 0 0 0 0))
    (uuid 3c3f4493-677d-4d05-b795-f6848658c95c)
  )
  (wire (pts (xy 199.39 119.38) (xy 196.85 119.38))
    (stroke (width 0) (type solid) (color 0 0 0 0))
    (uuid 4a250d4b-265a-4611-bc3b-e4e6e806f765)
  )
  (wire (pts (xy 199.39 121.92) (xy 199.39 119.38))
    (stroke (width 0) (type solid) (color 0 0 0 0))
    (uuid 4a250d4b-265a-4611-bc3b-e4e6e806f766)
  )
  (wire (pts (xy 187.96 83.82) (xy 187.96 80.645))
    (stroke (width 0) (type solid) (color 0 0 0 0))
    (uuid 57cbc7b5-3ed3-46a6-9b6d-11b153f3bc38)
  )
  (wire (pts (xy 196.85 83.82) (xy 187.96 83.82))
    (stroke (width 0) (type solid) (color 0 0 0 0))
    (uuid 57cbc7b5-3ed3-46a6-9b6d-11b153f3bc39)
  )
  (wire (pts (xy 114.3 160.02) (xy 114.3 163.83))
    (stroke (width 0) (type solid) (color 0 0 0 0))
    (uuid 5978abef-3afe-400d-8af2-0e8912da85d4)
  )
  (wire (pts (xy 196.85 80.645) (xy 196.85 83.82))
    (stroke (width 0) (type solid) (color 0 0 0 0))
    (uuid 5a82c3d9-9f89-406c-86d4-e4f4a0fd7238)
  )
  (wire (pts (xy 196.85 83.82) (xy 210.185 83.82))
    (stroke (width 0) (type solid) (color 0 0 0 0))
    (uuid 5a82c3d9-9f89-406c-86d4-e4f4a0fd7239)
  )
  (wire (pts (xy 87.757 42.291) (xy 87.757 44.831))
    (stroke (width 0) (type solid) (color 0 0 0 0))
    (uuid 70b9b95b-4f76-4f3a-8d38-1145db4e9489)
  )
  (wire (pts (xy 87.757 44.831) (xy 89.027 44.831))
    (stroke (width 0) (type solid) (color 0 0 0 0))
    (uuid 74922127-4c37-4e75-9b33-603d01282788)
  )
  (wire (pts (xy 196.85 106.68) (xy 199.39 106.68))
    (stroke (width 0) (type solid) (color 0 0 0 0))
    (uuid 7811aa01-f4fd-4f81-bd14-391b8aa4828c)
  )
  (wire (pts (xy 199.39 106.68) (xy 199.39 104.775))
    (stroke (width 0) (type solid) (color 0 0 0 0))
    (uuid 7811aa01-f4fd-4f81-bd14-391b8aa4828d)
  )
  (wire (pts (xy 114.3 96.52) (xy 111.76 96.52))
    (stroke (width 0) (type solid) (color 0 0 0 0))
    (uuid 84a4e6c3-e725-4bc7-a47b-26aac9f15843)
  )
  (wire (pts (xy 130.81 111.76) (xy 161.29 111.76))
    (stroke (width 0) (type solid) (color 0 0 0 0))
    (uuid 86dd41ea-7419-481f-b1be-818b064e71d3)
  )
  (wire (pts (xy 114.3 160.02) (xy 130.81 160.02))
    (stroke (width 0) (type solid) (color 0 0 0 0))
    (uuid 8a767f00-9bf3-4240-946b-5ee2dddad50c)
  )
  (wire (pts (xy 130.81 111.76) (xy 130.81 160.02))
    (stroke (width 0) (type solid) (color 0 0 0 0))
    (uuid 8a767f00-9bf3-4240-946b-5ee2dddad50d)
  )
  (wire (pts (xy 68.58 147.32) (xy 66.04 147.32))
    (stroke (width 0) (type solid) (color 0 0 0 0))
    (uuid 91ecb926-2e68-4447-ad95-a4afa0f658d0)
  )
  (wire (pts (xy 222.885 86.36) (xy 226.06 86.36))
    (stroke (width 0) (type solid) (color 0 0 0 0))
    (uuid 93d9192a-6155-493b-b1ba-eaa8e3e25f28)
  )
  (wire (pts (xy 226.06 86.36) (xy 226.06 89.535))
    (stroke (width 0) (type solid) (color 0 0 0 0))
    (uuid 93d9192a-6155-493b-b1ba-eaa8e3e25f29)
  )
  (wire (pts (xy 68.58 99.06) (xy 66.04 99.06))
    (stroke (width 0) (type solid) (color 0 0 0 0))
    (uuid 951e98d7-a795-452f-bd8f-a959edb209ad)
  )
  (wire (pts (xy 114.3 160.02) (xy 111.76 160.02))
    (stroke (width 0) (type solid) (color 0 0 0 0))
    (uuid 99e0d0fd-0613-4f0c-8d8e-c040f57b3f17)
  )
  (wire (pts (xy 120.777 42.291) (xy 119.507 42.291))
    (stroke (width 0) (type solid) (color 0 0 0 0))
    (uuid a6449cb1-383a-49f0-bc9b-1cf67b546fd4)
  )
  (wire (pts (xy 236.22 86.36) (xy 236.22 89.535))
    (stroke (width 0) (type solid) (color 0 0 0 0))
    (uuid a9d55942-4f8c-41e3-ae1a-5d5b4da8f2b3)
  )
  (wire (pts (xy 114.3 111.76) (xy 111.76 111.76))
    (stroke (width 0) (type solid) (color 0 0 0 0))
    (uuid ad8e7471-f7f2-4023-b0bc-447d4f962323)
  )
  (wire (pts (xy 78.867 40.386) (xy 78.867 42.291))
    (stroke (width 0) (type solid) (color 0 0 0 0))
    (uuid c4960c2f-f51d-41d9-bbe0-3717d5ab8c97)
  )
  (wire (pts (xy 78.867 42.291) (xy 87.757 42.291))
    (stroke (width 0) (type solid) (color 0 0 0 0))
    (uuid c4960c2f-f51d-41d9-bbe0-3717d5ab8c98)
  )
  (wire (pts (xy 236.22 86.36) (xy 226.06 86.36))
    (stroke (width 0) (type solid) (color 0 0 0 0))
    (uuid c688ef77-b233-4df9-8c5d-3f06dae630e0)
  )
  (wire (pts (xy 114.3 92.71) (xy 114.3 96.52))
    (stroke (width 0) (type solid) (color 0 0 0 0))
    (uuid cd0b2ca3-df19-45a1-8215-db16ec2da98f)
  )
  (wire (pts (xy 119.507 46.101) (xy 119.507 44.831))
    (stroke (width 0) (type solid) (color 0 0 0 0))
    (uuid ced37d08-ede5-4447-9b0d-8aee3d757d22)
  )
  (wire (pts (xy 55.245 93.345) (xy 55.245 99.06))
    (stroke (width 0) (type solid) (color 0 0 0 0))
    (uuid d28e647f-2df0-4271-999e-64b4b2984266)
  )
  (wire (pts (xy 114.3 144.78) (xy 111.76 144.78))
    (stroke (width 0) (type solid) (color 0 0 0 0))
    (uuid d5f5f7a4-5afb-40c1-85d1-bfcf1b93f065)
  )
  (wire (pts (xy 161.29 114.3) (xy 114.3 114.3))
    (stroke (width 0) (type solid) (color 0 0 0 0))
    (uuid dfbb9572-3dce-446a-8f33-a10e2810c156)
  )
  (wire (pts (xy 58.42 99.06) (xy 55.245 99.06))
    (stroke (width 0) (type solid) (color 0 0 0 0))
    (uuid e6a1f2bd-491b-4757-bc11-89b24f300175)
  )
  (wire (pts (xy 196.85 114.3) (xy 245.745 114.3))
    (stroke (width 0) (type solid) (color 0 0 0 0))
    (uuid ec5d62fa-5405-4d88-b00a-b8236e1772a6)
  )
  (wire (pts (xy 245.745 83.82) (xy 222.885 83.82))
    (stroke (width 0) (type solid) (color 0 0 0 0))
    (uuid ec5d62fa-5405-4d88-b00a-b8236e1772a7)
  )
  (wire (pts (xy 245.745 114.3) (xy 245.745 83.82))
    (stroke (width 0) (type solid) (color 0 0 0 0))
    (uuid ec5d62fa-5405-4d88-b00a-b8236e1772a8)
  )
  (wire (pts (xy 87.757 42.291) (xy 87.757 41.021))
    (stroke (width 0) (type solid) (color 0 0 0 0))
    (uuid f1002bd1-bda3-418b-86bc-f52ebf2caea8)
  )
  (wire (pts (xy 89.027 42.291) (xy 87.757 42.291))
    (stroke (width 0) (type solid) (color 0 0 0 0))
    (uuid f1002bd1-bda3-418b-86bc-f52ebf2caea9)
  )

  (text "Thermistor is optional\nThe stock encoder PCB has it.\nNot needed for A & B signals"
    (at 203.073 63.627 0)
    (effects (font (size 1.27 1.27)) (justify left bottom))
    (uuid 15b2b602-71bd-4e19-81ed-be6e98e08525)
  )
  (text "DC motor power supply" (at 96.647 32.131 0)
    (effects (font (size 1.27 1.27)) (justify left bottom))
    (uuid 67879861-6f2d-4b08-a19e-da6dd83224c4)
  )
  (text "Actually I use the SN74LVC2G17DBVR\nSOT23-6" (at 191.77 132.715 180)
    (effects (font (size 1.27 1.27)) (justify right bottom))
    (uuid a443c665-4b89-4bfb-a7ab-9f6f23d767f8)
  )
  (text "For +5V power supply\nVled = 1.2[V], thus VR = 2.6[V]\nI=15[mA]\nR=173.33[ohm]\n\nFor +3.3V power supply\nVled = 1.2[V], thus VR = 0.9[V]\nI=15[mA]\nR=60[ohm]"
    (at 75.565 84.455 0)
    (effects (font (size 1.27 1.27)) (justify left bottom))
    (uuid caed0038-df4a-442e-808e-ab5abd964783)
  )

  (symbol (lib_id "power:GND") (at 66.04 157.48 0) (mirror y) (unit 1)
    (in_bom yes) (on_board yes) (fields_autoplaced)
    (uuid 14ef10f7-b9a8-41aa-95c9-c24d01422c84)
    (property "Reference" "#PWR0110" (id 0) (at 66.04 163.83 0)
      (effects (font (size 1.27 1.27)) hide)
    )
    (property "Value" "GND" (id 1) (at 66.04 161.925 0))
    (property "Footprint" "" (id 2) (at 66.04 157.48 0)
      (effects (font (size 1.27 1.27)) hide)
    )
    (property "Datasheet" "" (id 3) (at 66.04 157.48 0)
      (effects (font (size 1.27 1.27)) hide)
    )
    (pin "1" (uuid 07af322e-bd6b-427d-8ab5-3e31dabb2fa2))
  )

  (symbol (lib_id "SN74LVC2G17DCKT:SN74LVC2G17DCKT") (at 179.07 114.3 0) (unit 1)
    (in_bom yes) (on_board yes) (fields_autoplaced)
    (uuid 21195d55-5392-411e-9352-aa2747284ecb)
    (property "Reference" "U1" (id 0) (at 179.07 99.695 0))
    (property "Value" "SN74LVC2G17DCKT" (id 1) (at 179.07 102.235 0))
    (property "Footprint" "Package_TO_SOT_SMD:SOT-23-6_Handsoldering" (id 2) (at 179.07 114.3 0)
      (effects (font (size 1.27 1.27)) (justify left bottom) hide)
    )
    (property "Datasheet" "" (id 3) (at 179.07 114.3 0)
      (effects (font (size 1.27 1.27)) (justify left bottom) hide)
    )
    (pin "1" (uuid 634887f3-4602-4cc6-ba1c-fd9feff25304))
    (pin "2" (uuid 8bdb6f8b-e455-45cb-9795-0208ae806f7c))
    (pin "3" (uuid fca173b2-9b31-4508-879a-47c897b7c202))
    (pin "4" (uuid 391731bb-77db-4ef8-9688-f9dfafb9d64d))
    (pin "5" (uuid c566e0d2-7f65-4a3b-b467-e08a26c357b7))
    (pin "6" (uuid c3981c1e-8446-45b9-a552-f14a9e7729ab))
  )

  (symbol (lib_id "Device:R") (at 114.3 167.64 0) (mirror x) (unit 1)
    (in_bom yes) (on_board yes) (fields_autoplaced)
    (uuid 2d942927-6faa-448c-b1ca-6b0f4c36d9d0)
    (property "Reference" "R3" (id 0) (at 111.76 167.0049 0)
      (effects (font (size 1.27 1.27)) (justify right))
    )
    (property "Value" "10k" (id 1) (at 111.76 169.5449 0)
      (effects (font (size 1.27 1.27)) (justify right))
    )
    (property "Footprint" "Resistor_SMD:R_0603_1608Metric_Pad0.98x0.95mm_HandSolder" (id 2) (at 112.522 167.64 90)
      (effects (font (size 1.27 1.27)) hide)
    )
    (property "Datasheet" "~" (id 3) (at 114.3 167.64 0)
      (effects (font (size 1.27 1.27)) hide)
    )
    (pin "1" (uuid bcfa065f-824c-483f-a591-d5cb741712fd))
    (pin "2" (uuid 94339518-e2fb-44af-a1a2-45aee09fcf6e))
  )

  (symbol (lib_id "power:PWR_FLAG") (at 236.22 89.535 180) (unit 1)
    (in_bom yes) (on_board yes)
    (uuid 3394627a-5a29-4b00-8c6c-272049cea7f6)
    (property "Reference" "#FLG0102" (id 0) (at 236.22 91.44 0)
      (effects (font (size 1.27 1.27)) hide)
    )
    (property "Value" "PWR_FLAG" (id 1) (at 236.22 93.98 0))
    (property "Footprint" "" (id 2) (at 236.22 89.535 0)
      (effects (font (size 1.27 1.27)) hide)
    )
    (property "Datasheet" "~" (id 3) (at 236.22 89.535 0)
      (effects (font (size 1.27 1.27)) hide)
    )
    (pin "1" (uuid 9a8c3e9e-7df9-496b-b49b-55d9baf0e311))
  )

  (symbol (lib_id "Device:R") (at 114.3 119.38 0) (mirror x) (unit 1)
    (in_bom yes) (on_board yes) (fields_autoplaced)
    (uuid 39d5ce1e-5b64-4414-af57-450ef551062d)
    (property "Reference" "R2" (id 0) (at 111.76 118.7449 0)
      (effects (font (size 1.27 1.27)) (justify right))
    )
    (property "Value" "10k" (id 1) (at 111.76 121.2849 0)
      (effects (font (size 1.27 1.27)) (justify right))
    )
    (property "Footprint" "Resistor_SMD:R_0603_1608Metric_Pad0.98x0.95mm_HandSolder" (id 2) (at 112.522 119.38 90)
      (effects (font (size 1.27 1.27)) hide)
    )
    (property "Datasheet" "~" (id 3) (at 114.3 119.38 0)
      (effects (font (size 1.27 1.27)) hide)
    )
    (pin "1" (uuid d5a65d40-7b1c-45c7-a120-4fcc1b75f384))
    (pin "2" (uuid ebecba74-0a0f-4a03-969a-10dd8e3329b8))
  )

  (symbol (lib_id "Device:Thermistor_NTC") (at 217.17 69.85 90) (unit 1)
    (in_bom yes) (on_board yes) (fields_autoplaced)
    (uuid 4df18184-b91b-40eb-b7d8-eed3d1ad68f9)
    (property "Reference" "TH1" (id 0) (at 217.17 64.77 90))
    (property "Value" "Thermistor_NTC" (id 1) (at 217.17 67.31 90))
    (property "Footprint" "Connector_PinSocket_2.54mm:PinSocket_1x02_P2.54mm_Vertical" (id 2) (at 215.9 69.85 0)
      (effects (font (size 1.27 1.27)) hide)
    )
    (property "Datasheet" "~" (id 3) (at 215.9 69.85 0)
      (effects (font (size 1.27 1.27)) hide)
    )
    (pin "1" (uuid 961a1b18-d63c-473d-8fc8-3cb1456ee175))
    (pin "2" (uuid bcfaace0-c591-4725-b3c5-42d4d21fdaad))
  )

  (symbol (lib_id "Device:R") (at 62.23 99.06 270) (mirror x) (unit 1)
    (in_bom yes) (on_board yes) (fields_autoplaced)
    (uuid 51d3fa04-bb77-4b6c-8067-288d5036b916)
    (property "Reference" "R1" (id 0) (at 62.23 94.615 90))
    (property "Value" "180" (id 1) (at 62.23 97.155 90))
    (property "Footprint" "Resistor_SMD:R_0603_1608Metric_Pad0.98x0.95mm_HandSolder" (id 2) (at 62.23 100.838 90)
      (effects (font (size 1.27 1.27)) hide)
    )
    (property "Datasheet" "~" (id 3) (at 62.23 99.06 0)
      (effects (font (size 1.27 1.27)) hide)
    )
    (pin "1" (uuid 8d482618-61e6-4bcc-a63f-61e986c82549))
    (pin "2" (uuid 83e848ac-7e82-4822-8211-31265e5a3d7a))
  )

  (symbol (lib_id "power:PWR_FLAG") (at 78.867 40.386 0) (unit 1)
    (in_bom yes) (on_board yes) (fields_autoplaced)
    (uuid 58bea139-90c0-4045-bc92-3c2fb4b82509)
    (property "Reference" "#FLG0103" (id 0) (at 78.867 38.481 0)
      (effects (font (size 1.27 1.27)) hide)
    )
    (property "Value" "PWR_FLAG" (id 1) (at 78.867 36.576 0))
    (property "Footprint" "" (id 2) (at 78.867 40.386 0)
      (effects (font (size 1.27 1.27)) hide)
    )
    (property "Datasheet" "~" (id 3) (at 78.867 40.386 0)
      (effects (font (size 1.27 1.27)) hide)
    )
    (pin "1" (uuid 0d5bfc3c-4409-4f8c-a99b-ab324059a30a))
  )

  (symbol (lib_id "power:+5V") (at 196.85 80.645 0) (unit 1)
    (in_bom yes) (on_board yes) (fields_autoplaced)
    (uuid 67c9c818-1d5c-4dcb-840e-616a5d3940a0)
    (property "Reference" "#PWR0102" (id 0) (at 196.85 84.455 0)
      (effects (font (size 1.27 1.27)) hide)
    )
    (property "Value" "+5V" (id 1) (at 196.85 76.835 0))
    (property "Footprint" "" (id 2) (at 196.85 80.645 0)
      (effects (font (size 1.27 1.27)) hide)
    )
    (property "Datasheet" "" (id 3) (at 196.85 80.645 0)
      (effects (font (size 1.27 1.27)) hide)
    )
    (pin "1" (uuid 8541d744-0ce4-4261-9d38-1dbb5a56a01c))
  )

  (symbol (lib_id "power:+5V") (at 199.39 104.775 0) (unit 1)
    (in_bom yes) (on_board yes) (fields_autoplaced)
    (uuid 69f54a5e-3971-4a92-b34e-3b27cca4a69e)
    (property "Reference" "#PWR0103" (id 0) (at 199.39 108.585 0)
      (effects (font (size 1.27 1.27)) hide)
    )
    (property "Value" "+5V" (id 1) (at 199.39 100.965 0))
    (property "Footprint" "" (id 2) (at 199.39 104.775 0)
      (effects (font (size 1.27 1.27)) hide)
    )
    (property "Datasheet" "" (id 3) (at 199.39 104.775 0)
      (effects (font (size 1.27 1.27)) hide)
    )
    (pin "1" (uuid 84365290-aee8-4e47-9cd3-8bdd2493d025))
  )

  (symbol (lib_id "Connector_Generic:Conn_02x03_Odd_Even") (at 215.265 83.82 0) (unit 1)
    (in_bom yes) (on_board yes) (fields_autoplaced)
    (uuid 6ced2289-2756-4f10-9da3-112e226c2d88)
    (property "Reference" "J1" (id 0) (at 216.535 75.565 0))
    (property "Value" "Conn_02x03_Odd_Even" (id 1) (at 216.535 78.105 0))
    (property "Footprint" "Connector_PinHeader_1.27mm:PinHeader_2x03_P1.27mm_Vertical" (id 2) (at 215.265 83.82 0)
      (effects (font (size 1.27 1.27)) hide)
    )
    (property "Datasheet" "~" (id 3) (at 215.265 83.82 0)
      (effects (font (size 1.27 1.27)) hide)
    )
    (pin "1" (uuid 916b33e9-01a5-41db-9d29-320f4ba7d12f))
    (pin "2" (uuid 9932c689-7ee9-4dca-8e07-87ce8f4be836))
    (pin "3" (uuid 32802cd6-b5d6-4aaf-9202-e0e70bebc8c9))
    (pin "4" (uuid d62ef42f-6454-4bd9-a6d2-2dabb860202b))
    (pin "5" (uuid e06133c5-e252-4b7e-aed7-0bd75d15e251))
    (pin "6" (uuid 3383de8c-152c-4e5f-8164-e431bcc63b41))
  )

  (symbol (lib_id "power:GND") (at 114.3 123.19 0) (mirror y) (unit 1)
    (in_bom yes) (on_board yes) (fields_autoplaced)
    (uuid 7331e8fd-91ad-4f1b-91f6-72878c1c8017)
    (property "Reference" "#PWR0107" (id 0) (at 114.3 129.54 0)
      (effects (font (size 1.27 1.27)) hide)
    )
    (property "Value" "GND" (id 1) (at 114.3 127.635 0))
    (property "Footprint" "" (id 2) (at 114.3 123.19 0)
      (effects (font (size 1.27 1.27)) hide)
    )
    (property "Datasheet" "" (id 3) (at 114.3 123.19 0)
      (effects (font (size 1.27 1.27)) hide)
    )
    (pin "1" (uuid b735e269-12f3-44bc-a0e5-e1a1d9a05e8c))
  )

  (symbol (lib_id "Connector_Generic:Conn_01x02") (at 94.107 42.291 0) (unit 1)
    (in_bom yes) (on_board yes) (fields_autoplaced)
    (uuid 7b519475-3c7f-4f80-8647-edd0c451dac6)
    (property "Reference" "J2" (id 0) (at 97.282 42.9259 0)
      (effects (font (size 1.27 1.27)) (justify left))
    )
    (property "Value" "Conn_01x02" (id 1) (at 97.282 45.4659 0)
      (effects (font (size 1.27 1.27)) (justify left))
    )
    (property "Footprint" "Connector_PinHeader_2.54mm:PinHeader_1x02_P2.54mm_Vertical" (id 2) (at 94.107 42.291 0)
      (effects (font (size 1.27 1.27)) hide)
    )
    (property "Datasheet" "~" (id 3) (at 94.107 42.291 0)
      (effects (font (size 1.27 1.27)) hide)
    )
    (pin "1" (uuid 778e9056-fd82-43ba-b293-4aa4d567adc2))
    (pin "2" (uuid 7c97d658-9451-4b9c-abd0-154a147db59d))
  )

  (symbol (lib_id "power:GNDA") (at 119.507 46.101 0) (unit 1)
    (in_bom yes) (on_board yes) (fields_autoplaced)
    (uuid 8684cbfd-3feb-4ed1-a38d-406289192894)
    (property "Reference" "#PWR0113" (id 0) (at 119.507 52.451 0)
      (effects (font (size 1.27 1.27)) hide)
    )
    (property "Value" "GNDA" (id 1) (at 119.507 50.546 0))
    (property "Footprint" "" (id 2) (at 119.507 46.101 0)
      (effects (font (size 1.27 1.27)) hide)
    )
    (property "Datasheet" "" (id 3) (at 119.507 46.101 0)
      (effects (font (size 1.27 1.27)) hide)
    )
    (pin "1" (uuid a4400cba-633b-4bbd-872d-b97bdc0920ef))
  )

  (symbol (lib_id "2021-04-25_18-55-55:EE-SX1105") (at 111.76 144.78 0) (mirror y) (unit 1)
    (in_bom yes) (on_board yes) (fields_autoplaced)
    (uuid 8d611e76-96dc-45e2-adfc-20b6aba12520)
    (property "Reference" "Q2" (id 0) (at 90.17 134.62 0)
      (effects (font (size 1.524 1.524)))
    )
    (property "Value" "EE-SX1105" (id 1) (at 90.17 137.16 0)
      (effects (font (size 1.524 1.524)))
    )
    (property "Footprint" "footprints:EE-SX1105" (id 2) (at 88.9 136.144 0)
      (effects (font (size 1.524 1.524)) hide)
    )
    (property "Datasheet" "" (id 3) (at 111.76 144.78 0)
      (effects (font (size 1.524 1.524)))
    )
    (pin "1" (uuid bdb4f282-7611-4a12-9c51-767a4727f53b))
    (pin "2" (uuid 73cad804-0e9d-4a19-a00c-82145ace4cd4))
    (pin "3" (uuid 9a73f8d9-d906-4e0b-8a8e-867cda0a5e75))
    (pin "4" (uuid 8c9ab17e-cbeb-409c-b4cc-948a39c29b53))
  )

  (symbol (lib_id "2021-04-25_18-55-55:EE-SX1105") (at 111.76 96.52 0) (mirror y) (unit 1)
    (in_bom yes) (on_board yes) (fields_autoplaced)
    (uuid 95de49fc-9b8e-4622-9518-cf409a876652)
    (property "Reference" "Q1" (id 0) (at 90.17 86.36 0)
      (effects (font (size 1.524 1.524)))
    )
    (property "Value" "EE-SX1105" (id 1) (at 90.17 88.9 0)
      (effects (font (size 1.524 1.524)))
    )
    (property "Footprint" "footprints:EE-SX1105" (id 2) (at 88.9 87.884 0)
      (effects (font (size 1.524 1.524)) hide)
    )
    (property "Datasheet" "" (id 3) (at 111.76 96.52 0)
      (effects (font (size 1.524 1.524)))
    )
    (pin "1" (uuid b24ee620-5b69-4e69-a1ec-cd7a6c0e274e))
    (pin "2" (uuid 26da5f49-a548-4768-ac00-8f793abe19e4))
    (pin "3" (uuid 3fefead8-9708-467d-9242-fda58abeba05))
    (pin "4" (uuid b23a9b55-96f7-4adb-a8a6-3085065f2861))
  )

  (symbol (lib_id "Mechanical:MountingHole") (at 176.276 44.577 0) (unit 1)
    (in_bom yes) (on_board yes)
    (uuid 9c0a374c-31a0-49ba-8d62-c88cab8f7d2c)
    (property "Reference" "H2" (id 0) (at 179.451 43.9419 0)
      (effects (font (size 1.27 1.27)) (justify left))
    )
    (property "Value" "MountingHole" (id 1) (at 179.451 46.4819 0)
      (effects (font (size 1.27 1.27)) (justify left))
    )
    (property "Footprint" "MountingHole:MountingHole_2.1mm" (id 2) (at 176.276 44.577 0)
      (effects (font (size 1.27 1.27)) hide)
    )
    (property "Datasheet" "~" (id 3) (at 176.276 44.577 0)
      (effects (font (size 1.27 1.27)) hide)
    )
  )

  (symbol (lib_id "power:+5V") (at 114.3 140.97 0) (mirror y) (unit 1)
    (in_bom yes) (on_board yes) (fields_autoplaced)
    (uuid a187e7cf-a876-4038-8d4e-3701e184819f)
    (property "Reference" "#PWR0108" (id 0) (at 114.3 144.78 0)
      (effects (font (size 1.27 1.27)) hide)
    )
    (property "Value" "+5V" (id 1) (at 114.3 137.16 0))
    (property "Footprint" "" (id 2) (at 114.3 140.97 0)
      (effects (font (size 1.27 1.27)) hide)
    )
    (property "Datasheet" "" (id 3) (at 114.3 140.97 0)
      (effects (font (size 1.27 1.27)) hide)
    )
    (pin "1" (uuid c2a93951-4cb3-49e9-9279-c1dbce776229))
  )

  (symbol (lib_id "Connector_Generic:Conn_01x02") (at 125.857 42.291 0) (unit 1)
    (in_bom yes) (on_board yes) (fields_autoplaced)
    (uuid a30c3792-95b1-4140-a655-be029f8bdff0)
    (property "Reference" "J3" (id 0) (at 129.032 42.9259 0)
      (effects (font (size 1.27 1.27)) (justify left))
    )
    (property "Value" "Conn_01x02" (id 1) (at 129.032 45.4659 0)
      (effects (font (size 1.27 1.27)) (justify left))
    )
    (property "Footprint" "Connector_PinHeader_2.54mm:PinHeader_1x02_P2.54mm_Vertical" (id 2) (at 125.857 42.291 0)
      (effects (font (size 1.27 1.27)) hide)
    )
    (property "Datasheet" "~" (id 3) (at 125.857 42.291 0)
      (effects (font (size 1.27 1.27)) hide)
    )
    (pin "1" (uuid bd9ab9d6-046f-4eae-9c98-3d3401d910d4))
    (pin "2" (uuid fab8ea18-7562-4669-9cac-a7b4cfd6fd59))
  )

  (symbol (lib_id "power:+12V") (at 87.757 41.021 0) (unit 1)
    (in_bom yes) (on_board yes) (fields_autoplaced)
    (uuid a5e6dfd3-f64c-493e-b359-6c5d782486ae)
    (property "Reference" "#PWR0112" (id 0) (at 87.757 44.831 0)
      (effects (font (size 1.27 1.27)) hide)
    )
    (property "Value" "+12V" (id 1) (at 87.757 36.576 0))
    (property "Footprint" "" (id 2) (at 87.757 41.021 0)
      (effects (font (size 1.27 1.27)) hide)
    )
    (property "Datasheet" "" (id 3) (at 87.757 41.021 0)
      (effects (font (size 1.27 1.27)) hide)
    )
    (pin "1" (uuid d1e8ed43-f6dd-4f29-a52b-124820941035))
  )

  (symbol (lib_id "power:GND") (at 226.06 89.535 0) (unit 1)
    (in_bom yes) (on_board yes) (fields_autoplaced)
    (uuid ac6db6ca-e8b1-4659-b9de-99bcf60a0434)
    (property "Reference" "#PWR0104" (id 0) (at 226.06 95.885 0)
      (effects (font (size 1.27 1.27)) hide)
    )
    (property "Value" "GND" (id 1) (at 226.06 93.98 0))
    (property "Footprint" "" (id 2) (at 226.06 89.535 0)
      (effects (font (size 1.27 1.27)) hide)
    )
    (property "Datasheet" "" (id 3) (at 226.06 89.535 0)
      (effects (font (size 1.27 1.27)) hide)
    )
    (pin "1" (uuid 1c7982dc-ffc3-4393-9dd8-25937dcb0186))
  )

  (symbol (lib_id "power:GND") (at 114.3 171.45 0) (mirror y) (unit 1)
    (in_bom yes) (on_board yes) (fields_autoplaced)
    (uuid ad6b01a5-7e4e-4fc1-8a59-43f01d8dc00c)
    (property "Reference" "#PWR0109" (id 0) (at 114.3 177.8 0)
      (effects (font (size 1.27 1.27)) hide)
    )
    (property "Value" "GND" (id 1) (at 114.3 175.895 0))
    (property "Footprint" "" (id 2) (at 114.3 171.45 0)
      (effects (font (size 1.27 1.27)) hide)
    )
    (property "Datasheet" "" (id 3) (at 114.3 171.45 0)
      (effects (font (size 1.27 1.27)) hide)
    )
    (pin "1" (uuid 594cc3d2-4dcc-4f6b-a036-3146f9099b78))
  )

  (symbol (lib_id "power:+5V") (at 114.3 92.71 0) (mirror y) (unit 1)
    (in_bom yes) (on_board yes) (fields_autoplaced)
    (uuid d1204c42-9572-474d-ab8f-62d4950289a4)
    (property "Reference" "#PWR0105" (id 0) (at 114.3 96.52 0)
      (effects (font (size 1.27 1.27)) hide)
    )
    (property "Value" "+5V" (id 1) (at 114.3 88.9 0))
    (property "Footprint" "" (id 2) (at 114.3 92.71 0)
      (effects (font (size 1.27 1.27)) hide)
    )
    (property "Datasheet" "" (id 3) (at 114.3 92.71 0)
      (effects (font (size 1.27 1.27)) hide)
    )
    (pin "1" (uuid f68a4afb-ef8a-474f-99ae-7e4304dfda4e))
  )

  (symbol (lib_id "power:GND") (at 199.39 121.92 0) (unit 1)
    (in_bom yes) (on_board yes) (fields_autoplaced)
    (uuid d46b5f8d-458d-4eb5-9dd8-14fdd4e6bb28)
    (property "Reference" "#PWR0101" (id 0) (at 199.39 128.27 0)
      (effects (font (size 1.27 1.27)) hide)
    )
    (property "Value" "GND" (id 1) (at 199.39 126.365 0))
    (property "Footprint" "" (id 2) (at 199.39 121.92 0)
      (effects (font (size 1.27 1.27)) hide)
    )
    (property "Datasheet" "" (id 3) (at 199.39 121.92 0)
      (effects (font (size 1.27 1.27)) hide)
    )
    (pin "1" (uuid ba5551ab-0a9b-4f45-867d-20be83efcf2a))
  )

  (symbol (lib_id "power:PWR_FLAG") (at 187.96 80.645 0) (unit 1)
    (in_bom yes) (on_board yes) (fields_autoplaced)
    (uuid d9071036-6f71-41c1-acdd-5534c0e3634e)
    (property "Reference" "#FLG0101" (id 0) (at 187.96 78.74 0)
      (effects (font (size 1.27 1.27)) hide)
    )
    (property "Value" "PWR_FLAG" (id 1) (at 187.96 76.835 0))
    (property "Footprint" "" (id 2) (at 187.96 80.645 0)
      (effects (font (size 1.27 1.27)) hide)
    )
    (property "Datasheet" "~" (id 3) (at 187.96 80.645 0)
      (effects (font (size 1.27 1.27)) hide)
    )
    (pin "1" (uuid 41ecd433-ab8e-4aaa-be86-55cc9b264419))
  )

  (symbol (lib_id "Mechanical:MountingHole") (at 176.276 38.862 0) (unit 1)
    (in_bom yes) (on_board yes)
    (uuid f0be990e-3add-4755-a2d3-244a5d79171c)
    (property "Reference" "H1" (id 0) (at 179.451 38.2269 0)
      (effects (font (size 1.27 1.27)) (justify left))
    )
    (property "Value" "MountingHole" (id 1) (at 179.451 40.7669 0)
      (effects (font (size 1.27 1.27)) (justify left))
    )
    (property "Footprint" "MountingHole:MountingHole_2.1mm" (id 2) (at 176.276 38.862 0)
      (effects (font (size 1.27 1.27)) hide)
    )
    (property "Datasheet" "~" (id 3) (at 176.276 38.862 0)
      (effects (font (size 1.27 1.27)) hide)
    )
  )

  (symbol (lib_id "power:+5V") (at 55.245 93.345 0) (mirror y) (unit 1)
    (in_bom yes) (on_board yes) (fields_autoplaced)
    (uuid ff3a131a-4eac-4139-a6d2-b4b4642204f6)
    (property "Reference" "#PWR0106" (id 0) (at 55.245 97.155 0)
      (effects (font (size 1.27 1.27)) hide)
    )
    (property "Value" "+5V" (id 1) (at 55.245 89.535 0))
    (property "Footprint" "" (id 2) (at 55.245 93.345 0)
      (effects (font (size 1.27 1.27)) hide)
    )
    (property "Datasheet" "" (id 3) (at 55.245 93.345 0)
      (effects (font (size 1.27 1.27)) hide)
    )
    (pin "1" (uuid 248d0bd0-3dfd-421e-91ae-f04c03d4918e))
  )

  (sheet_instances
    (path "/" (page "1"))
  )

  (symbol_instances
    (path "/d9071036-6f71-41c1-acdd-5534c0e3634e"
      (reference "#FLG0101") (unit 1) (value "PWR_FLAG") (footprint "")
    )
    (path "/3394627a-5a29-4b00-8c6c-272049cea7f6"
      (reference "#FLG0102") (unit 1) (value "PWR_FLAG") (footprint "")
    )
    (path "/58bea139-90c0-4045-bc92-3c2fb4b82509"
      (reference "#FLG0103") (unit 1) (value "PWR_FLAG") (footprint "")
    )
    (path "/d46b5f8d-458d-4eb5-9dd8-14fdd4e6bb28"
      (reference "#PWR0101") (unit 1) (value "GND") (footprint "")
    )
    (path "/67c9c818-1d5c-4dcb-840e-616a5d3940a0"
      (reference "#PWR0102") (unit 1) (value "+5V") (footprint "")
    )
    (path "/69f54a5e-3971-4a92-b34e-3b27cca4a69e"
      (reference "#PWR0103") (unit 1) (value "+5V") (footprint "")
    )
    (path "/ac6db6ca-e8b1-4659-b9de-99bcf60a0434"
      (reference "#PWR0104") (unit 1) (value "GND") (footprint "")
    )
    (path "/d1204c42-9572-474d-ab8f-62d4950289a4"
      (reference "#PWR0105") (unit 1) (value "+5V") (footprint "")
    )
    (path "/ff3a131a-4eac-4139-a6d2-b4b4642204f6"
      (reference "#PWR0106") (unit 1) (value "+5V") (footprint "")
    )
    (path "/7331e8fd-91ad-4f1b-91f6-72878c1c8017"
      (reference "#PWR0107") (unit 1) (value "GND") (footprint "")
    )
    (path "/a187e7cf-a876-4038-8d4e-3701e184819f"
      (reference "#PWR0108") (unit 1) (value "+5V") (footprint "")
    )
    (path "/ad6b01a5-7e4e-4fc1-8a59-43f01d8dc00c"
      (reference "#PWR0109") (unit 1) (value "GND") (footprint "")
    )
    (path "/14ef10f7-b9a8-41aa-95c9-c24d01422c84"
      (reference "#PWR0110") (unit 1) (value "GND") (footprint "")
    )
    (path "/a5e6dfd3-f64c-493e-b359-6c5d782486ae"
      (reference "#PWR0112") (unit 1) (value "+12V") (footprint "")
    )
    (path "/8684cbfd-3feb-4ed1-a38d-406289192894"
      (reference "#PWR0113") (unit 1) (value "GNDA") (footprint "")
    )
    (path "/f0be990e-3add-4755-a2d3-244a5d79171c"
      (reference "H1") (unit 1) (value "MountingHole") (footprint "MountingHole:MountingHole_2.1mm")
    )
    (path "/9c0a374c-31a0-49ba-8d62-c88cab8f7d2c"
      (reference "H2") (unit 1) (value "MountingHole") (footprint "MountingHole:MountingHole_2.1mm")
    )
    (path "/6ced2289-2756-4f10-9da3-112e226c2d88"
      (reference "J1") (unit 1) (value "Conn_02x03_Odd_Even") (footprint "Connector_PinHeader_1.27mm:PinHeader_2x03_P1.27mm_Vertical")
    )
    (path "/7b519475-3c7f-4f80-8647-edd0c451dac6"
      (reference "J2") (unit 1) (value "Conn_01x02") (footprint "Connector_PinHeader_2.54mm:PinHeader_1x02_P2.54mm_Vertical")
    )
    (path "/a30c3792-95b1-4140-a655-be029f8bdff0"
      (reference "J3") (unit 1) (value "Conn_01x02") (footprint "Connector_PinHeader_2.54mm:PinHeader_1x02_P2.54mm_Vertical")
    )
    (path "/95de49fc-9b8e-4622-9518-cf409a876652"
      (reference "Q1") (unit 1) (value "EE-SX1105") (footprint "footprints:EE-SX1105")
    )
    (path "/8d611e76-96dc-45e2-adfc-20b6aba12520"
      (reference "Q2") (unit 1) (value "EE-SX1105") (footprint "footprints:EE-SX1105")
    )
    (path "/51d3fa04-bb77-4b6c-8067-288d5036b916"
      (reference "R1") (unit 1) (value "180") (footprint "Resistor_SMD:R_0603_1608Metric_Pad0.98x0.95mm_HandSolder")
    )
    (path "/39d5ce1e-5b64-4414-af57-450ef551062d"
      (reference "R2") (unit 1) (value "10k") (footprint "Resistor_SMD:R_0603_1608Metric_Pad0.98x0.95mm_HandSolder")
    )
    (path "/2d942927-6faa-448c-b1ca-6b0f4c36d9d0"
      (reference "R3") (unit 1) (value "10k") (footprint "Resistor_SMD:R_0603_1608Metric_Pad0.98x0.95mm_HandSolder")
    )
    (path "/4df18184-b91b-40eb-b7d8-eed3d1ad68f9"
      (reference "TH1") (unit 1) (value "Thermistor_NTC") (footprint "Connector_PinSocket_2.54mm:PinSocket_1x02_P2.54mm_Vertical")
    )
    (path "/21195d55-5392-411e-9352-aa2747284ecb"
      (reference "U1") (unit 1) (value "SN74LVC2G17DCKT") (footprint "Package_TO_SOT_SMD:SOT-23-6_Handsoldering")
    )
  )
)
