(kicad_sch (version 20210406) (generator eeschema)

  (uuid de5f8d92-5766-4b19-864c-adc400991a7d)

  (paper "A4")

  (title_block
    (date "2021-04-25")
    (rev "0.1")
  )

  (lib_symbols
    (symbol "2021-04-25_18-55-55:EE-SX1105" (pin_names (offset 0) hide) (in_bom yes) (on_board yes)
      (property "Reference" "Q" (id 0) (at 22.86 15.24 0)
        (effects (font (size 1.524 1.524)))
      )
      (property "Value" "EE-SX1105" (id 1) (at 22.86 10.16 0)
        (effects (font (size 1.524 1.524)))
      )
      (property "Footprint" "EE-SX1105_OMR" (id 2) (at 22.86 8.636 0)
        (effects (font (size 1.524 1.524)) hide)
      )
      (property "Datasheet" "" (id 3) (at 0 0 0)
        (effects (font (size 1.524 1.524)))
      )
      (property "ki_locked" "" (id 4) (at 0 0 0)
        (effects (font (size 1.27 1.27)))
      )
      (property "ki_fp_filters" "EE-SX1105_OMR" (id 5) (at 0 0 0)
        (effects (font (size 1.27 1.27)) hide)
      )
      (symbol "EE-SX1105_1_1"
        (polyline
          (pts
            (xy 7.62 -20.32)
            (xy 35.56 -20.32)
          )
          (stroke (width 0.127)) (fill (type none))
        )
        (polyline
          (pts
            (xy 7.62 -15.24)
            (xy 12.7 -15.24)
          )
          (stroke (width 0.127)) (fill (type none))
        )
        (polyline
          (pts
            (xy 7.62 5.08)
            (xy 7.62 -20.32)
          )
          (stroke (width 0.127)) (fill (type none))
        )
        (polyline
          (pts
            (xy 12.7 -12.7)
            (xy 12.7 -15.24)
          )
          (stroke (width 0.127)) (fill (type none))
        )
        (polyline
          (pts
            (xy 12.7 -2.54)
            (xy 12.7 0)
          )
          (stroke (width 0.127)) (fill (type none))
        )
        (polyline
          (pts
            (xy 12.7 -2.54)
            (xy 15.24 -5.08)
          )
          (stroke (width 0.127)) (fill (type none))
        )
        (polyline
          (pts
            (xy 12.7 0)
            (xy 7.62 0)
          )
          (stroke (width 0.127)) (fill (type none))
        )
        (polyline
          (pts
            (xy 15.24 -12.7)
            (xy 15.24 -2.54)
          )
          (stroke (width 0.127)) (fill (type none))
        )
        (polyline
          (pts
            (xy 15.24 -10.16)
            (xy 12.7 -12.7)
          )
          (stroke (width 0.127)) (fill (type none))
        )
        (polyline
          (pts
            (xy 25.4 -7.62)
            (xy 20.32 -7.62)
          )
          (stroke (width 0.127)) (fill (type none))
        )
        (polyline
          (pts
            (xy 25.4 -5.08)
            (xy 20.32 -5.08)
          )
          (stroke (width 0.127)) (fill (type none))
        )
        (polyline
          (pts
            (xy 30.48 -10.16)
            (xy 35.56 -10.16)
          )
          (stroke (width 0.127)) (fill (type none))
        )
        (polyline
          (pts
            (xy 30.48 -2.54)
            (xy 30.48 -10.16)
          )
          (stroke (width 0.127)) (fill (type none))
        )
        (polyline
          (pts
            (xy 30.48 -2.54)
            (xy 35.56 -2.54)
          )
          (stroke (width 0.127)) (fill (type none))
        )
        (polyline
          (pts
            (xy 32.385 -6.985)
            (xy 28.575 -6.985)
          )
          (stroke (width 0.127)) (fill (type none))
        )
        (polyline
          (pts
            (xy 35.56 -20.32)
            (xy 35.56 5.08)
          )
          (stroke (width 0.127)) (fill (type none))
        )
        (polyline
          (pts
            (xy 35.56 5.08)
            (xy 7.62 5.08)
          )
          (stroke (width 0.127)) (fill (type none))
        )
        (polyline
          (pts
            (xy 19.0246 -5.0292)
            (xy 20.2946 -5.6642)
            (xy 20.2946 -4.3942)
            (xy 19.0246 -5.0292)
          )
          (stroke (width 0)) (fill (type outline))
        )
        (polyline
          (pts
            (xy 19.0754 -7.62)
            (xy 20.3454 -8.255)
            (xy 20.3454 -6.985)
            (xy 19.0754 -7.62)
          )
          (stroke (width 0)) (fill (type outline))
        )
        (polyline
          (pts
            (xy 12.7508 -12.7)
            (xy 13.6144 -12.4206)
            (xy 12.954 -11.811)
            (xy 12.6492 -12.7)
            (xy 12.7508 -12.7)
          )
          (stroke (width 0)) (fill (type outline))
        )
        (polyline
          (pts
            (xy 28.575 -5.08)
            (xy 32.385 -5.08)
            (xy 30.48 -6.985)
            (xy 28.575 -5.08)
            (xy 28.575 -5.08)
          )
          (stroke (width 0)) (fill (type outline))
        )
        (pin unspecified line (at 0 0 0) (length 7.62)
          (name "1" (effects (font (size 1.4986 1.4986))))
          (number "1" (effects (font (size 1.4986 1.4986))))
        )
        (pin unspecified line (at 0 -15.24 0) (length 7.62)
          (name "2" (effects (font (size 1.4986 1.4986))))
          (number "2" (effects (font (size 1.4986 1.4986))))
        )
        (pin unspecified line (at 43.18 -10.16 180) (length 7.62)
          (name "3" (effects (font (size 1.4986 1.4986))))
          (number "3" (effects (font (size 1.4986 1.4986))))
        )
        (pin unspecified line (at 43.18 -2.54 180) (length 7.62)
          (name "4" (effects (font (size 1.4986 1.4986))))
          (number "4" (effects (font (size 1.4986 1.4986))))
        )
      )
    )
    (symbol "Device:R" (pin_numbers hide) (pin_names (offset 0)) (in_bom yes) (on_board yes)
      (property "Reference" "R" (id 0) (at 2.032 0 90)
        (effects (font (size 1.27 1.27)))
      )
      (property "Value" "R" (id 1) (at 0 0 90)
        (effects (font (size 1.27 1.27)))
      )
      (property "Footprint" "" (id 2) (at -1.778 0 90)
        (effects (font (size 1.27 1.27)) hide)
      )
      (property "Datasheet" "~" (id 3) (at 0 0 0)
        (effects (font (size 1.27 1.27)) hide)
      )
      (property "ki_keywords" "R res resistor" (id 4) (at 0 0 0)
        (effects (font (size 1.27 1.27)) hide)
      )
      (property "ki_description" "Resistor" (id 5) (at 0 0 0)
        (effects (font (size 1.27 1.27)) hide)
      )
      (property "ki_fp_filters" "R_*" (id 6) (at 0 0 0)
        (effects (font (size 1.27 1.27)) hide)
      )
      (symbol "R_0_1"
        (rectangle (start -1.016 -2.54) (end 1.016 2.54)
          (stroke (width 0.254)) (fill (type none))
        )
      )
      (symbol "R_1_1"
        (pin passive line (at 0 3.81 270) (length 1.27)
          (name "~" (effects (font (size 1.27 1.27))))
          (number "1" (effects (font (size 1.27 1.27))))
        )
        (pin passive line (at 0 -3.81 90) (length 1.27)
          (name "~" (effects (font (size 1.27 1.27))))
          (number "2" (effects (font (size 1.27 1.27))))
        )
      )
    )
    (symbol "power:+5V" (power) (pin_names (offset 0)) (in_bom yes) (on_board yes)
      (property "Reference" "#PWR" (id 0) (at 0 -3.81 0)
        (effects (font (size 1.27 1.27)) hide)
      )
      (property "Value" "+5V" (id 1) (at 0 3.556 0)
        (effects (font (size 1.27 1.27)))
      )
      (property "Footprint" "" (id 2) (at 0 0 0)
        (effects (font (size 1.27 1.27)) hide)
      )
      (property "Datasheet" "" (id 3) (at 0 0 0)
        (effects (font (size 1.27 1.27)) hide)
      )
      (property "ki_keywords" "power-flag" (id 4) (at 0 0 0)
        (effects (font (size 1.27 1.27)) hide)
      )
      (property "ki_description" "Power symbol creates a global label with name \"+5V\"" (id 5) (at 0 0 0)
        (effects (font (size 1.27 1.27)) hide)
      )
      (symbol "+5V_0_1"
        (polyline
          (pts
            (xy -0.762 1.27)
            (xy 0 2.54)
          )
          (stroke (width 0)) (fill (type none))
        )
        (polyline
          (pts
            (xy 0 0)
            (xy 0 2.54)
          )
          (stroke (width 0)) (fill (type none))
        )
        (polyline
          (pts
            (xy 0 2.54)
            (xy 0.762 1.27)
          )
          (stroke (width 0)) (fill (type none))
        )
      )
      (symbol "+5V_1_1"
        (pin power_in line (at 0 0 90) (length 0) hide
          (name "+5V" (effects (font (size 1.27 1.27))))
          (number "1" (effects (font (size 1.27 1.27))))
        )
      )
    )
    (symbol "power:GND" (power) (pin_names (offset 0)) (in_bom yes) (on_board yes)
      (property "Reference" "#PWR" (id 0) (at 0 -6.35 0)
        (effects (font (size 1.27 1.27)) hide)
      )
      (property "Value" "GND" (id 1) (at 0 -3.81 0)
        (effects (font (size 1.27 1.27)))
      )
      (property "Footprint" "" (id 2) (at 0 0 0)
        (effects (font (size 1.27 1.27)) hide)
      )
      (property "Datasheet" "" (id 3) (at 0 0 0)
        (effects (font (size 1.27 1.27)) hide)
      )
      (property "ki_keywords" "power-flag" (id 4) (at 0 0 0)
        (effects (font (size 1.27 1.27)) hide)
      )
      (property "ki_description" "Power symbol creates a global label with name \"GND\" , ground" (id 5) (at 0 0 0)
        (effects (font (size 1.27 1.27)) hide)
      )
      (symbol "GND_0_1"
        (polyline
          (pts
            (xy 0 0)
            (xy 0 -1.27)
            (xy 1.27 -1.27)
            (xy 0 -2.54)
            (xy -1.27 -1.27)
            (xy 0 -1.27)
          )
          (stroke (width 0)) (fill (type none))
        )
      )
      (symbol "GND_1_1"
        (pin power_in line (at 0 0 270) (length 0) hide
          (name "GND" (effects (font (size 1.27 1.27))))
          (number "1" (effects (font (size 1.27 1.27))))
        )
      )
    )
  )


  (wire (pts (xy 113.03 90.805) (xy 113.03 94.615))
    (stroke (width 0) (type solid) (color 0 0 0 0))
    (uuid 91e9e7db-6f6e-4af3-bfa0-33ee23a81bda)
  )
  (wire (pts (xy 113.03 94.615) (xy 115.57 94.615))
    (stroke (width 0) (type solid) (color 0 0 0 0))
    (uuid e12595c9-b604-4631-b73c-35f12dc143fa)
  )
  (wire (pts (xy 113.03 109.855) (xy 113.03 113.665))
    (stroke (width 0) (type solid) (color 0 0 0 0))
    (uuid ec8a1306-4240-4ce9-a661-7cf8cbd586ab)
  )
  (wire (pts (xy 113.03 109.855) (xy 115.57 109.855))
    (stroke (width 0) (type solid) (color 0 0 0 0))
    (uuid 120c1789-0774-41cd-88e7-b62fe35e44e5)
  )
  (wire (pts (xy 158.75 97.155) (xy 161.29 97.155))
    (stroke (width 0) (type solid) (color 0 0 0 0))
    (uuid 61bb8ca7-0212-4824-99dd-c188b2af8f0d)
  )
  (wire (pts (xy 158.75 104.775) (xy 161.29 104.775))
    (stroke (width 0) (type solid) (color 0 0 0 0))
    (uuid 5c3beead-1681-4684-9938-7c26bd81b4bc)
  )
  (wire (pts (xy 161.29 104.775) (xy 161.29 107.315))
    (stroke (width 0) (type solid) (color 0 0 0 0))
    (uuid ba087a8b-6220-41f2-9139-0da4824b8706)
  )
  (wire (pts (xy 168.91 97.155) (xy 172.085 97.155))
    (stroke (width 0) (type solid) (color 0 0 0 0))
    (uuid 3348ab4e-ac80-4fe6-8e29-90f8590cd670)
  )
  (wire (pts (xy 172.085 91.44) (xy 172.085 97.155))
    (stroke (width 0) (type solid) (color 0 0 0 0))
    (uuid 32a34bba-0c4b-4c00-9423-7330f74ffad0)
  )

  (hierarchical_label "OUT" (shape input) (at 113.03 109.855 180)
    (effects (font (size 1.27 1.27)) (justify right))
    (uuid cbbca2d4-0731-457e-9092-4d82922522dd)
  )

  (symbol (lib_id "power:+5V") (at 113.03 90.805 0)
    (in_bom yes) (on_board yes) (fields_autoplaced)
    (uuid 395fc04e-1310-41fa-b465-ebd5ff2f9259)
    (property "Reference" "#PWR?" (id 0) (at 113.03 94.615 0)
      (effects (font (size 1.27 1.27)) hide)
    )
    (property "Value" "+5V" (id 1) (at 113.03 86.995 0))
    (property "Footprint" "" (id 2) (at 113.03 90.805 0)
      (effects (font (size 1.27 1.27)) hide)
    )
    (property "Datasheet" "" (id 3) (at 113.03 90.805 0)
      (effects (font (size 1.27 1.27)) hide)
    )
    (pin "1" (uuid 8da2b7f0-e48d-4889-8fe2-6ac403021190))
  )

  (symbol (lib_id "power:+5V") (at 172.085 91.44 0)
    (in_bom yes) (on_board yes) (fields_autoplaced)
    (uuid 8fb50124-d7ec-41f6-9c09-bb8d242cc0ac)
    (property "Reference" "#PWR?" (id 0) (at 172.085 95.25 0)
      (effects (font (size 1.27 1.27)) hide)
    )
    (property "Value" "+5V" (id 1) (at 172.085 87.63 0))
    (property "Footprint" "" (id 2) (at 172.085 91.44 0)
      (effects (font (size 1.27 1.27)) hide)
    )
    (property "Datasheet" "" (id 3) (at 172.085 91.44 0)
      (effects (font (size 1.27 1.27)) hide)
    )
    (pin "1" (uuid 39c27efe-eecd-4b67-b5c0-a43cb007c3ec))
  )

  (symbol (lib_id "power:GND") (at 113.03 121.285 0)
    (in_bom yes) (on_board yes) (fields_autoplaced)
    (uuid c28da3c7-17ce-42f0-bf33-f1c17003419e)
    (property "Reference" "#PWR?" (id 0) (at 113.03 127.635 0)
      (effects (font (size 1.27 1.27)) hide)
    )
    (property "Value" "GND" (id 1) (at 113.03 125.73 0))
    (property "Footprint" "" (id 2) (at 113.03 121.285 0)
      (effects (font (size 1.27 1.27)) hide)
    )
    (property "Datasheet" "" (id 3) (at 113.03 121.285 0)
      (effects (font (size 1.27 1.27)) hide)
    )
    (pin "1" (uuid ecf24346-7ac5-476e-83ae-67dcff54f0f8))
  )

  (symbol (lib_id "power:GND") (at 161.29 107.315 0)
    (in_bom yes) (on_board yes) (fields_autoplaced)
    (uuid e4d3743e-6541-4936-8eaf-9ee3e72f1f8f)
    (property "Reference" "#PWR?" (id 0) (at 161.29 113.665 0)
      (effects (font (size 1.27 1.27)) hide)
    )
    (property "Value" "GND" (id 1) (at 161.29 111.76 0))
    (property "Footprint" "" (id 2) (at 161.29 107.315 0)
      (effects (font (size 1.27 1.27)) hide)
    )
    (property "Datasheet" "" (id 3) (at 161.29 107.315 0)
      (effects (font (size 1.27 1.27)) hide)
    )
    (pin "1" (uuid 964f89c2-f313-44d4-89ab-93d47f837df4))
  )

  (symbol (lib_id "Device:R") (at 113.03 117.475 180)
    (in_bom yes) (on_board yes) (fields_autoplaced)
    (uuid 58dfd35c-68ec-4204-8800-20b9a6e4e697)
    (property "Reference" "R?" (id 0) (at 115.57 116.8399 0)
      (effects (font (size 1.27 1.27)) (justify right))
    )
    (property "Value" "10k" (id 1) (at 115.57 119.3799 0)
      (effects (font (size 1.27 1.27)) (justify right))
    )
    (property "Footprint" "" (id 2) (at 114.808 117.475 90)
      (effects (font (size 1.27 1.27)) hide)
    )
    (property "Datasheet" "~" (id 3) (at 113.03 117.475 0)
      (effects (font (size 1.27 1.27)) hide)
    )
    (pin "1" (uuid 4ac4d2ef-1aeb-4350-9ccd-f7a30bdc59a7))
    (pin "2" (uuid cafa509e-4908-473b-950d-59309f3b3b10))
  )

  (symbol (lib_id "Device:R") (at 165.1 97.155 90)
    (in_bom yes) (on_board yes) (fields_autoplaced)
    (uuid 06d9b655-4fbf-47d3-8f43-87732d08ce6b)
    (property "Reference" "R?" (id 0) (at 165.1 92.075 90))
    (property "Value" "100" (id 1) (at 165.1 94.615 90))
    (property "Footprint" "" (id 2) (at 165.1 98.933 90)
      (effects (font (size 1.27 1.27)) hide)
    )
    (property "Datasheet" "~" (id 3) (at 165.1 97.155 0)
      (effects (font (size 1.27 1.27)) hide)
    )
    (pin "1" (uuid a0b4b97f-0a70-4366-9781-cd826387277e))
    (pin "2" (uuid 5b83ec81-953f-4805-8bd0-a9418f9e9696))
  )

  (symbol (lib_id "2021-04-25_18-55-55:EE-SX1105") (at 115.57 94.615 0)
    (in_bom yes) (on_board yes) (fields_autoplaced)
    (uuid 801e62a5-ffa3-42a0-ad3a-cb54ee124006)
    (property "Reference" "Q?" (id 0) (at 137.16 84.455 0)
      (effects (font (size 1.524 1.524)))
    )
    (property "Value" "EE-SX1105" (id 1) (at 137.16 86.995 0)
      (effects (font (size 1.524 1.524)))
    )
    (property "Footprint" "EE-SX1105_OMR" (id 2) (at 138.43 85.979 0)
      (effects (font (size 1.524 1.524)) hide)
    )
    (property "Datasheet" "" (id 3) (at 115.57 94.615 0)
      (effects (font (size 1.524 1.524)))
    )
    (pin "1" (uuid a15e2476-89aa-4974-ba4a-fbd14b39778d))
    (pin "2" (uuid e526da2a-e7ef-4131-be53-20556717162a))
    (pin "3" (uuid 3e37c843-61fa-429a-ab40-5235e17ab709))
    (pin "4" (uuid 6ed54e0c-3862-4132-b2c3-688126aedc44))
  )
)
