%!PS-Adobe-3.0
%%Creator: PCBNEW
%%CreationDate: Sat Mar 13 22:51:31 2021
%%Title: /home/uli/Documents/KiCad/Boards/LED/Display7segx4/fab/Display7segx4-NPTH-drl_map.ps
%%Pages: 1
%%PageOrder: Ascend
%%BoundingBox: 0 0 596 842
%%DocumentMedia: A4 595 842 0 () ()
%%Orientation: Landscape
%%EndComments
%%BeginProlog
/line { newpath moveto lineto stroke } bind def
/cir0 { newpath 0 360 arc stroke } bind def
/cir1 { newpath 0 360 arc gsave fill grestore stroke } bind def
/cir2 { newpath 0 360 arc gsave fill grestore stroke } bind def
/arc0 { newpath arc stroke } bind def
/arc1 { newpath 4 index 4 index moveto arc closepath gsave fill
    grestore stroke } bind def
/arc2 { newpath 4 index 4 index moveto arc closepath gsave fill
    grestore stroke } bind def
/poly0 { stroke } bind def
/poly1 { closepath gsave fill grestore stroke } bind def
/poly2 { closepath gsave fill grestore stroke } bind def
/rect0 { rectstroke } bind def
/rect1 { rectfill } bind def
/rect2 { rectfill } bind def
/linemode0 { 0 setlinecap 0 setlinejoin 0 setlinewidth } bind def
/linemode1 { 1 setlinecap 1 setlinejoin } bind def
/dashedline { [200] 100 setdash } bind def
/solidline { [] 0 setdash } bind def
/phantomshow { moveto
    /KicadFont findfont 0.000001 scalefont setfont
    show } bind def
/textshow { gsave
    findfont exch scalefont setfont concat 1 scale 0 0 moveto show
    } bind def
/reencodefont {
  findfont dup length dict begin
  { 1 index /FID ne
    { def }
    { pop pop } ifelse
  } forall
  /Encoding ISOLatin1Encoding def
  currentdict
  end } bind def
/KicadFont /Helvetica reencodefont definefont pop
/KicadFont-Bold /Helvetica-Bold reencodefont definefont pop
/KicadFont-Oblique /Helvetica-Oblique reencodefont definefont pop
/KicadFont-BoldOblique /Helvetica-BoldOblique reencodefont definefont pop
%%EndProlog
%%Page: 1 1
%%BeginPageSetup
gsave
0.0072 0.0072 scale
linemode1
82680 0 translate 90 rotate
150 setlinewidth
%%EndPageSetup
0 0 0 setrgbcolor
59.0551 setlinewidth
87715 44001 1500 -90 -0 arc0
0 0 0 setrgbcolor
29215 44001 1500 180 270 arc0
0 0 0 setrgbcolor
29215 71751 1500 90 180 arc0
0 0 0 setrgbcolor
87715 71751 1500 -0 90 arc0
0 0 0 setrgbcolor
newpath
89215 71751 moveto
89215 44001 lineto
stroke
0 0 0 setrgbcolor
newpath
29215 73251 moveto
87715 73251 lineto
stroke
0 0 0 setrgbcolor
newpath
29215 42501 moveto
87715 42501 lineto
stroke
0 0 0 setrgbcolor
newpath
27715 71751 moveto
27715 44001 lineto
stroke
78.7394 setlinewidth
118.11 setlinewidth
0 0 0 setrgbcolor
0 0 0 setrgbcolor
newpath
28813.1 40638 moveto
28813.1 41819.1 lineto
29094.4 41819.1 lineto
29263.1 41762.8 lineto
29375.6 41650.3 lineto
29431.8 41537.8 lineto
29488.1 41312.9 lineto
29488.1 41144.1 lineto
29431.8 40919.2 lineto
29375.6 40806.7 lineto
29263.1 40694.2 lineto
29094.4 40638 lineto
28813.1 40638 lineto
stroke
newpath
29994.2 40638 moveto
29994.2 41425.4 lineto
stroke
newpath
29994.2 41200.4 moveto
30050.5 41312.9 lineto
30106.7 41369.1 lineto
30219.2 41425.4 lineto
30331.7 41425.4 lineto
stroke
newpath
30725.4 40638 moveto
30725.4 41425.4 lineto
stroke
newpath
30725.4 41819.1 moveto
30669.2 41762.8 lineto
30725.4 41706.6 lineto
30781.6 41762.8 lineto
30725.4 41819.1 lineto
30725.4 41706.6 lineto
stroke
newpath
31456.6 40638 moveto
31344.1 40694.2 lineto
31287.8 40806.7 lineto
31287.8 41819.1 lineto
stroke
newpath
32075.2 40638 moveto
31962.7 40694.2 lineto
31906.5 40806.7 lineto
31906.5 41819.1 lineto
stroke
newpath
33425.1 40638 moveto
33425.1 41819.1 lineto
33818.8 40975.4 lineto
34212.5 41819.1 lineto
34212.5 40638 lineto
stroke
newpath
35281.1 40638 moveto
35281.1 41256.6 lineto
35224.8 41369.1 lineto
35112.4 41425.4 lineto
34887.4 41425.4 lineto
34774.9 41369.1 lineto
stroke
newpath
35281.1 40694.2 moveto
35168.6 40638 lineto
34887.4 40638 lineto
34774.9 40694.2 lineto
34718.7 40806.7 lineto
34718.7 40919.2 lineto
34774.9 41031.7 lineto
34887.4 41087.9 lineto
35168.6 41087.9 lineto
35281.1 41144.1 lineto
stroke
newpath
35843.5 41425.4 moveto
35843.5 40244.2 lineto
stroke
newpath
35843.5 41369.1 moveto
35956 41425.4 lineto
36181 41425.4 lineto
36293.5 41369.1 lineto
36349.7 41312.9 lineto
36405.9 41200.4 lineto
36405.9 40862.9 lineto
36349.7 40750.4 lineto
36293.5 40694.2 lineto
36181 40638 lineto
35956 40638 lineto
35843.5 40694.2 lineto
stroke
newpath
36912.1 40750.4 moveto
36968.4 40694.2 lineto
36912.1 40638 lineto
36855.9 40694.2 lineto
36912.1 40750.4 lineto
36912.1 40638 lineto
stroke
newpath
36912.1 41369.1 moveto
36968.4 41312.9 lineto
36912.1 41256.6 lineto
36855.9 41312.9 lineto
36912.1 41369.1 lineto
36912.1 41256.6 lineto
stroke
showpage
grestore
%%EOF
