%!PS-Adobe-3.0
%%Creator: PCBNEW
%%CreationDate: Sat Mar 13 23:47:17 2021
%%Title: /home/uli/Documents/KiCad/Boards/LED/LED_SMD_x10/Gerber/LED_SMD_x10-PTH-drl_map.ps
%%Pages: 1
%%PageOrder: Ascend
%%BoundingBox: 0 0 596 842
%%DocumentMedia: A4 595 842 0 () ()
%%Orientation: Landscape
%%EndComments
%%BeginProlog
/line { newpath moveto lineto stroke } bind def
/cir0 { newpath 0 360 arc stroke } bind def
/cir1 { newpath 0 360 arc gsave fill grestore stroke } bind def
/cir2 { newpath 0 360 arc gsave fill grestore stroke } bind def
/arc0 { newpath arc stroke } bind def
/arc1 { newpath 4 index 4 index moveto arc closepath gsave fill
    grestore stroke } bind def
/arc2 { newpath 4 index 4 index moveto arc closepath gsave fill
    grestore stroke } bind def
/poly0 { stroke } bind def
/poly1 { closepath gsave fill grestore stroke } bind def
/poly2 { closepath gsave fill grestore stroke } bind def
/rect0 { rectstroke } bind def
/rect1 { rectfill } bind def
/rect2 { rectfill } bind def
/linemode0 { 0 setlinecap 0 setlinejoin 0 setlinewidth } bind def
/linemode1 { 1 setlinecap 1 setlinejoin } bind def
/dashedline { [200] 100 setdash } bind def
/solidline { [] 0 setdash } bind def
/phantomshow { moveto
    /KicadFont findfont 0.000001 scalefont setfont
    show } bind def
/textshow { gsave
    findfont exch scalefont setfont concat 1 scale 0 0 moveto show
    } bind def
/reencodefont {
  findfont dup length dict begin
  { 1 index /FID ne
    { def }
    { pop pop } ifelse
  } forall
  /Encoding ISOLatin1Encoding def
  currentdict
  end } bind def
/KicadFont /Helvetica reencodefont definefont pop
/KicadFont-Bold /Helvetica-Bold reencodefont definefont pop
/KicadFont-Oblique /Helvetica-Oblique reencodefont definefont pop
/KicadFont-BoldOblique /Helvetica-BoldOblique reencodefont definefont pop
%%EndProlog
%%Page: 1 1
%%BeginPageSetup
gsave
0.0072 0.0072 scale
linemode1
82680 0 translate 90 rotate
150 setlinewidth
%%EndPageSetup
0 0 0 setrgbcolor
59.0551 setlinewidth
newpath
41365 63276 moveto
41365 52476 lineto
stroke
0 0 0 setrgbcolor
newpath
74965 63876 moveto
41965 63876 lineto
stroke
0 0 0 setrgbcolor
newpath
75565 52476 moveto
75565 63276 lineto
stroke
0 0 0 setrgbcolor
newpath
41965 51876 moveto
74965 51876 lineto
stroke
0 0 0 setrgbcolor
41965 63276 600 90 180 arc0
0 0 0 setrgbcolor
74965 63276 600 -0 90 arc0
0 0 0 setrgbcolor
74965 52476 600 -90 -0 arc0
0 0 0 setrgbcolor
41965 52476 600 180 270 arc0
78.7394 setlinewidth
newpath
43024.4 54476.6 moveto
44205.6 53295.4 lineto
stroke
newpath
44205.6 54476.6 moveto
43024.4 53295.4 lineto
stroke
newpath
46024.4 54476.6 moveto
47205.6 53295.4 lineto
stroke
newpath
47205.6 54476.6 moveto
46024.4 53295.4 lineto
stroke
newpath
49024.4 54476.6 moveto
50205.6 53295.4 lineto
stroke
newpath
50205.6 54476.6 moveto
49024.4 53295.4 lineto
stroke
newpath
52024.4 54476.6 moveto
53205.6 53295.4 lineto
stroke
newpath
53205.6 54476.6 moveto
52024.4 53295.4 lineto
stroke
newpath
55024.4 54476.6 moveto
56205.6 53295.4 lineto
stroke
newpath
56205.6 54476.6 moveto
55024.4 53295.4 lineto
stroke
newpath
58024.4 54476.6 moveto
59205.6 53295.4 lineto
stroke
newpath
59205.6 54476.6 moveto
58024.4 53295.4 lineto
stroke
newpath
61024.4 54476.6 moveto
62205.6 53295.4 lineto
stroke
newpath
62205.6 54476.6 moveto
61024.4 53295.4 lineto
stroke
newpath
64024.4 54476.6 moveto
65205.6 53295.4 lineto
stroke
newpath
65205.6 54476.6 moveto
64024.4 53295.4 lineto
stroke
newpath
67024.4 54476.6 moveto
68205.6 53295.4 lineto
stroke
newpath
68205.6 54476.6 moveto
67024.4 53295.4 lineto
stroke
newpath
70024.4 54476.6 moveto
71205.6 53295.4 lineto
stroke
newpath
71205.6 54476.6 moveto
70024.4 53295.4 lineto
stroke
newpath
73024.4 54476.6 moveto
74205.6 53295.4 lineto
stroke
newpath
74205.6 54476.6 moveto
73024.4 53295.4 lineto
stroke
118.11 setlinewidth
0 0 0 setrgbcolor
0 0 0 setrgbcolor
newpath
42463.1 50013 moveto
42463.1 51194.1 lineto
42744.4 51194.1 lineto
42913.1 51137.8 lineto
43025.6 51025.3 lineto
43081.8 50912.8 lineto
43138.1 50687.9 lineto
43138.1 50519.1 lineto
43081.8 50294.2 lineto
43025.6 50181.7 lineto
42913.1 50069.2 lineto
42744.4 50013 lineto
42463.1 50013 lineto
stroke
newpath
43644.2 50013 moveto
43644.2 50800.4 lineto
stroke
newpath
43644.2 50575.4 moveto
43700.5 50687.9 lineto
43756.7 50744.1 lineto
43869.2 50800.4 lineto
43981.7 50800.4 lineto
stroke
newpath
44375.4 50013 moveto
44375.4 50800.4 lineto
stroke
newpath
44375.4 51194.1 moveto
44319.2 51137.8 lineto
44375.4 51081.6 lineto
44431.6 51137.8 lineto
44375.4 51194.1 lineto
44375.4 51081.6 lineto
stroke
newpath
45106.6 50013 moveto
44994.1 50069.2 lineto
44937.8 50181.7 lineto
44937.8 51194.1 lineto
stroke
newpath
45725.2 50013 moveto
45612.7 50069.2 lineto
45556.5 50181.7 lineto
45556.5 51194.1 lineto
stroke
newpath
47075.1 50013 moveto
47075.1 51194.1 lineto
47468.8 50350.4 lineto
47862.5 51194.1 lineto
47862.5 50013 lineto
stroke
newpath
48931.1 50013 moveto
48931.1 50631.6 lineto
48874.8 50744.1 lineto
48762.4 50800.4 lineto
48537.4 50800.4 lineto
48424.9 50744.1 lineto
stroke
newpath
48931.1 50069.2 moveto
48818.6 50013 lineto
48537.4 50013 lineto
48424.9 50069.2 lineto
48368.7 50181.7 lineto
48368.7 50294.2 lineto
48424.9 50406.7 lineto
48537.4 50462.9 lineto
48818.6 50462.9 lineto
48931.1 50519.1 lineto
stroke
newpath
49493.5 50800.4 moveto
49493.5 49619.2 lineto
stroke
newpath
49493.5 50744.1 moveto
49606 50800.4 lineto
49831 50800.4 lineto
49943.5 50744.1 lineto
49999.7 50687.9 lineto
50055.9 50575.4 lineto
50055.9 50237.9 lineto
49999.7 50125.4 lineto
49943.5 50069.2 lineto
49831 50013 lineto
49606 50013 lineto
49493.5 50069.2 lineto
stroke
newpath
50562.1 50125.4 moveto
50618.4 50069.2 lineto
50562.1 50013 lineto
50505.9 50069.2 lineto
50562.1 50125.4 lineto
50562.1 50013 lineto
stroke
newpath
50562.1 50744.1 moveto
50618.4 50687.9 lineto
50562.1 50631.6 lineto
50505.9 50687.9 lineto
50562.1 50744.1 lineto
50562.1 50631.6 lineto
stroke
newpath
40154.4 48657.5 moveto
41335.5 47476.4 lineto
stroke
newpath
41335.5 48657.5 moveto
40154.4 47476.4 lineto
stroke
0 0 0 setrgbcolor
0 0 0 setrgbcolor
newpath
43081.8 47532.6 moveto
42406.9 47532.6 lineto
stroke
newpath
42744.4 47532.6 moveto
42744.4 48713.7 lineto
42631.9 48545 lineto
42519.4 48432.5 lineto
42406.9 48376.3 lineto
stroke
newpath
43588 47645.1 moveto
43644.2 47588.9 lineto
43588 47532.6 lineto
43531.8 47588.9 lineto
43588 47645.1 lineto
43588 47532.6 lineto
stroke
newpath
44375.4 48713.7 moveto
44487.9 48713.7 lineto
44600.4 48657.5 lineto
44656.6 48601.3 lineto
44712.9 48488.8 lineto
44769.1 48263.8 lineto
44769.1 47982.6 lineto
44712.9 47757.6 lineto
44656.6 47645.1 lineto
44600.4 47588.9 lineto
44487.9 47532.6 lineto
44375.4 47532.6 lineto
44262.9 47588.9 lineto
44206.7 47645.1 lineto
44150.4 47757.6 lineto
44094.2 47982.6 lineto
44094.2 48263.8 lineto
44150.4 48488.8 lineto
44206.7 48601.3 lineto
44262.9 48657.5 lineto
44375.4 48713.7 lineto
stroke
newpath
45500.3 48713.7 moveto
45612.7 48713.7 lineto
45725.2 48657.5 lineto
45781.5 48601.3 lineto
45837.7 48488.8 lineto
45894 48263.8 lineto
45894 47982.6 lineto
45837.7 47757.6 lineto
45781.5 47645.1 lineto
45725.2 47588.9 lineto
45612.7 47532.6 lineto
45500.3 47532.6 lineto
45387.8 47588.9 lineto
45331.5 47645.1 lineto
45275.3 47757.6 lineto
45219 47982.6 lineto
45219 48263.8 lineto
45275.3 48488.8 lineto
45331.5 48601.3 lineto
45387.8 48657.5 lineto
45500.3 48713.7 lineto
stroke
newpath
46400.2 47532.6 moveto
46400.2 48320 lineto
stroke
newpath
46400.2 48207.6 moveto
46456.4 48263.8 lineto
46568.9 48320 lineto
46737.6 48320 lineto
46850.1 48263.8 lineto
46906.3 48151.3 lineto
46906.3 47532.6 lineto
stroke
newpath
46906.3 48151.3 moveto
46962.6 48263.8 lineto
47075.1 48320 lineto
47243.8 48320 lineto
47356.3 48263.8 lineto
47412.5 48151.3 lineto
47412.5 47532.6 lineto
stroke
newpath
47975 47532.6 moveto
47975 48320 lineto
stroke
newpath
47975 48207.6 moveto
48031.2 48263.8 lineto
48143.7 48320 lineto
48312.4 48320 lineto
48424.9 48263.8 lineto
48481.1 48151.3 lineto
48481.1 47532.6 lineto
stroke
newpath
48481.1 48151.3 moveto
48537.4 48263.8 lineto
48649.9 48320 lineto
48818.6 48320 lineto
48931.1 48263.8 lineto
48987.3 48151.3 lineto
48987.3 47532.6 lineto
stroke
newpath
51293.3 48770 moveto
50280.9 47251.4 lineto
stroke
newpath
52811.8 48713.7 moveto
52924.3 48713.7 lineto
53036.8 48657.5 lineto
53093.1 48601.3 lineto
53149.3 48488.8 lineto
53205.6 48263.8 lineto
53205.6 47982.6 lineto
53149.3 47757.6 lineto
53093.1 47645.1 lineto
53036.8 47588.9 lineto
52924.3 47532.6 lineto
52811.8 47532.6 lineto
52699.4 47588.9 lineto
52643.1 47645.1 lineto
52586.9 47757.6 lineto
52530.6 47982.6 lineto
52530.6 48263.8 lineto
52586.9 48488.8 lineto
52643.1 48601.3 lineto
52699.4 48657.5 lineto
52811.8 48713.7 lineto
stroke
newpath
53711.7 47645.1 moveto
53768 47588.9 lineto
53711.7 47532.6 lineto
53655.5 47588.9 lineto
53711.7 47645.1 lineto
53711.7 47532.6 lineto
stroke
newpath
54499.1 48713.7 moveto
54611.6 48713.7 lineto
54724.1 48657.5 lineto
54780.4 48601.3 lineto
54836.6 48488.8 lineto
54892.8 48263.8 lineto
54892.8 47982.6 lineto
54836.6 47757.6 lineto
54780.4 47645.1 lineto
54724.1 47588.9 lineto
54611.6 47532.6 lineto
54499.1 47532.6 lineto
54386.7 47588.9 lineto
54330.4 47645.1 lineto
54274.2 47757.6 lineto
54217.9 47982.6 lineto
54217.9 48263.8 lineto
54274.2 48488.8 lineto
54330.4 48601.3 lineto
54386.7 48657.5 lineto
54499.1 48713.7 lineto
stroke
newpath
55286.5 48713.7 moveto
56017.7 48713.7 lineto
55624 48263.8 lineto
55792.7 48263.8 lineto
55905.2 48207.6 lineto
55961.5 48151.3 lineto
56017.7 48038.8 lineto
56017.7 47757.6 lineto
55961.5 47645.1 lineto
55905.2 47588.9 lineto
55792.7 47532.6 lineto
55455.3 47532.6 lineto
55342.8 47588.9 lineto
55286.5 47645.1 lineto
stroke
newpath
56580.1 47532.6 moveto
56805.1 47532.6 lineto
56917.6 47588.9 lineto
56973.8 47645.1 lineto
57086.3 47813.9 lineto
57142.6 48038.8 lineto
57142.6 48488.8 lineto
57086.3 48601.3 lineto
57030.1 48657.5 lineto
56917.6 48713.7 lineto
56692.6 48713.7 lineto
56580.1 48657.5 lineto
56523.9 48601.3 lineto
56467.6 48488.8 lineto
56467.6 48207.6 lineto
56523.9 48095.1 lineto
56580.1 48038.8 lineto
56692.6 47982.6 lineto
56917.6 47982.6 lineto
57030.1 48038.8 lineto
57086.3 48095.1 lineto
57142.6 48207.6 lineto
stroke
newpath
57592.5 48713.7 moveto
57592.5 48488.8 lineto
stroke
newpath
58042.4 48713.7 moveto
58042.4 48488.8 lineto
stroke
newpath
59786 47082.7 moveto
59729.7 47138.9 lineto
59617.2 47307.7 lineto
59561 47420.1 lineto
59504.8 47588.9 lineto
59448.5 47870.1 lineto
59448.5 48095.1 lineto
59504.8 48376.3 lineto
59561 48545 lineto
59617.2 48657.5 lineto
59729.7 48826.2 lineto
59786 48882.5 lineto
stroke
newpath
60854.6 47532.6 moveto
60179.7 47532.6 lineto
stroke
newpath
60517.1 47532.6 moveto
60517.1 48713.7 lineto
60404.7 48545 lineto
60292.2 48432.5 lineto
60179.7 48376.3 lineto
stroke
newpath
61979.5 47532.6 moveto
61304.5 47532.6 lineto
stroke
newpath
61642 47532.6 moveto
61642 48713.7 lineto
61529.5 48545 lineto
61417 48432.5 lineto
61304.5 48376.3 lineto
stroke
newpath
63385.5 47532.6 moveto
63385.5 48713.7 lineto
stroke
newpath
63891.7 47532.6 moveto
63891.7 48151.3 lineto
63835.5 48263.8 lineto
63723 48320 lineto
63554.3 48320 lineto
63441.8 48263.8 lineto
63385.5 48207.6 lineto
stroke
newpath
64622.9 47532.6 moveto
64510.4 47588.9 lineto
64454.1 47645.1 lineto
64397.9 47757.6 lineto
64397.9 48095.1 lineto
64454.1 48207.6 lineto
64510.4 48263.8 lineto
64622.9 48320 lineto
64791.6 48320 lineto
64904.1 48263.8 lineto
64960.3 48207.6 lineto
65016.6 48095.1 lineto
65016.6 47757.6 lineto
64960.3 47645.1 lineto
64904.1 47588.9 lineto
64791.6 47532.6 lineto
64622.9 47532.6 lineto
stroke
newpath
65691.5 47532.6 moveto
65579 47588.9 lineto
65522.8 47701.4 lineto
65522.8 48713.7 lineto
stroke
newpath
66591.4 47588.9 moveto
66478.9 47532.6 lineto
66253.9 47532.6 lineto
66141.4 47588.9 lineto
66085.2 47701.4 lineto
66085.2 48151.3 lineto
66141.4 48263.8 lineto
66253.9 48320 lineto
66478.9 48320 lineto
66591.4 48263.8 lineto
66647.6 48151.3 lineto
66647.6 48038.8 lineto
66085.2 47926.3 lineto
stroke
newpath
67097.6 47588.9 moveto
67210.1 47532.6 lineto
67435 47532.6 lineto
67547.5 47588.9 lineto
67603.8 47701.4 lineto
67603.8 47757.6 lineto
67547.5 47870.1 lineto
67435 47926.3 lineto
67266.3 47926.3 lineto
67153.8 47982.6 lineto
67097.6 48095.1 lineto
67097.6 48151.3 lineto
67153.8 48263.8 lineto
67266.3 48320 lineto
67435 48320 lineto
67547.5 48263.8 lineto
stroke
newpath
67997.5 47082.7 moveto
68053.7 47138.9 lineto
68166.2 47307.7 lineto
68222.4 47420.1 lineto
68278.7 47588.9 lineto
68334.9 47870.1 lineto
68334.9 48095.1 lineto
68278.7 48376.3 lineto
68222.4 48545 lineto
68166.2 48657.5 lineto
68053.7 48826.2 lineto
67997.5 48882.5 lineto
stroke
showpage
grestore
%%EOF
