EESchema Schematic File Version 4
EELAYER 30 0
EELAYER END
$Descr A4 11693 8268
encoding utf-8
Sheet 1 1
Title ""
Date ""
Rev ""
Comp ""
Comment1 ""
Comment2 ""
Comment3 ""
Comment4 ""
$EndDescr
$Comp
L Device:R R1
U 1 1 5D156B9D
P 6150 2825
F 0 "R1" V 6075 2825 50  0000 C CNN
F 1 "R" V 6150 2825 50  0000 C CNN
F 2 "Resistor_SMD:R_0603_1608Metric_Pad1.05x0.95mm_HandSolder" V 6080 2825 50  0001 C CNN
F 3 "~" H 6150 2825 50  0001 C CNN
	1    6150 2825
	0    1    1    0   
$EndComp
$Comp
L Device:LED D1
U 1 1 5D1575BB
P 6650 2825
F 0 "D1" H 6775 2775 50  0000 C CNN
F 1 "LED" H 6650 2925 50  0000 C CNN
F 2 "LED_SMD:LED_0603_1608Metric_Pad1.05x0.95mm_HandSolder" H 6650 2825 50  0001 C CNN
F 3 "~" H 6650 2825 50  0001 C CNN
	1    6650 2825
	-1   0    0    1   
$EndComp
$Comp
L Device:LED D2
U 1 1 5D157A44
P 6650 3025
F 0 "D2" H 6775 2975 50  0000 C CNN
F 1 "LED" H 6650 3125 50  0000 C CNN
F 2 "LED_SMD:LED_0603_1608Metric_Pad1.05x0.95mm_HandSolder" H 6650 3025 50  0001 C CNN
F 3 "~" H 6650 3025 50  0001 C CNN
	1    6650 3025
	-1   0    0    1   
$EndComp
Wire Wire Line
	6300 2825 6500 2825
Wire Wire Line
	6300 3025 6500 3025
$Comp
L Device:R R2
U 1 1 5D158451
P 6150 3025
F 0 "R2" V 6075 3025 50  0000 C CNN
F 1 "R" V 6150 3025 50  0000 C CNN
F 2 "Resistor_SMD:R_0603_1608Metric_Pad1.05x0.95mm_HandSolder" V 6080 3025 50  0001 C CNN
F 3 "~" H 6150 3025 50  0001 C CNN
	1    6150 3025
	0    1    1    0   
$EndComp
$Comp
L Device:R R3
U 1 1 5D1588E3
P 6150 3225
F 0 "R3" V 6075 3225 50  0000 C CNN
F 1 "R" V 6150 3225 50  0000 C CNN
F 2 "Resistor_SMD:R_0603_1608Metric_Pad1.05x0.95mm_HandSolder" V 6080 3225 50  0001 C CNN
F 3 "~" H 6150 3225 50  0001 C CNN
	1    6150 3225
	0    1    1    0   
$EndComp
$Comp
L Device:R R4
U 1 1 5D159279
P 6150 3425
F 0 "R4" V 6075 3425 50  0000 C CNN
F 1 "R" V 6150 3425 50  0000 C CNN
F 2 "Resistor_SMD:R_0603_1608Metric_Pad1.05x0.95mm_HandSolder" V 6080 3425 50  0001 C CNN
F 3 "~" H 6150 3425 50  0001 C CNN
	1    6150 3425
	0    1    1    0   
$EndComp
$Comp
L Device:R R5
U 1 1 5D159615
P 6150 3625
F 0 "R5" V 6075 3625 50  0000 C CNN
F 1 "R" V 6150 3625 50  0000 C CNN
F 2 "Resistor_SMD:R_0603_1608Metric_Pad1.05x0.95mm_HandSolder" V 6080 3625 50  0001 C CNN
F 3 "~" H 6150 3625 50  0001 C CNN
	1    6150 3625
	0    1    1    0   
$EndComp
$Comp
L Device:R R6
U 1 1 5D15A3C1
P 6150 3825
F 0 "R6" V 6075 3825 50  0000 C CNN
F 1 "R" V 6150 3825 50  0000 C CNN
F 2 "Resistor_SMD:R_0603_1608Metric_Pad1.05x0.95mm_HandSolder" V 6080 3825 50  0001 C CNN
F 3 "~" H 6150 3825 50  0001 C CNN
	1    6150 3825
	0    1    1    0   
$EndComp
$Comp
L Device:R R7
U 1 1 5D15A5BE
P 6150 4025
F 0 "R7" V 6075 4025 50  0000 C CNN
F 1 "R" V 6150 4025 50  0000 C CNN
F 2 "Resistor_SMD:R_0603_1608Metric_Pad1.05x0.95mm_HandSolder" V 6080 4025 50  0001 C CNN
F 3 "~" H 6150 4025 50  0001 C CNN
	1    6150 4025
	0    1    1    0   
$EndComp
$Comp
L Device:R R8
U 1 1 5D15A8A4
P 6150 4225
F 0 "R8" V 6075 4225 50  0000 C CNN
F 1 "R" V 6150 4225 50  0000 C CNN
F 2 "Resistor_SMD:R_0603_1608Metric_Pad1.05x0.95mm_HandSolder" V 6080 4225 50  0001 C CNN
F 3 "~" H 6150 4225 50  0001 C CNN
	1    6150 4225
	0    1    1    0   
$EndComp
$Comp
L Device:R R9
U 1 1 5D15ACAA
P 6150 4425
F 0 "R9" V 6075 4425 50  0000 C CNN
F 1 "R" V 6150 4425 50  0000 C CNN
F 2 "Resistor_SMD:R_0603_1608Metric_Pad1.05x0.95mm_HandSolder" V 6080 4425 50  0001 C CNN
F 3 "~" H 6150 4425 50  0001 C CNN
	1    6150 4425
	0    1    1    0   
$EndComp
$Comp
L Device:R R10
U 1 1 5D15B002
P 6150 4625
F 0 "R10" V 6050 4625 50  0000 C CNN
F 1 "R" V 6150 4625 50  0000 C CNN
F 2 "Resistor_SMD:R_0603_1608Metric_Pad1.05x0.95mm_HandSolder" V 6080 4625 50  0001 C CNN
F 3 "~" H 6150 4625 50  0001 C CNN
	1    6150 4625
	0    1    1    0   
$EndComp
$Comp
L Device:LED D3
U 1 1 5D15D03A
P 6650 3225
F 0 "D3" H 6775 3175 50  0000 C CNN
F 1 "LED" H 6650 3325 50  0000 C CNN
F 2 "LED_SMD:LED_0603_1608Metric_Pad1.05x0.95mm_HandSolder" H 6650 3225 50  0001 C CNN
F 3 "~" H 6650 3225 50  0001 C CNN
	1    6650 3225
	-1   0    0    1   
$EndComp
$Comp
L Device:LED D4
U 1 1 5D15D389
P 6650 3425
F 0 "D4" H 6775 3375 50  0000 C CNN
F 1 "LED" H 6650 3525 50  0000 C CNN
F 2 "LED_SMD:LED_0603_1608Metric_Pad1.05x0.95mm_HandSolder" H 6650 3425 50  0001 C CNN
F 3 "~" H 6650 3425 50  0001 C CNN
	1    6650 3425
	-1   0    0    1   
$EndComp
$Comp
L Device:LED D5
U 1 1 5D15D91A
P 6650 3625
F 0 "D5" H 6775 3575 50  0000 C CNN
F 1 "LED" H 6650 3725 50  0000 C CNN
F 2 "LED_SMD:LED_0603_1608Metric_Pad1.05x0.95mm_HandSolder" H 6650 3625 50  0001 C CNN
F 3 "~" H 6650 3625 50  0001 C CNN
	1    6650 3625
	-1   0    0    1   
$EndComp
$Comp
L Device:LED D6
U 1 1 5D15DE05
P 6650 3825
F 0 "D6" H 6775 3775 50  0000 C CNN
F 1 "LED" H 6650 3925 50  0000 C CNN
F 2 "LED_SMD:LED_0603_1608Metric_Pad1.05x0.95mm_HandSolder" H 6650 3825 50  0001 C CNN
F 3 "~" H 6650 3825 50  0001 C CNN
	1    6650 3825
	-1   0    0    1   
$EndComp
$Comp
L Device:LED D7
U 1 1 5D15E36F
P 6650 4025
F 0 "D7" H 6775 3975 50  0000 C CNN
F 1 "LED" H 6650 4125 50  0000 C CNN
F 2 "LED_SMD:LED_0603_1608Metric_Pad1.05x0.95mm_HandSolder" H 6650 4025 50  0001 C CNN
F 3 "~" H 6650 4025 50  0001 C CNN
	1    6650 4025
	-1   0    0    1   
$EndComp
$Comp
L Device:LED D8
U 1 1 5D15E4C1
P 6650 4225
F 0 "D8" H 6775 4175 50  0000 C CNN
F 1 "LED" H 6650 4325 50  0000 C CNN
F 2 "LED_SMD:LED_0603_1608Metric_Pad1.05x0.95mm_HandSolder" H 6650 4225 50  0001 C CNN
F 3 "~" H 6650 4225 50  0001 C CNN
	1    6650 4225
	-1   0    0    1   
$EndComp
$Comp
L Device:LED D9
U 1 1 5D15E94D
P 6650 4425
F 0 "D9" H 6775 4375 50  0000 C CNN
F 1 "LED" H 6650 4525 50  0000 C CNN
F 2 "LED_SMD:LED_0603_1608Metric_Pad1.05x0.95mm_HandSolder" H 6650 4425 50  0001 C CNN
F 3 "~" H 6650 4425 50  0001 C CNN
	1    6650 4425
	-1   0    0    1   
$EndComp
$Comp
L Device:LED D10
U 1 1 5D15EF46
P 6650 4625
F 0 "D10" H 6800 4575 50  0000 C CNN
F 1 "LED" H 6650 4725 50  0000 C CNN
F 2 "LED_SMD:LED_0603_1608Metric_Pad1.05x0.95mm_HandSolder" H 6650 4625 50  0001 C CNN
F 3 "~" H 6650 4625 50  0001 C CNN
	1    6650 4625
	-1   0    0    1   
$EndComp
Wire Wire Line
	6300 3225 6500 3225
Wire Wire Line
	6300 3425 6500 3425
Wire Wire Line
	6300 3625 6500 3625
Wire Wire Line
	6300 3825 6500 3825
Wire Wire Line
	6300 4025 6500 4025
Wire Wire Line
	6300 4225 6500 4225
Wire Wire Line
	6300 4425 6500 4425
Wire Wire Line
	6300 4625 6500 4625
Wire Wire Line
	6800 2825 7000 2825
Wire Wire Line
	7000 2825 7000 3025
Wire Wire Line
	6800 3025 7000 3025
Connection ~ 7000 3025
Wire Wire Line
	6800 3225 7000 3225
Wire Wire Line
	6800 3425 7000 3425
Wire Wire Line
	6800 3625 7000 3625
Wire Wire Line
	6800 3825 7000 3825
Wire Wire Line
	6800 4025 7000 4025
Wire Wire Line
	6800 4225 7000 4225
Wire Wire Line
	6800 4425 7000 4425
Wire Wire Line
	6800 4625 7000 4625
Wire Wire Line
	7000 3025 7000 3225
Connection ~ 7000 3225
Connection ~ 7000 4625
Connection ~ 7000 3425
Connection ~ 7000 3625
Connection ~ 7000 3825
Connection ~ 7000 4025
Connection ~ 7000 4225
Connection ~ 7000 4425
Wire Wire Line
	7000 4425 7000 4625
Wire Wire Line
	7000 4225 7000 4425
Wire Wire Line
	7000 4025 7000 4225
Wire Wire Line
	7000 3825 7000 4025
Wire Wire Line
	7000 3625 7000 3825
Wire Wire Line
	7000 3425 7000 3625
Wire Wire Line
	7000 3225 7000 3425
$Comp
L Connector_Generic:Conn_01x11 J1
U 1 1 5D165909
P 5000 3775
F 0 "J1" H 5000 4375 50  0000 C CNN
F 1 "Conn_01x11" H 5000 4475 50  0000 C CNN
F 2 "Connector_PinSocket_2.54mm:PinSocket_1x11_P2.54mm_Vertical" H 5000 3775 50  0001 C CNN
F 3 "~" H 5000 3775 50  0001 C CNN
	1    5000 3775
	-1   0    0    -1  
$EndComp
$Comp
L power:GND #PWR01
U 1 1 5D160685
P 7000 4825
F 0 "#PWR01" H 7000 4575 50  0001 C CNN
F 1 "GND" H 7005 4652 50  0000 C CNN
F 2 "" H 7000 4825 50  0001 C CNN
F 3 "" H 7000 4825 50  0001 C CNN
	1    7000 4825
	1    0    0    -1  
$EndComp
Wire Wire Line
	7000 4625 7000 4825
Wire Wire Line
	5950 3675 5950 3625
Wire Wire Line
	5950 3625 6000 3625
Wire Wire Line
	5950 3775 5950 3825
Wire Wire Line
	5950 3825 6000 3825
Wire Wire Line
	5900 3575 5900 3425
Wire Wire Line
	5900 3425 6000 3425
Wire Wire Line
	5850 3475 5850 3225
Wire Wire Line
	5850 3225 6000 3225
Wire Wire Line
	5800 3375 5800 3025
Wire Wire Line
	5800 3025 6000 3025
Wire Wire Line
	5750 3275 5750 2825
Wire Wire Line
	5750 2825 6000 2825
Wire Wire Line
	5900 3875 5900 4025
Wire Wire Line
	5900 4025 6000 4025
Wire Wire Line
	6000 4225 5850 4225
Wire Wire Line
	5850 4225 5850 3975
Wire Wire Line
	5800 4075 5800 4425
Wire Wire Line
	5800 4425 6000 4425
Wire Wire Line
	6000 4625 5750 4625
Wire Wire Line
	5750 4625 5750 4175
Wire Wire Line
	5200 3275 5750 3275
Wire Wire Line
	5200 3375 5800 3375
Wire Wire Line
	5200 3475 5850 3475
Wire Wire Line
	5200 3575 5900 3575
Wire Wire Line
	5200 3675 5950 3675
Wire Wire Line
	5200 3775 5950 3775
Wire Wire Line
	5200 3875 5900 3875
Wire Wire Line
	5200 3975 5850 3975
Wire Wire Line
	5200 4075 5800 4075
Wire Wire Line
	5200 4175 5750 4175
$Comp
L power:GND #PWR0101
U 1 1 605274B3
P 5250 4350
F 0 "#PWR0101" H 5250 4100 50  0001 C CNN
F 1 "GND" H 5255 4177 50  0000 C CNN
F 2 "" H 5250 4350 50  0001 C CNN
F 3 "" H 5250 4350 50  0001 C CNN
	1    5250 4350
	1    0    0    -1  
$EndComp
$Comp
L power:PWR_FLAG #FLG0101
U 1 1 6052B8CF
P 5550 4350
F 0 "#FLG0101" H 5550 4425 50  0001 C CNN
F 1 "PWR_FLAG" H 5550 4523 50  0000 C CNN
F 2 "" H 5550 4350 50  0001 C CNN
F 3 "~" H 5550 4350 50  0001 C CNN
	1    5550 4350
	-1   0    0    1   
$EndComp
Wire Wire Line
	5550 4350 5550 4275
Wire Wire Line
	5200 4275 5250 4275
Wire Wire Line
	5250 4350 5250 4275
Connection ~ 5250 4275
Wire Wire Line
	5250 4275 5550 4275
$EndSCHEMATC
