(module LOGO (layer F.Cu)
  (at 0 0)
 (fp_text reference "G***" (at 0 0) (layer F.SilkS) hide
  (effects (font (thickness 0.3)))
  )
  (fp_text value "LOGO" (at 0.75 0) (layer F.SilkS) hide
  (effects (font (thickness 0.3)))
  )
  (fp_poly (pts (xy -8.198661 -3.372659) (xy -7.790348 -3.248637) (xy -7.767071 -3.239957) (xy -7.157864 -2.922241) (xy -6.577620 -2.458986) (xy -6.085862 -1.904720) (xy -5.797903 -1.435969) (xy -5.515140 -0.860159)
     (xy -5.515140 5.110359) (xy -5.799233 5.717530) (xy -6.166033 6.317735) (xy -6.655240 6.853158) (xy -7.214436 7.273371) (xy -7.625165 7.474115) (xy -8.075753 7.615685) (xy -8.526777 7.712107)
     (xy -8.917738 7.753828) (xy -9.188136 7.731297) (xy -9.208765 7.724155) (xy -9.578092 7.490209) (xy -9.794366 7.160846) (xy -9.838760 6.775883) (xy -9.773241 6.530397) (xy -9.624965 6.262944)
     (xy -9.416965 6.091318) (xy -9.095070 5.981762) (xy -8.808657 5.929301) (xy -8.256941 5.781538) (xy -7.839408 5.518470) (xy -7.545884 5.124805) (xy -7.366196 4.585249) (xy -7.290170 3.884513)
     (xy -7.286056 3.640606) (xy -7.286056 2.690132) (xy -7.719966 3.115983) (xy -7.985364 3.359167) (xy -8.196725 3.486664) (xy -8.433823 3.534629) (xy -8.656022 3.540252) (xy -9.574553 3.450254)
     (xy -10.388700 3.187739) (xy -11.094985 2.754765) (xy -11.689933 2.153394) (xy -12.117384 1.488894) (xy -12.255671 1.199553) (xy -12.339141 0.933270) (xy -12.381104 0.621202) (xy -12.394872 0.194504)
     (xy -12.395464 0.054846) (xy -10.619511 0.054846) (xy -10.524030 0.581132) (xy -10.437414 0.781520) (xy -10.146244 1.194327) (xy -9.747421 1.476620) (xy -9.213775 1.643148) (xy -8.748262 1.698556)
     (xy -8.352606 1.731644) (xy -8.092995 1.784781) (xy -7.903128 1.882302) (xy -7.716704 2.048546) (xy -7.672952 2.093264) (xy -7.336653 2.440544) (xy -7.306465 1.194973) (xy -7.299422 0.680288)
     (xy -7.302801 0.210382) (xy -7.315610 -0.161498) (xy -7.335791 -0.376503) (xy -7.487464 -0.759286) (xy -7.770964 -1.134551) (xy -8.127154 -1.427738) (xy -8.203841 -1.470965) (xy -8.481610 -1.561195)
     (xy -8.843071 -1.613696) (xy -8.986384 -1.619123) (xy -9.523809 -1.528802) (xy -9.977016 -1.281201) (xy -10.324823 -0.911364) (xy -10.546049 -0.454334) (xy -10.619511 0.054846) (xy -12.395464 0.054846)
     (xy -12.395483 0.050598) (xy -12.386371 -0.434522) (xy -12.349219 -0.790464) (xy -12.271058 -1.089879) (xy -12.138922 -1.405419) (xy -12.133592 -1.416733) (xy -11.689090 -2.135720) (xy -11.112022 -2.706943)
     (xy -10.419044 -3.119368) (xy -9.626814 -3.361958) (xy -9.107570 -3.421557) (xy -8.604367 -3.425779) (xy -8.198661 -3.372659) )(layer F.SilkS) (width  0.010000)
  )
  (fp_poly (pts (xy 0.101195 -1.638089) (xy -0.885458 -1.603307) (xy -1.368016 -1.579723) (xy -1.701246 -1.542105) (xy -1.938192 -1.479352) (xy -2.131895 -1.380365) (xy -2.212788 -1.325549) (xy -2.460500 -1.119538)
     (xy -2.645589 -0.882527) (xy -2.776595 -0.582946) (xy -2.862054 -0.189225) (xy -2.910508 0.330207) (xy -2.930493 1.006919) (xy -2.932439 1.335194) (xy -2.934879 1.938657) (xy -2.943117 2.374282)
     (xy -2.961463 2.676619) (xy -2.994225 2.880215) (xy -3.045715 3.019618) (xy -3.120242 3.129375) (xy -3.162351 3.178197) (xy -3.502530 3.431647) (xy -3.889734 3.488711) (xy -4.207584 3.400542)
     (xy -4.400880 3.292496) (xy -4.545046 3.144691) (xy -4.646038 2.929586) (xy -4.709813 2.619640) (xy -4.742329 2.187309) (xy -4.749540 1.605052) (xy -4.739556 0.940836) (xy -4.723682 0.305433)
     (xy -4.704506 -0.166951) (xy -4.676754 -0.515682) (xy -4.635148 -0.780122) (xy -4.574412 -0.999635) (xy -4.489271 -1.213584) (xy -4.434740 -1.333261) (xy -4.015463 -2.029090) (xy -3.469115 -2.620227)
     (xy -2.837586 -3.062603) (xy -2.746591 -3.109259) (xy -2.462606 -3.237094) (xy -2.194952 -3.322416) (xy -1.886233 -3.375854) (xy -1.479055 -3.408038) (xy -1.037251 -3.425838) (xy 0.101195 -3.462480)
     (xy 0.101195 -1.638089) )(layer F.SilkS) (width  0.010000)
  )
  (fp_poly (pts (xy 1.770916 -7.286055) (xy 2.226295 -6.839135) (xy 2.230736 -3.343671) (xy 2.233444 -2.334988) (xy 2.240233 -1.507415) (xy 2.253320 -0.839680) (xy 2.274920 -0.310510) (xy 2.307252 0.101366)
     (xy 2.352531 0.417220) (xy 2.412973 0.658324) (xy 2.490795 0.845951) (xy 2.588214 1.001373) (xy 2.697350 1.134538) (xy 3.114253 1.464481) (xy 3.605483 1.635501) (xy 4.125600 1.651826)
     (xy 4.629169 1.517684) (xy 5.070750 1.237305) (xy 5.363893 0.886383) (xy 5.517866 0.473416) (xy 5.561538 -0.024138) (xy 5.492858 -0.519857) (xy 5.403171 -0.767374) (xy 5.179484 -1.106853)
     (xy 4.860898 -1.349653) (xy 4.417541 -1.509444) (xy 3.819542 -1.599894) (xy 3.541833 -1.619123) (xy 2.580478 -1.669721) (xy 2.580478 -3.390039) (xy 3.744223 -3.386137) (xy 4.274366 -3.379364)
     (xy 4.655378 -3.357918) (xy 4.940407 -3.313850) (xy 5.182601 -3.239210) (xy 5.413944 -3.136381) (xy 5.982717 -2.773646) (xy 6.516259 -2.278269) (xy 6.947228 -1.717433) (xy 7.086961 -1.467330)
     (xy 7.292845 -0.858104) (xy 7.381651 -0.157911) (xy 7.350583 0.557176) (xy 7.196844 1.211087) (xy 7.186453 1.239304) (xy 6.822633 1.937577) (xy 6.313220 2.527261) (xy 5.690065 2.991886)
     (xy 4.985021 3.314982) (xy 4.229938 3.480081) (xy 3.456668 3.470714) (xy 3.035856 3.385422) (xy 2.305646 3.083757) (xy 1.645480 2.616851) (xy 1.093423 2.019313) (xy 0.687536 1.325748)
     (xy 0.637321 1.204652) (xy 0.591327 1.065953) (xy 0.553448 0.893585) (xy 0.522647 0.666486) (xy 0.497884 0.363590) (xy 0.478120 -0.036168) (xy 0.462316 -0.553851) (xy 0.449433 -1.210524)
     (xy 0.438433 -2.027252) (xy 0.428277 -3.025100) (xy 0.428178 -3.035856) (xy 0.393312 -6.830677) (xy 0.854425 -7.281826) (xy 1.315538 -7.732976) (xy 1.770916 -7.286055) )(layer F.SilkS) (width  0.010000)
  )
  (fp_poly (pts (xy 9.554751 -7.542106) (xy 9.683799 -7.446746) (xy 9.967729 -7.202655) (xy 10.018327 -3.272443) (xy 10.031340 -2.277777) (xy 10.043161 -1.465152) (xy 10.055156 -0.814234) (xy 10.068692 -0.304690)
     (xy 10.085135 0.083815) (xy 10.105850 0.371613) (xy 10.132205 0.579038) (xy 10.165564 0.726423) (xy 10.207296 0.834104) (xy 10.258764 0.922412) (xy 10.304591 0.988181) (xy 10.682623 1.368416)
     (xy 11.185848 1.608396) (xy 11.392961 1.661884) (xy 11.638976 1.773202) (xy 11.940767 1.990319) (xy 12.147696 2.180048) (xy 12.590346 2.631076) (xy 12.143426 3.086455) (xy 11.884550 3.338411)
     (xy 11.683124 3.472871) (xy 11.466279 3.511106) (xy 11.161142 3.474387) (xy 10.951601 3.434352) (xy 10.273685 3.205953) (xy 9.628095 2.814090) (xy 9.059880 2.297290) (xy 8.614093 1.694080)
     (xy 8.404643 1.256250) (xy 8.351873 1.105885) (xy 8.308859 0.950372) (xy 8.274607 0.768210) (xy 8.248125 0.537894) (xy 8.228420 0.237922) (xy 8.214500 -0.153210) (xy 8.205373 -0.657003)
     (xy 8.200047 -1.294962) (xy 8.197527 -2.088589) (xy 8.196823 -3.059388) (xy 8.196813 -3.246643) (xy 8.196813 -7.194060) (xy 8.445201 -7.442448) (xy 8.783116 -7.650681) (xy 9.170498 -7.683961)
     (xy 9.554751 -7.542106) )(layer F.SilkS) (width  0.010000)
  )
)
